%!PS-Adobe-3.0 EPSF-3.0
%%Creator: MATLAB, The MathWorks, Inc. Version 8.0.0.783 (R2012b). Operating System: Microsoft Windows 7.
%%Title: C:\SILVIA\UniversitÓ\Presenti\Modellazione E Simulazioni Numeriche\Relazione\percolazione\codici\grafici\P\P L10.eps
%%CreationDate: 06/13/2015  14:50:20
%%DocumentNeededFonts: Helvetica
%%DocumentProcessColors: Cyan Magenta Yellow Black
%%LanguageLevel: 2
%%Pages: 1
%%BoundingBox:    87   262   507   578
%%EndComments

%%BeginProlog
% MathWorks dictionary
/MathWorks 160 dict begin
% definition operators
/bdef {bind def} bind def
/ldef {load def} bind def
/xdef {exch def} bdef
/xstore {exch store} bdef
% operator abbreviations
/c  /clip ldef
/cc /concat ldef
/cp /closepath ldef
/gr /grestore ldef
/gs /gsave ldef
/mt /moveto ldef
/np /newpath ldef
/cm /currentmatrix ldef
/sm /setmatrix ldef
/rm /rmoveto ldef
/rl /rlineto ldef
/s {show newpath} bdef
/sc {setcmykcolor} bdef
/sr /setrgbcolor ldef
/sg /setgray ldef
/w /setlinewidth ldef
/j /setlinejoin ldef
/cap /setlinecap ldef
/rc {rectclip} bdef
/rf {rectfill} bdef
% page state control
/pgsv () def
/bpage {/pgsv save def} bdef
/epage {pgsv restore} bdef
/bplot /gsave ldef
/eplot {stroke grestore} bdef
% orientation switch
/portraitMode 0 def /landscapeMode 1 def /rotateMode 2 def
% coordinate system mappings
/dpi2point 0 def
% font control
/FontSize 0 def
/FMS {/FontSize xstore findfont [FontSize 0 0 FontSize neg 0 0]
  makefont setfont} bdef
/ISOLatin1Encoding where {pop /WindowsLatin1Encoding 256 array bdef
ISOLatin1Encoding WindowsLatin1Encoding copy pop
/.notdef/.notdef/quotesinglbase/florin/quotedblbase/ellipsis/dagger
/daggerdbl/circumflex/perthousand/Scaron/guilsinglleft/OE/.notdef/.notdef
/.notdef/.notdef/quoteleft/quoteright/quotedblleft/quotedblright/bullet
/endash/emdash/tilde/trademark/scaron/guilsinglright/oe/.notdef/.notdef
/Ydieresis WindowsLatin1Encoding 128 32 getinterval astore pop}
{/WindowsLatin1Encoding StandardEncoding bdef} ifelse
/reencode {exch dup where {pop load} {pop StandardEncoding} ifelse
  exch dup 3 1 roll findfont dup length dict begin
  { 1 index /FID ne {def}{pop pop} ifelse } forall
  /Encoding exch def currentdict end definefont pop} bdef
/isroman {findfont /CharStrings get /Agrave known} bdef
/FMSR {3 1 roll 1 index dup isroman {reencode} {pop pop} ifelse
  exch FMS} bdef
/csm {1 dpi2point div -1 dpi2point div scale neg translate
 dup landscapeMode eq {pop -90 rotate}
  {rotateMode eq {90 rotate} if} ifelse} bdef
% line types: solid, dotted, dashed, dotdash
/SO { [] 0 setdash } bdef
/DO { [.5 dpi2point mul 4 dpi2point mul] 0 setdash } bdef
/DA { [6 dpi2point mul] 0 setdash } bdef
/DD { [.5 dpi2point mul 4 dpi2point mul 6 dpi2point mul 4
  dpi2point mul] 0 setdash } bdef
% macros for lines and objects
/L {lineto stroke} bdef
/MP {3 1 roll moveto 1 sub {rlineto} repeat} bdef
/AP {{rlineto} repeat} bdef
/PDlw -1 def
/W {/PDlw currentlinewidth def setlinewidth} def
/PP {closepath eofill} bdef
/DP {closepath stroke} bdef
/MR {4 -2 roll moveto dup  0 exch rlineto exch 0 rlineto
  neg 0 exch rlineto closepath} bdef
/FR {MR stroke} bdef
/PR {MR fill} bdef
/L1i {{currentfile picstr readhexstring pop} image} bdef
/tMatrix matrix def
/MakeOval {newpath tMatrix currentmatrix pop translate scale
0 0 1 0 360 arc tMatrix setmatrix} bdef
/FO {MakeOval stroke} bdef
/PO {MakeOval fill} bdef
/PD {currentlinewidth 2 div 0 360 arc fill
   PDlw -1 eq not {PDlw w /PDlw -1 def} if} def
/FA {newpath tMatrix currentmatrix pop translate scale
  0 0 1 5 -2 roll arc tMatrix setmatrix stroke} bdef
/PA {newpath tMatrix currentmatrix pop	translate 0 0 moveto scale
  0 0 1 5 -2 roll arc closepath tMatrix setmatrix fill} bdef
/FAn {newpath tMatrix currentmatrix pop translate scale
  0 0 1 5 -2 roll arcn tMatrix setmatrix stroke} bdef
/PAn {newpath tMatrix currentmatrix pop translate 0 0 moveto scale
  0 0 1 5 -2 roll arcn closepath tMatrix setmatrix fill} bdef
/vradius 0 def /hradius 0 def /lry 0 def
/lrx 0 def /uly 0 def /ulx 0 def /rad 0 def
/MRR {/vradius xdef /hradius xdef /lry xdef /lrx xdef /uly xdef
  /ulx xdef newpath tMatrix currentmatrix pop ulx hradius add uly
  vradius add translate hradius vradius scale 0 0 1 180 270 arc 
  tMatrix setmatrix lrx hradius sub uly vradius add translate
  hradius vradius scale 0 0 1 270 360 arc tMatrix setmatrix
  lrx hradius sub lry vradius sub translate hradius vradius scale
  0 0 1 0 90 arc tMatrix setmatrix ulx hradius add lry vradius sub
  translate hradius vradius scale 0 0 1 90 180 arc tMatrix setmatrix
  closepath} bdef
/FRR {MRR stroke } bdef
/PRR {MRR fill } bdef
/MlrRR {/lry xdef /lrx xdef /uly xdef /ulx xdef /rad lry uly sub 2 div def
  newpath tMatrix currentmatrix pop ulx rad add uly rad add translate
  rad rad scale 0 0 1 90 270 arc tMatrix setmatrix lrx rad sub lry rad
  sub translate rad rad scale 0 0 1 270 90 arc tMatrix setmatrix
  closepath} bdef
/FlrRR {MlrRR stroke } bdef
/PlrRR {MlrRR fill } bdef
/MtbRR {/lry xdef /lrx xdef /uly xdef /ulx xdef /rad lrx ulx sub 2 div def
  newpath tMatrix currentmatrix pop ulx rad add uly rad add translate
  rad rad scale 0 0 1 180 360 arc tMatrix setmatrix lrx rad sub lry rad
  sub translate rad rad scale 0 0 1 0 180 arc tMatrix setmatrix
  closepath} bdef
/FtbRR {MtbRR stroke } bdef
/PtbRR {MtbRR fill } bdef
/stri 6 array def /dtri 6 array def
/smat 6 array def /dmat 6 array def
/tmat1 6 array def /tmat2 6 array def /dif 3 array def
/asub {/ind2 exch def /ind1 exch def dup dup
  ind1 get exch ind2 get sub exch } bdef
/tri_to_matrix {
  2 0 asub 3 1 asub 4 0 asub 5 1 asub
  dup 0 get exch 1 get 7 -1 roll astore } bdef
/compute_transform {
  dmat dtri tri_to_matrix tmat1 invertmatrix 
  smat stri tri_to_matrix tmat2 concatmatrix } bdef
/ds {stri astore pop} bdef
/dt {dtri astore pop} bdef
/db {2 copy /cols xdef /rows xdef mul dup 3 mul string
  currentfile 
  3 index 0 eq {/ASCIIHexDecode filter}
  {/ASCII85Decode filter 3 index 2 eq {/RunLengthDecode filter} if }
  ifelse exch readstring pop
  dup 0 3 index getinterval /rbmap xdef
  dup 2 index dup getinterval /gbmap xdef
  1 index dup 2 mul exch getinterval /bbmap xdef pop pop}bdef
/it {gs np dtri aload pop moveto lineto lineto cp c
  cols rows 8 compute_transform 
  rbmap gbmap bbmap true 3 colorimage gr}bdef
/il {newpath moveto lineto stroke}bdef
currentdict end def
%%EndProlog

%%BeginSetup
MathWorks begin

0 cap

end
%%EndSetup

%%Page: 1 1
%%BeginPageSetup
%%PageBoundingBox:    87   262   507   578
MathWorks begin
bpage
%%EndPageSetup

%%BeginObject: obj1
bplot

/dpi2point 12 def
portraitMode 1044 6936 csm

    0     0  5045  3782 rc
86 dict begin %Colortable dictionary
/c0 { 0.000000 0.000000 0.000000 sr} bdef
/c1 { 1.000000 1.000000 1.000000 sr} bdef
/c2 { 0.900000 0.000000 0.000000 sr} bdef
/c3 { 0.000000 0.820000 0.000000 sr} bdef
/c4 { 0.000000 0.000000 0.800000 sr} bdef
/c5 { 0.910000 0.820000 0.320000 sr} bdef
/c6 { 1.000000 0.260000 0.820000 sr} bdef
/c7 { 0.000000 0.820000 0.820000 sr} bdef
c0
1 j
1 sg
   0    0 5046 3783 rf
6 w
0 3082 3910 0 0 -3082 656 3366 4 MP
PP
-3910 0 0 3082 3910 0 0 -3082 656 3366 5 MP stroke
4 w
DO
0 sg
 656 3366 mt  656  284 L
 656  284 mt  656  284 L
1438 3366 mt 1438  284 L
1438  284 mt 1438  284 L
2220 3366 mt 2220  284 L
2220  284 mt 2220  284 L
3002 3366 mt 3002  284 L
3002  284 mt 3002  284 L
3784 3366 mt 3784  284 L
3784  284 mt 3784  284 L
4566 3366 mt 4566  284 L
4566  284 mt 4566  284 L
 656 3366 mt 4566 3366 L
4566 3366 mt 4566 3366 L
 656 2925 mt 4566 2925 L
4566 2925 mt 4566 2925 L
 656 2485 mt 4566 2485 L
4566 2485 mt 4566 2485 L
 656 2045 mt 4566 2045 L
4566 2045 mt 4566 2045 L
 656 1604 mt 4566 1604 L
4566 1604 mt 4566 1604 L
 656 1164 mt 4566 1164 L
4566 1164 mt 4566 1164 L
 656  724 mt 4566  724 L
4566  724 mt 4566  724 L
 656  284 mt 4566  284 L
4566  284 mt 4566  284 L
SO
6 w
 656 3366 mt 4566 3366 L
 656 3366 mt  656  284 L
 656 3366 mt  656 3326 L
%%IncludeResource: font Helvetica
/Helvetica /WindowsLatin1Encoding 120 FMSR

 623 3511 mt 
(0) s
1438 3366 mt 1438 3326 L
1355 3511 mt 
(0.2) s
2220 3366 mt 2220 3326 L
2137 3511 mt 
(0.4) s
3002 3366 mt 3002 3326 L
2919 3511 mt 
(0.6) s
3784 3366 mt 3784 3326 L
3701 3511 mt 
(0.8) s
4566 3366 mt 4566 3326 L
4533 3511 mt 
(1) s
 656 3366 mt  695 3366 L
 555 3410 mt 
(0) s
 656 2925 mt  695 2925 L
 455 2969 mt 
(0.2) s
 656 2485 mt  695 2485 L
 455 2529 mt 
(0.4) s
 656 2045 mt  695 2045 L
 455 2089 mt 
(0.6) s
 656 1604 mt  695 1604 L
 455 1648 mt 
(0.8) s
 656 1164 mt  695 1164 L
 555 1208 mt 
(1) s
 656  724 mt  695  724 L
 455  768 mt 
(1.2) s
 656  284 mt  695  284 L
 455  328 mt 
(1.4) s
gs 656 284 3911 3083 rc
/c8 { 1.000000 0.000000 0.000000 sr} bdef
c8
0 2 851 3334 2 MP stroke
70 0 816 3334 2 MP stroke
70 0 816 3336 2 MP stroke
0 2 1047 3317 2 MP stroke
71 0 1011 3317 2 MP stroke
71 0 1011 3319 2 MP stroke
0 4 1242 3294 2 MP stroke
70 0 1207 3294 2 MP stroke
70 0 1207 3298 2 MP stroke
0 6 1438 3268 2 MP stroke
71 0 1402 3268 2 MP stroke
71 0 1402 3274 2 MP stroke
0 7 1633 3243 2 MP stroke
70 0 1598 3243 2 MP stroke
70 0 1598 3250 2 MP stroke
0 9 1829 3207 2 MP stroke
71 0 1793 3207 2 MP stroke
71 0 1793 3216 2 MP stroke
0 12 2024 3151 2 MP stroke
70 0 1989 3151 2 MP stroke
70 0 1989 3163 2 MP stroke
0 16 2220 3103 2 MP stroke
71 0 2184 3103 2 MP stroke
71 0 2184 3119 2 MP stroke
0 21 2415 3016 2 MP stroke
70 0 2380 3016 2 MP stroke
70 0 2380 3037 2 MP stroke
0 27 2611 2881 2 MP stroke
71 0 2575 2881 2 MP stroke
71 0 2575 2908 2 MP stroke
0 37 2806 2700 2 MP stroke
70 0 2771 2700 2 MP stroke
70 0 2771 2737 2 MP stroke
0 50 3001 2455 2 MP stroke
71 0 2966 2455 2 MP stroke
71 0 2966 2505 2 MP stroke
0 66 3197 2192 2 MP stroke
70 0 3162 2192 2 MP stroke
70 0 3162 2258 2 MP stroke
0 83 3393 1953 2 MP stroke
71 0 3357 1953 2 MP stroke
71 0 3357 2036 2 MP stroke
0 100 3588 1713 2 MP stroke
70 0 3553 1713 2 MP stroke
70 0 3553 1813 2 MP stroke
0 116 3783 1578 2 MP stroke
71 0 3748 1578 2 MP stroke
71 0 3748 1694 2 MP stroke
0 129 3979 1428 2 MP stroke
70 0 3944 1428 2 MP stroke
70 0 3944 1557 2 MP stroke
0 141 4175 1312 2 MP stroke
71 0 4139 1312 2 MP stroke
71 0 4139 1453 2 MP stroke
0 151 4370 1201 2 MP stroke
70 0 4335 1201 2 MP stroke
70 0 4335 1352 2 MP stroke
195 -107 196 -110 196 -143 195 -127 195 -232 196 -230 196 -255 195 -238 
195 -177 196 -131 195 -85 196 -46 195 -55 196 -34 195 -25 196 -25 
195 -22 196 -17 851 3335 19 MP stroke
/c9 { 0.000000 0.000000 1.000000 sr} bdef
c9
0 29 851 2739 2 MP stroke
70 0 816 2739 2 MP stroke
70 0 816 2768 2 MP stroke
0 34 1047 2875 2 MP stroke
71 0 1011 2875 2 MP stroke
71 0 1011 2909 2 MP stroke
0 39 1242 2882 2 MP stroke
70 0 1207 2882 2 MP stroke
70 0 1207 2921 2 MP stroke
0 43 1438 2872 2 MP stroke
71 0 1402 2872 2 MP stroke
71 0 1402 2915 2 MP stroke
0 46 1633 2865 2 MP stroke
70 0 1598 2865 2 MP stroke
70 0 1598 2911 2 MP stroke
0 49 1829 2828 2 MP stroke
71 0 1793 2828 2 MP stroke
71 0 1793 2877 2 MP stroke
0 52 2024 2744 2 MP stroke
70 0 1989 2744 2 MP stroke
70 0 1989 2796 2 MP stroke
0 55 2220 2702 2 MP stroke
71 0 2184 2702 2 MP stroke
71 0 2184 2757 2 MP stroke
0 58 2415 2583 2 MP stroke
70 0 2380 2583 2 MP stroke
70 0 2380 2641 2 MP stroke
0 65 2611 2391 2 MP stroke
71 0 2575 2391 2 MP stroke
71 0 2575 2456 2 MP stroke
0 74 2806 2152 2 MP stroke
70 0 2771 2152 2 MP stroke
70 0 2771 2226 2 MP stroke
0 87 3001 1846 2 MP stroke
71 0 2966 1846 2 MP stroke
71 0 2966 1933 2 MP stroke
0 103 3197 1560 2 MP stroke
70 0 3162 1560 2 MP stroke
70 0 3162 1663 2 MP stroke
0 117 3393 1349 2 MP stroke
71 0 3357 1349 2 MP stroke
71 0 3357 1466 2 MP stroke
0 132 3588 1163 2 MP stroke
70 0 3553 1163 2 MP stroke
70 0 3553 1295 2 MP stroke
0 141 3783 1133 2 MP stroke
71 0 3748 1133 2 MP stroke
71 0 3748 1274 2 MP stroke
0 146 3979 1089 2 MP stroke
70 0 3944 1089 2 MP stroke
70 0 3944 1235 2 MP stroke
0 149 4175 1088 2 MP stroke
71 0 4139 1088 2 MP stroke
71 0 4139 1237 2 MP stroke
0 147 4370 1093 2 MP stroke
70 0 4335 1093 2 MP stroke
70 0 4335 1240 2 MP stroke
195 3 196 1 196 -41 195 -26 195 -178 196 -204 196 -278 195 -300 
195 -235 196 -188 195 -117 196 -41 195 -83 196 -35 195 -5 196 -9 
195 10 196 138 851 2754 19 MP stroke
/c10 { 0.000000 1.000000 0.000000 sr} bdef
c10
0 35 851 2601 2 MP stroke
70 0 816 2601 2 MP stroke
70 0 816 2636 2 MP stroke
0 40 1047 2869 2 MP stroke
71 0 1011 2869 2 MP stroke
71 0 1011 2909 2 MP stroke
0 43 1242 2892 2 MP stroke
70 0 1207 2892 2 MP stroke
70 0 1207 2935 2 MP stroke
0 46 1438 2866 2 MP stroke
71 0 1402 2866 2 MP stroke
71 0 1402 2912 2 MP stroke
0 49 1633 2877 2 MP stroke
70 0 1598 2877 2 MP stroke
70 0 1598 2926 2 MP stroke
0 51 1829 2842 2 MP stroke
71 0 1793 2842 2 MP stroke
71 0 1793 2893 2 MP stroke
0 54 2024 2750 2 MP stroke
70 0 1989 2750 2 MP stroke
70 0 1989 2804 2 MP stroke
0 57 2220 2709 2 MP stroke
71 0 2184 2709 2 MP stroke
71 0 2184 2766 2 MP stroke
0 60 2415 2595 2 MP stroke
70 0 2380 2595 2 MP stroke
70 0 2380 2655 2 MP stroke
0 66 2611 2416 2 MP stroke
71 0 2575 2416 2 MP stroke
71 0 2575 2482 2 MP stroke
0 74 2806 2160 2 MP stroke
70 0 2771 2160 2 MP stroke
70 0 2771 2234 2 MP stroke
0 86 3001 1874 2 MP stroke
71 0 2966 1874 2 MP stroke
71 0 2966 1960 2 MP stroke
0 102 3197 1581 2 MP stroke
70 0 3162 1581 2 MP stroke
70 0 3162 1683 2 MP stroke
0 117 3393 1361 2 MP stroke
71 0 3357 1361 2 MP stroke
71 0 3357 1478 2 MP stroke
0 130 3588 1182 2 MP stroke
70 0 3553 1182 2 MP stroke
70 0 3553 1312 2 MP stroke
0 140 3783 1137 2 MP stroke
71 0 3748 1137 2 MP stroke
71 0 3748 1277 2 MP stroke
0 145 3979 1100 2 MP stroke
70 0 3944 1100 2 MP stroke
70 0 3944 1245 2 MP stroke
0 147 4175 1093 2 MP stroke
71 0 4139 1093 2 MP stroke
71 0 4139 1240 2 MP stroke
0 146 4370 1091 2 MP stroke
70 0 4335 1091 2 MP stroke
70 0 4335 1237 2 MP stroke
195 -2 196 -7 196 -34 195 -40 195 -172 196 -213 196 -285 195 -280 
195 -252 196 -176 195 -113 196 -39 195 -90 196 -34 195 12 196 -25 
195 25 196 270 851 2619 19 MP stroke
gr

c10
0 sg
2150 3654 mt 
(Prob. colorazione) s
 373 1866 mt  -90 rotate
(P) s
90 rotate
2025  189 mt 
(P1, P2 e P3 con L=10) s
 621 3427 mt 
( ) s
4532  344 mt 
( ) s
1 sg
0 546 666 0 0 -546 811 942 4 MP
PP
-666 0 0 546 666 0 0 -546 811 942 5 MP stroke
4 w
DO
SO
6 w
0 sg
 811  396 mt 1477  396 L
 811  942 mt 1477  942 L
1477  942 mt 1477  396 L
 811  942 mt  811  396 L
 811  942 mt 1477  942 L
 811  942 mt  811  396 L
 811  396 mt 1477  396 L
 811  942 mt 1477  942 L
1477  942 mt 1477  396 L
 811  942 mt  811  396 L
1280  543 mt 
(P1) s
gs 811 396 667 547 rc
c8
360 0 883 501 2 MP stroke
gr

c8
0 sg
1280  712 mt 
(P2) s
gs 811 396 667 547 rc
c9
360 0 883 669 2 MP stroke
gr

c9
0 sg
1280  880 mt 
(P3) s
gs 811 396 667 547 rc
c10
360 0 883 837 2 MP stroke
gr

c10

end %%Color Dict

eplot
%%EndObject

epage
end

showpage

%%Trailer
%%EOF
