%!PS-Adobe-3.0 EPSF-3.0
%%Creator: MATLAB, The MathWorks, Inc. Version 8.0.0.783 (R2012b). Operating System: Microsoft Windows 7.
%%Title: C:\SILVIA\UniversitÓ\Presenti\Modellazione E Simulazioni Numeriche\Relazione\percolazione\codici\grafici\P\P L500.eps
%%CreationDate: 06/13/2015  14:45:40
%%DocumentNeededFonts: Helvetica
%%DocumentProcessColors: Cyan Magenta Yellow Black
%%LanguageLevel: 2
%%Pages: 1
%%BoundingBox:    60   224   532   617
%%EndComments

%%BeginProlog
% MathWorks dictionary
/MathWorks 160 dict begin
% definition operators
/bdef {bind def} bind def
/ldef {load def} bind def
/xdef {exch def} bdef
/xstore {exch store} bdef
% operator abbreviations
/c  /clip ldef
/cc /concat ldef
/cp /closepath ldef
/gr /grestore ldef
/gs /gsave ldef
/mt /moveto ldef
/np /newpath ldef
/cm /currentmatrix ldef
/sm /setmatrix ldef
/rm /rmoveto ldef
/rl /rlineto ldef
/s {show newpath} bdef
/sc {setcmykcolor} bdef
/sr /setrgbcolor ldef
/sg /setgray ldef
/w /setlinewidth ldef
/j /setlinejoin ldef
/cap /setlinecap ldef
/rc {rectclip} bdef
/rf {rectfill} bdef
% page state control
/pgsv () def
/bpage {/pgsv save def} bdef
/epage {pgsv restore} bdef
/bplot /gsave ldef
/eplot {stroke grestore} bdef
% orientation switch
/portraitMode 0 def /landscapeMode 1 def /rotateMode 2 def
% coordinate system mappings
/dpi2point 0 def
% font control
/FontSize 0 def
/FMS {/FontSize xstore findfont [FontSize 0 0 FontSize neg 0 0]
  makefont setfont} bdef
/ISOLatin1Encoding where {pop /WindowsLatin1Encoding 256 array bdef
ISOLatin1Encoding WindowsLatin1Encoding copy pop
/.notdef/.notdef/quotesinglbase/florin/quotedblbase/ellipsis/dagger
/daggerdbl/circumflex/perthousand/Scaron/guilsinglleft/OE/.notdef/.notdef
/.notdef/.notdef/quoteleft/quoteright/quotedblleft/quotedblright/bullet
/endash/emdash/tilde/trademark/scaron/guilsinglright/oe/.notdef/.notdef
/Ydieresis WindowsLatin1Encoding 128 32 getinterval astore pop}
{/WindowsLatin1Encoding StandardEncoding bdef} ifelse
/reencode {exch dup where {pop load} {pop StandardEncoding} ifelse
  exch dup 3 1 roll findfont dup length dict begin
  { 1 index /FID ne {def}{pop pop} ifelse } forall
  /Encoding exch def currentdict end definefont pop} bdef
/isroman {findfont /CharStrings get /Agrave known} bdef
/FMSR {3 1 roll 1 index dup isroman {reencode} {pop pop} ifelse
  exch FMS} bdef
/csm {1 dpi2point div -1 dpi2point div scale neg translate
 dup landscapeMode eq {pop -90 rotate}
  {rotateMode eq {90 rotate} if} ifelse} bdef
% line types: solid, dotted, dashed, dotdash
/SO { [] 0 setdash } bdef
/DO { [.5 dpi2point mul 4 dpi2point mul] 0 setdash } bdef
/DA { [6 dpi2point mul] 0 setdash } bdef
/DD { [.5 dpi2point mul 4 dpi2point mul 6 dpi2point mul 4
  dpi2point mul] 0 setdash } bdef
% macros for lines and objects
/L {lineto stroke} bdef
/MP {3 1 roll moveto 1 sub {rlineto} repeat} bdef
/AP {{rlineto} repeat} bdef
/PDlw -1 def
/W {/PDlw currentlinewidth def setlinewidth} def
/PP {closepath eofill} bdef
/DP {closepath stroke} bdef
/MR {4 -2 roll moveto dup  0 exch rlineto exch 0 rlineto
  neg 0 exch rlineto closepath} bdef
/FR {MR stroke} bdef
/PR {MR fill} bdef
/L1i {{currentfile picstr readhexstring pop} image} bdef
/tMatrix matrix def
/MakeOval {newpath tMatrix currentmatrix pop translate scale
0 0 1 0 360 arc tMatrix setmatrix} bdef
/FO {MakeOval stroke} bdef
/PO {MakeOval fill} bdef
/PD {currentlinewidth 2 div 0 360 arc fill
   PDlw -1 eq not {PDlw w /PDlw -1 def} if} def
/FA {newpath tMatrix currentmatrix pop translate scale
  0 0 1 5 -2 roll arc tMatrix setmatrix stroke} bdef
/PA {newpath tMatrix currentmatrix pop	translate 0 0 moveto scale
  0 0 1 5 -2 roll arc closepath tMatrix setmatrix fill} bdef
/FAn {newpath tMatrix currentmatrix pop translate scale
  0 0 1 5 -2 roll arcn tMatrix setmatrix stroke} bdef
/PAn {newpath tMatrix currentmatrix pop translate 0 0 moveto scale
  0 0 1 5 -2 roll arcn closepath tMatrix setmatrix fill} bdef
/vradius 0 def /hradius 0 def /lry 0 def
/lrx 0 def /uly 0 def /ulx 0 def /rad 0 def
/MRR {/vradius xdef /hradius xdef /lry xdef /lrx xdef /uly xdef
  /ulx xdef newpath tMatrix currentmatrix pop ulx hradius add uly
  vradius add translate hradius vradius scale 0 0 1 180 270 arc 
  tMatrix setmatrix lrx hradius sub uly vradius add translate
  hradius vradius scale 0 0 1 270 360 arc tMatrix setmatrix
  lrx hradius sub lry vradius sub translate hradius vradius scale
  0 0 1 0 90 arc tMatrix setmatrix ulx hradius add lry vradius sub
  translate hradius vradius scale 0 0 1 90 180 arc tMatrix setmatrix
  closepath} bdef
/FRR {MRR stroke } bdef
/PRR {MRR fill } bdef
/MlrRR {/lry xdef /lrx xdef /uly xdef /ulx xdef /rad lry uly sub 2 div def
  newpath tMatrix currentmatrix pop ulx rad add uly rad add translate
  rad rad scale 0 0 1 90 270 arc tMatrix setmatrix lrx rad sub lry rad
  sub translate rad rad scale 0 0 1 270 90 arc tMatrix setmatrix
  closepath} bdef
/FlrRR {MlrRR stroke } bdef
/PlrRR {MlrRR fill } bdef
/MtbRR {/lry xdef /lrx xdef /uly xdef /ulx xdef /rad lrx ulx sub 2 div def
  newpath tMatrix currentmatrix pop ulx rad add uly rad add translate
  rad rad scale 0 0 1 180 360 arc tMatrix setmatrix lrx rad sub lry rad
  sub translate rad rad scale 0 0 1 0 180 arc tMatrix setmatrix
  closepath} bdef
/FtbRR {MtbRR stroke } bdef
/PtbRR {MtbRR fill } bdef
/stri 6 array def /dtri 6 array def
/smat 6 array def /dmat 6 array def
/tmat1 6 array def /tmat2 6 array def /dif 3 array def
/asub {/ind2 exch def /ind1 exch def dup dup
  ind1 get exch ind2 get sub exch } bdef
/tri_to_matrix {
  2 0 asub 3 1 asub 4 0 asub 5 1 asub
  dup 0 get exch 1 get 7 -1 roll astore } bdef
/compute_transform {
  dmat dtri tri_to_matrix tmat1 invertmatrix 
  smat stri tri_to_matrix tmat2 concatmatrix } bdef
/ds {stri astore pop} bdef
/dt {dtri astore pop} bdef
/db {2 copy /cols xdef /rows xdef mul dup 3 mul string
  currentfile 
  3 index 0 eq {/ASCIIHexDecode filter}
  {/ASCII85Decode filter 3 index 2 eq {/RunLengthDecode filter} if }
  ifelse exch readstring pop
  dup 0 3 index getinterval /rbmap xdef
  dup 2 index dup getinterval /gbmap xdef
  1 index dup 2 mul exch getinterval /bbmap xdef pop pop}bdef
/it {gs np dtri aload pop moveto lineto lineto cp c
  cols rows 8 compute_transform 
  rbmap gbmap bbmap true 3 colorimage gr}bdef
/il {newpath moveto lineto stroke}bdef
currentdict end def
%%EndProlog

%%BeginSetup
MathWorks begin

0 cap

end
%%EndSetup

%%Page: 1 1
%%BeginPageSetup
%%PageBoundingBox:    60   224   532   617
MathWorks begin
bpage
%%EndPageSetup

%%BeginObject: obj1
bplot

/dpi2point 12 def
portraitMode 0720 7404 csm

    0     0  5675  4709 rc
86 dict begin %Colortable dictionary
/c0 { 0.000000 0.000000 0.000000 sr} bdef
/c1 { 1.000000 1.000000 1.000000 sr} bdef
/c2 { 0.900000 0.000000 0.000000 sr} bdef
/c3 { 0.000000 0.820000 0.000000 sr} bdef
/c4 { 0.000000 0.000000 0.800000 sr} bdef
/c5 { 0.910000 0.820000 0.320000 sr} bdef
/c6 { 1.000000 0.260000 0.820000 sr} bdef
/c7 { 0.000000 0.820000 0.820000 sr} bdef
c0
1 j
1 sg
   0    0 5676 4710 rf
6 w
0 3838 4398 0 0 -3838 738 4191 4 MP
PP
-4398 0 0 3838 4398 0 0 -3838 738 4191 5 MP stroke
4 w
DO
0 sg
 738 4191 mt  738  353 L
 738  353 mt  738  353 L
1177 4191 mt 1177  353 L
1177  353 mt 1177  353 L
1617 4191 mt 1617  353 L
1617  353 mt 1617  353 L
2057 4191 mt 2057  353 L
2057  353 mt 2057  353 L
2497 4191 mt 2497  353 L
2497  353 mt 2497  353 L
2937 4191 mt 2937  353 L
2937  353 mt 2937  353 L
3376 4191 mt 3376  353 L
3376  353 mt 3376  353 L
3816 4191 mt 3816  353 L
3816  353 mt 3816  353 L
4256 4191 mt 4256  353 L
4256  353 mt 4256  353 L
4696 4191 mt 4696  353 L
4696  353 mt 4696  353 L
5136 4191 mt 5136  353 L
5136  353 mt 5136  353 L
 738 4191 mt 5136 4191 L
5136 4191 mt 5136 4191 L
 738 3642 mt 5136 3642 L
5136 3642 mt 5136 3642 L
 738 3094 mt 5136 3094 L
5136 3094 mt 5136 3094 L
 738 2546 mt 5136 2546 L
5136 2546 mt 5136 2546 L
 738 1997 mt 5136 1997 L
5136 1997 mt 5136 1997 L
 738 1449 mt 5136 1449 L
5136 1449 mt 5136 1449 L
 738  901 mt 5136  901 L
5136  901 mt 5136  901 L
 738  353 mt 5136  353 L
5136  353 mt 5136  353 L
SO
6 w
 738 4191 mt 5136 4191 L
 738 4191 mt  738  353 L
 738 4191 mt  738 4147 L
%%IncludeResource: font Helvetica
/Helvetica /WindowsLatin1Encoding 120 FMSR

 705 4336 mt 
(0) s
1177 4191 mt 1177 4147 L
1094 4336 mt 
(0.1) s
1617 4191 mt 1617 4147 L
1534 4336 mt 
(0.2) s
2057 4191 mt 2057 4147 L
1974 4336 mt 
(0.3) s
2497 4191 mt 2497 4147 L
2414 4336 mt 
(0.4) s
2937 4191 mt 2937 4147 L
2854 4336 mt 
(0.5) s
3376 4191 mt 3376 4147 L
3293 4336 mt 
(0.6) s
3816 4191 mt 3816 4147 L
3733 4336 mt 
(0.7) s
4256 4191 mt 4256 4147 L
4173 4336 mt 
(0.8) s
4696 4191 mt 4696 4147 L
4613 4336 mt 
(0.9) s
5136 4191 mt 5136 4147 L
5103 4336 mt 
(1) s
 738 4191 mt  781 4191 L
 637 4235 mt 
(0) s
 738 3642 mt  781 3642 L
 537 3686 mt 
(0.2) s
 738 3094 mt  781 3094 L
 537 3138 mt 
(0.4) s
 738 2546 mt  781 2546 L
 537 2590 mt 
(0.6) s
 738 1997 mt  781 1997 L
 537 2041 mt 
(0.8) s
 738 1449 mt  781 1449 L
 637 1493 mt 
(1) s
 738  901 mt  781  901 L
 537  945 mt 
(1.2) s
 738  353 mt  781  353 L
 537  397 mt 
(1.4) s
gs 738 353 4399 3839 rc
/c8 { 1.000000 0.000000 0.000000 sr} bdef
c8
957 4190 PD
79 0 918 4190 2 MP stroke
79 0 918 4190 2 MP stroke
1177 4190 PD
79 0 1138 4190 2 MP stroke
79 0 1138 4190 2 MP stroke
1397 4190 PD
79 0 1358 4190 2 MP stroke
79 0 1358 4190 2 MP stroke
1617 4190 PD
79 0 1578 4190 2 MP stroke
79 0 1578 4190 2 MP stroke
1837 4190 PD
80 0 1797 4190 2 MP stroke
80 0 1797 4190 2 MP stroke
2057 4190 PD
79 0 2017 4190 2 MP stroke
79 0 2017 4190 2 MP stroke
2277 4190 PD
79 0 2237 4190 2 MP stroke
79 0 2237 4190 2 MP stroke
2497 4189 PD
79 0 2457 4189 2 MP stroke
79 0 2457 4189 2 MP stroke
0 1 2717 4188 2 MP stroke
79 0 2677 4188 2 MP stroke
79 0 2677 4189 2 MP stroke
2937 4185 PD
79 0 2897 4185 2 MP stroke
79 0 2897 4185 2 MP stroke
0 1 3156 4167 2 MP stroke
79 0 3117 4167 2 MP stroke
79 0 3117 4168 2 MP stroke
0 48 3376 3129 2 MP stroke
79 0 3337 3129 2 MP stroke
79 0 3337 3177 2 MP stroke
0 88 3596 2462 2 MP stroke
79 0 3557 2462 2 MP stroke
79 0 3557 2550 2 MP stroke
0 119 3816 2247 2 MP stroke
79 0 3777 2247 2 MP stroke
79 0 3777 2366 2 MP stroke
0 143 4036 2076 2 MP stroke
80 0 3996 2076 2 MP stroke
80 0 3996 2219 2 MP stroke
0 166 4256 1919 2 MP stroke
79 0 4216 1919 2 MP stroke
79 0 4216 2085 2 MP stroke
0 184 4476 1770 2 MP stroke
79 0 4436 1770 2 MP stroke
79 0 4436 1954 2 MP stroke
0 201 4696 1623 2 MP stroke
79 0 4656 1623 2 MP stroke
79 0 4656 1824 2 MP stroke
0 215 4916 1479 2 MP stroke
79 0 4876 1479 2 MP stroke
79 0 4876 1694 2 MP stroke
220 -138 220 -138 220 -140 220 -146 220 -158 220 -200 220 -647 220 -1014 
219 -18 220 -3 220 -1 220 -1 220 0 220 0 220 0 220 0 
220 0 220 0 957 4190 19 MP stroke
/c9 { 0.000000 0.000000 1.000000 sr} bdef
c9
957 4189 PD
79 0 918 4189 2 MP stroke
79 0 918 4189 2 MP stroke
0 1 1177 4189 2 MP stroke
79 0 1138 4189 2 MP stroke
79 0 1138 4190 2 MP stroke
1397 4190 PD
79 0 1358 4190 2 MP stroke
79 0 1358 4190 2 MP stroke
0 1 1617 4189 2 MP stroke
79 0 1578 4189 2 MP stroke
79 0 1578 4190 2 MP stroke
1837 4189 PD
80 0 1797 4189 2 MP stroke
80 0 1797 4189 2 MP stroke
2057 4189 PD
79 0 2017 4189 2 MP stroke
79 0 2017 4189 2 MP stroke
0 1 2277 4188 2 MP stroke
79 0 2237 4188 2 MP stroke
79 0 2237 4189 2 MP stroke
2497 4188 PD
79 0 2457 4188 2 MP stroke
79 0 2457 4188 2 MP stroke
2717 4186 PD
79 0 2677 4186 2 MP stroke
79 0 2677 4186 2 MP stroke
2937 4180 PD
79 0 2897 4180 2 MP stroke
79 0 2897 4180 2 MP stroke
0 2 3156 4147 2 MP stroke
79 0 3117 4147 2 MP stroke
79 0 3117 4149 2 MP stroke
0 79 3376 2422 2 MP stroke
79 0 3337 2422 2 MP stroke
79 0 3337 2501 2 MP stroke
0 139 3596 1529 2 MP stroke
79 0 3557 1529 2 MP stroke
79 0 3557 1668 2 MP stroke
0 178 3816 1410 2 MP stroke
79 0 3777 1410 2 MP stroke
79 0 3777 1588 2 MP stroke
0 207 4036 1363 2 MP stroke
80 0 3996 1363 2 MP stroke
80 0 3996 1570 2 MP stroke
0 229 4256 1340 2 MP stroke
79 0 4216 1340 2 MP stroke
79 0 4216 1569 2 MP stroke
0 245 4476 1328 2 MP stroke
79 0 4436 1328 2 MP stroke
79 0 4436 1573 2 MP stroke
0 257 4696 1321 2 MP stroke
79 0 4656 1321 2 MP stroke
79 0 4656 1578 2 MP stroke
0 266 4916 1316 2 MP stroke
79 0 4876 1316 2 MP stroke
79 0 4876 1582 2 MP stroke
220 -1 220 -1 220 -4 220 -12 220 -32 220 -100 220 -863 220 -1686 
219 -32 220 -6 220 -2 220 -1 220 0 220 0 220 -1 220 0 
220 0 220 1 957 4189 19 MP stroke
/c10 { 0.000000 1.000000 0.000000 sr} bdef
c10
957 4189 PD
79 0 918 4189 2 MP stroke
79 0 918 4189 2 MP stroke
1177 4190 PD
79 0 1138 4190 2 MP stroke
79 0 1138 4190 2 MP stroke
1397 4190 PD
79 0 1358 4190 2 MP stroke
79 0 1358 4190 2 MP stroke
0 1 1617 4189 2 MP stroke
79 0 1578 4189 2 MP stroke
79 0 1578 4190 2 MP stroke
1837 4189 PD
80 0 1797 4189 2 MP stroke
80 0 1797 4189 2 MP stroke
2057 4189 PD
79 0 2017 4189 2 MP stroke
79 0 2017 4189 2 MP stroke
0 1 2277 4188 2 MP stroke
79 0 2237 4188 2 MP stroke
79 0 2237 4189 2 MP stroke
2497 4188 PD
79 0 2457 4188 2 MP stroke
79 0 2457 4188 2 MP stroke
2717 4186 PD
79 0 2677 4186 2 MP stroke
79 0 2677 4186 2 MP stroke
2937 4180 PD
79 0 2897 4180 2 MP stroke
79 0 2897 4180 2 MP stroke
0 2 3156 4147 2 MP stroke
79 0 3117 4147 2 MP stroke
79 0 3117 4149 2 MP stroke
0 80 3376 2421 2 MP stroke
79 0 3337 2421 2 MP stroke
79 0 3337 2501 2 MP stroke
0 139 3596 1529 2 MP stroke
79 0 3557 1529 2 MP stroke
79 0 3557 1668 2 MP stroke
0 178 3816 1410 2 MP stroke
79 0 3777 1410 2 MP stroke
79 0 3777 1588 2 MP stroke
0 207 4036 1363 2 MP stroke
80 0 3996 1363 2 MP stroke
80 0 3996 1570 2 MP stroke
0 229 4256 1341 2 MP stroke
79 0 4216 1341 2 MP stroke
79 0 4216 1570 2 MP stroke
0 245 4476 1328 2 MP stroke
79 0 4436 1328 2 MP stroke
79 0 4436 1573 2 MP stroke
0 257 4696 1321 2 MP stroke
79 0 4656 1321 2 MP stroke
79 0 4656 1578 2 MP stroke
0 266 4916 1316 2 MP stroke
79 0 4876 1316 2 MP stroke
79 0 4876 1582 2 MP stroke
220 0 220 -2 220 -4 220 -12 220 -32 220 -99 220 -863 220 -1687 
219 -32 220 -6 220 -2 220 -1 220 0 220 0 220 -1 220 0 
220 0 220 1 957 4189 19 MP stroke
gr

c10
0 sg
2476 4479 mt 
(Prob. colorazione) s
 455 2313 mt  -90 rotate
(P) s
90 rotate
2317  258 mt 
(P1, P2 e P3 con L=500) s
 694 4261 mt 
( ) s
5093  422 mt 
( ) s
1 sg
0 546 666 0 0 -546 1724 1010 4 MP
PP
-666 0 0 546 666 0 0 -546 1724 1010 5 MP stroke
4 w
DO
SO
6 w
0 sg
1724  464 mt 2390  464 L
1724 1010 mt 2390 1010 L
2390 1010 mt 2390  464 L
1724 1010 mt 1724  464 L
1724 1010 mt 2390 1010 L
1724 1010 mt 1724  464 L
1724  464 mt 2390  464 L
1724 1010 mt 2390 1010 L
2390 1010 mt 2390  464 L
1724 1010 mt 1724  464 L
2193  611 mt 
(P1) s
gs 1724 464 667 547 rc
c8
360 0 1796 569 2 MP stroke
gr

c8
0 sg
2193  780 mt 
(P2) s
gs 1724 464 667 547 rc
c9
360 0 1796 737 2 MP stroke
gr

c9
0 sg
2193  948 mt 
(P3) s
gs 1724 464 667 547 rc
c10
360 0 1796 905 2 MP stroke
gr

c10

end %%Color Dict

eplot
%%EndObject

epage
end

showpage

%%Trailer
%%EOF
