%!PS-Adobe-3.0 EPSF-3.0
%%Creator: MATLAB, The MathWorks, Inc. Version 8.0.0.783 (R2012b). Operating System: Microsoft Windows 7.
%%Title: C:\SILVIA\UniversitÓ\Presenti\Modellazione E Simulazioni Numeriche\Relazione\percolazione\codici\grafici\Confronto P L=100 PS=0.04 CAMP=100.eps
%%CreationDate: 06/09/2015  09:09:55
%%DocumentNeededFonts: Helvetica
%%DocumentProcessColors: Cyan Magenta Yellow Black
%%LanguageLevel: 2
%%Pages: 1
%%BoundingBox:    87   265   507   576
%%EndComments

%%BeginProlog
% MathWorks dictionary
/MathWorks 160 dict begin
% definition operators
/bdef {bind def} bind def
/ldef {load def} bind def
/xdef {exch def} bdef
/xstore {exch store} bdef
% operator abbreviations
/c  /clip ldef
/cc /concat ldef
/cp /closepath ldef
/gr /grestore ldef
/gs /gsave ldef
/mt /moveto ldef
/np /newpath ldef
/cm /currentmatrix ldef
/sm /setmatrix ldef
/rm /rmoveto ldef
/rl /rlineto ldef
/s {show newpath} bdef
/sc {setcmykcolor} bdef
/sr /setrgbcolor ldef
/sg /setgray ldef
/w /setlinewidth ldef
/j /setlinejoin ldef
/cap /setlinecap ldef
/rc {rectclip} bdef
/rf {rectfill} bdef
% page state control
/pgsv () def
/bpage {/pgsv save def} bdef
/epage {pgsv restore} bdef
/bplot /gsave ldef
/eplot {stroke grestore} bdef
% orientation switch
/portraitMode 0 def /landscapeMode 1 def /rotateMode 2 def
% coordinate system mappings
/dpi2point 0 def
% font control
/FontSize 0 def
/FMS {/FontSize xstore findfont [FontSize 0 0 FontSize neg 0 0]
  makefont setfont} bdef
/ISOLatin1Encoding where {pop /WindowsLatin1Encoding 256 array bdef
ISOLatin1Encoding WindowsLatin1Encoding copy pop
/.notdef/.notdef/quotesinglbase/florin/quotedblbase/ellipsis/dagger
/daggerdbl/circumflex/perthousand/Scaron/guilsinglleft/OE/.notdef/.notdef
/.notdef/.notdef/quoteleft/quoteright/quotedblleft/quotedblright/bullet
/endash/emdash/tilde/trademark/scaron/guilsinglright/oe/.notdef/.notdef
/Ydieresis WindowsLatin1Encoding 128 32 getinterval astore pop}
{/WindowsLatin1Encoding StandardEncoding bdef} ifelse
/reencode {exch dup where {pop load} {pop StandardEncoding} ifelse
  exch dup 3 1 roll findfont dup length dict begin
  { 1 index /FID ne {def}{pop pop} ifelse } forall
  /Encoding exch def currentdict end definefont pop} bdef
/isroman {findfont /CharStrings get /Agrave known} bdef
/FMSR {3 1 roll 1 index dup isroman {reencode} {pop pop} ifelse
  exch FMS} bdef
/csm {1 dpi2point div -1 dpi2point div scale neg translate
 dup landscapeMode eq {pop -90 rotate}
  {rotateMode eq {90 rotate} if} ifelse} bdef
% line types: solid, dotted, dashed, dotdash
/SO { [] 0 setdash } bdef
/DO { [.5 dpi2point mul 4 dpi2point mul] 0 setdash } bdef
/DA { [6 dpi2point mul] 0 setdash } bdef
/DD { [.5 dpi2point mul 4 dpi2point mul 6 dpi2point mul 4
  dpi2point mul] 0 setdash } bdef
% macros for lines and objects
/L {lineto stroke} bdef
/MP {3 1 roll moveto 1 sub {rlineto} repeat} bdef
/AP {{rlineto} repeat} bdef
/PDlw -1 def
/W {/PDlw currentlinewidth def setlinewidth} def
/PP {closepath eofill} bdef
/DP {closepath stroke} bdef
/MR {4 -2 roll moveto dup  0 exch rlineto exch 0 rlineto
  neg 0 exch rlineto closepath} bdef
/FR {MR stroke} bdef
/PR {MR fill} bdef
/L1i {{currentfile picstr readhexstring pop} image} bdef
/tMatrix matrix def
/MakeOval {newpath tMatrix currentmatrix pop translate scale
0 0 1 0 360 arc tMatrix setmatrix} bdef
/FO {MakeOval stroke} bdef
/PO {MakeOval fill} bdef
/PD {currentlinewidth 2 div 0 360 arc fill
   PDlw -1 eq not {PDlw w /PDlw -1 def} if} def
/FA {newpath tMatrix currentmatrix pop translate scale
  0 0 1 5 -2 roll arc tMatrix setmatrix stroke} bdef
/PA {newpath tMatrix currentmatrix pop	translate 0 0 moveto scale
  0 0 1 5 -2 roll arc closepath tMatrix setmatrix fill} bdef
/FAn {newpath tMatrix currentmatrix pop translate scale
  0 0 1 5 -2 roll arcn tMatrix setmatrix stroke} bdef
/PAn {newpath tMatrix currentmatrix pop translate 0 0 moveto scale
  0 0 1 5 -2 roll arcn closepath tMatrix setmatrix fill} bdef
/vradius 0 def /hradius 0 def /lry 0 def
/lrx 0 def /uly 0 def /ulx 0 def /rad 0 def
/MRR {/vradius xdef /hradius xdef /lry xdef /lrx xdef /uly xdef
  /ulx xdef newpath tMatrix currentmatrix pop ulx hradius add uly
  vradius add translate hradius vradius scale 0 0 1 180 270 arc 
  tMatrix setmatrix lrx hradius sub uly vradius add translate
  hradius vradius scale 0 0 1 270 360 arc tMatrix setmatrix
  lrx hradius sub lry vradius sub translate hradius vradius scale
  0 0 1 0 90 arc tMatrix setmatrix ulx hradius add lry vradius sub
  translate hradius vradius scale 0 0 1 90 180 arc tMatrix setmatrix
  closepath} bdef
/FRR {MRR stroke } bdef
/PRR {MRR fill } bdef
/MlrRR {/lry xdef /lrx xdef /uly xdef /ulx xdef /rad lry uly sub 2 div def
  newpath tMatrix currentmatrix pop ulx rad add uly rad add translate
  rad rad scale 0 0 1 90 270 arc tMatrix setmatrix lrx rad sub lry rad
  sub translate rad rad scale 0 0 1 270 90 arc tMatrix setmatrix
  closepath} bdef
/FlrRR {MlrRR stroke } bdef
/PlrRR {MlrRR fill } bdef
/MtbRR {/lry xdef /lrx xdef /uly xdef /ulx xdef /rad lrx ulx sub 2 div def
  newpath tMatrix currentmatrix pop ulx rad add uly rad add translate
  rad rad scale 0 0 1 180 360 arc tMatrix setmatrix lrx rad sub lry rad
  sub translate rad rad scale 0 0 1 0 180 arc tMatrix setmatrix
  closepath} bdef
/FtbRR {MtbRR stroke } bdef
/PtbRR {MtbRR fill } bdef
/stri 6 array def /dtri 6 array def
/smat 6 array def /dmat 6 array def
/tmat1 6 array def /tmat2 6 array def /dif 3 array def
/asub {/ind2 exch def /ind1 exch def dup dup
  ind1 get exch ind2 get sub exch } bdef
/tri_to_matrix {
  2 0 asub 3 1 asub 4 0 asub 5 1 asub
  dup 0 get exch 1 get 7 -1 roll astore } bdef
/compute_transform {
  dmat dtri tri_to_matrix tmat1 invertmatrix 
  smat stri tri_to_matrix tmat2 concatmatrix } bdef
/ds {stri astore pop} bdef
/dt {dtri astore pop} bdef
/db {2 copy /cols xdef /rows xdef mul dup 3 mul string
  currentfile 
  3 index 0 eq {/ASCIIHexDecode filter}
  {/ASCII85Decode filter 3 index 2 eq {/RunLengthDecode filter} if }
  ifelse exch readstring pop
  dup 0 3 index getinterval /rbmap xdef
  dup 2 index dup getinterval /gbmap xdef
  1 index dup 2 mul exch getinterval /bbmap xdef pop pop}bdef
/it {gs np dtri aload pop moveto lineto lineto cp c
  cols rows 8 compute_transform 
  rbmap gbmap bbmap true 3 colorimage gr}bdef
/il {newpath moveto lineto stroke}bdef
currentdict end def
%%EndProlog

%%BeginSetup
MathWorks begin

0 cap

end
%%EndSetup

%%Page: 1 1
%%BeginPageSetup
%%PageBoundingBox:    87   265   507   576
MathWorks begin
bpage
%%EndPageSetup

%%BeginObject: obj1
bplot

/dpi2point 12 def
portraitMode 1044 6912 csm

    0     0  5045  3728 rc
86 dict begin %Colortable dictionary
/c0 { 0.000000 0.000000 0.000000 sr} bdef
/c1 { 1.000000 1.000000 1.000000 sr} bdef
/c2 { 0.900000 0.000000 0.000000 sr} bdef
/c3 { 0.000000 0.820000 0.000000 sr} bdef
/c4 { 0.000000 0.000000 0.800000 sr} bdef
/c5 { 0.910000 0.820000 0.320000 sr} bdef
/c6 { 1.000000 0.260000 0.820000 sr} bdef
/c7 { 0.000000 0.820000 0.820000 sr} bdef
c0
1 j
1 sg
   0    0 5046 3729 rf
6 w
0 3038 3910 0 0 -3038 656 3318 4 MP
PP
-3910 0 0 3038 3910 0 0 -3038 656 3318 5 MP stroke
4 w
DO
0 sg
 656 3318 mt  656  280 L
 656  280 mt  656  280 L
1438 3318 mt 1438  280 L
1438  280 mt 1438  280 L
2220 3318 mt 2220  280 L
2220  280 mt 2220  280 L
3002 3318 mt 3002  280 L
3002  280 mt 3002  280 L
3784 3318 mt 3784  280 L
3784  280 mt 3784  280 L
4566 3318 mt 4566  280 L
4566  280 mt 4566  280 L
 656 3318 mt 4566 3318 L
4566 3318 mt 4566 3318 L
 656 2811 mt 4566 2811 L
4566 2811 mt 4566 2811 L
 656 2305 mt 4566 2305 L
4566 2305 mt 4566 2305 L
 656 1799 mt 4566 1799 L
4566 1799 mt 4566 1799 L
 656 1292 mt 4566 1292 L
4566 1292 mt 4566 1292 L
 656  786 mt 4566  786 L
4566  786 mt 4566  786 L
 656  280 mt 4566  280 L
4566  280 mt 4566  280 L
SO
6 w
 656  280 mt 4566  280 L
 656 3318 mt 4566 3318 L
4566 3318 mt 4566  280 L
 656 3318 mt  656  280 L
 656 3318 mt 4566 3318 L
 656 3318 mt  656  280 L
 656 3318 mt  656 3278 L
 656  280 mt  656  319 L
%%IncludeResource: font Helvetica
/Helvetica /WindowsLatin1Encoding 120 FMSR

 623 3463 mt 
(0) s
1438 3318 mt 1438 3278 L
1438  280 mt 1438  319 L
1355 3463 mt 
(0.2) s
2220 3318 mt 2220 3278 L
2220  280 mt 2220  319 L
2137 3463 mt 
(0.4) s
3002 3318 mt 3002 3278 L
3002  280 mt 3002  319 L
2919 3463 mt 
(0.6) s
3784 3318 mt 3784 3278 L
3784  280 mt 3784  319 L
3701 3463 mt 
(0.8) s
4566 3318 mt 4566 3278 L
4566  280 mt 4566  319 L
4533 3463 mt 
(1) s
 656 3318 mt  695 3318 L
4566 3318 mt 4526 3318 L
 555 3362 mt 
(0) s
 656 2811 mt  695 2811 L
4566 2811 mt 4526 2811 L
 455 2855 mt 
(0.5) s
 656 2305 mt  695 2305 L
4566 2305 mt 4526 2305 L
 555 2349 mt 
(1) s
 656 1799 mt  695 1799 L
4566 1799 mt 4526 1799 L
 455 1843 mt 
(1.5) s
 656 1292 mt  695 1292 L
4566 1292 mt 4526 1292 L
 555 1336 mt 
(2) s
 656  786 mt  695  786 L
4566  786 mt 4526  786 L
 455  830 mt 
(2.5) s
 656  280 mt  695  280 L
4566  280 mt 4526  280 L
 555  324 mt 
(3) s
 656  280 mt 4566  280 L
 656 3318 mt 4566 3318 L
4566 3318 mt 4566  280 L
 656 3318 mt  656  280 L
gs 656 280 3911 3039 rc
/c8 { 0.000000 0.000000 1.000000 sr} bdef
c8
695 2243 PD
75 0 657 2243 2 MP stroke
75 0 657 2243 2 MP stroke
0 442 851 1801 2 MP stroke
76 0 813 1801 2 MP stroke
76 0 813 2243 2 MP stroke
0 550 1007 1504 2 MP stroke
75 0 970 1504 2 MP stroke
75 0 970 2054 2 MP stroke
0 598 1164 1252 2 MP stroke
75 0 1126 1252 2 MP stroke
75 0 1126 1850 2 MP stroke
0 601 1320 1060 2 MP stroke
75 0 1283 1060 2 MP stroke
75 0 1283 1661 2 MP stroke
0 589 1477 902 2 MP stroke
75 0 1439 902 2 MP stroke
75 0 1439 1491 2 MP stroke
0 577 1633 762 2 MP stroke
76 0 1595 762 2 MP stroke
76 0 1595 1339 2 MP stroke
0 559 1789 646 2 MP stroke
75 0 1752 646 2 MP stroke
75 0 1752 1205 2 MP stroke
0 537 1946 551 2 MP stroke
75 0 1908 551 2 MP stroke
75 0 1908 1088 2 MP stroke
0 506 2102 488 2 MP stroke
75 0 2065 488 2 MP stroke
75 0 2065 994 2 MP stroke
0 474 2259 441 2 MP stroke
75 0 2221 441 2 MP stroke
75 0 2221 915 2 MP stroke
0 446 2415 402 2 MP stroke
76 0 2377 402 2 MP stroke
76 0 2377 848 2 MP stroke
0 415 2571 385 2 MP stroke
75 0 2534 385 2 MP stroke
75 0 2534 800 2 MP stroke
0 386 2728 378 2 MP stroke
75 0 2690 378 2 MP stroke
75 0 2690 764 2 MP stroke
0 360 2884 379 2 MP stroke
75 0 2847 379 2 MP stroke
75 0 2847 739 2 MP stroke
0 338 3041 394 2 MP stroke
75 0 3003 394 2 MP stroke
75 0 3003 732 2 MP stroke
0 317 3197 408 2 MP stroke
76 0 3159 408 2 MP stroke
76 0 3159 725 2 MP stroke
0 299 3353 421 2 MP stroke
75 0 3316 421 2 MP stroke
75 0 3316 720 2 MP stroke
0 282 3510 432 2 MP stroke
75 0 3472 432 2 MP stroke
75 0 3472 714 2 MP stroke
0 268 3666 437 2 MP stroke
75 0 3629 437 2 MP stroke
75 0 3629 705 2 MP stroke
0 255 3823 437 2 MP stroke
75 0 3785 437 2 MP stroke
75 0 3785 692 2 MP stroke
0 244 3979 433 2 MP stroke
76 0 3941 433 2 MP stroke
76 0 3941 677 2 MP stroke
0 235 4135 425 2 MP stroke
75 0 4098 425 2 MP stroke
75 0 4098 660 2 MP stroke
0 227 4292 413 2 MP stroke
75 0 4254 413 2 MP stroke
75 0 4254 640 2 MP stroke
0 221 4448 399 2 MP stroke
75 0 4411 399 2 MP stroke
75 0 4411 620 2 MP stroke
156 -17 157 -16 156 -12 156 -10 157 -6 156 -2 157 3 156 3 
156 4 157 4 156 -12 157 -22 156 -32 156 -53 157 -63 156 -79 
157 -106 156 -125 156 -146 157 -163 156 -191 157 -228 156 -243 156 -221 
695 2243 25 MP stroke
/c9 { 0.000000 1.000000 0.000000 sr} bdef
c9
695 2901 PD
75 0 657 2901 2 MP stroke
75 0 657 2901 2 MP stroke
0 79 851 2901 2 MP stroke
76 0 813 2901 2 MP stroke
76 0 813 2980 2 MP stroke
0 93 1007 2854 2 MP stroke
75 0 970 2854 2 MP stroke
75 0 970 2947 2 MP stroke
0 148 1164 2760 2 MP stroke
75 0 1126 2760 2 MP stroke
75 0 1126 2908 2 MP stroke
0 169 1320 2687 2 MP stroke
75 0 1283 2687 2 MP stroke
75 0 1283 2856 2 MP stroke
0 171 1477 2636 2 MP stroke
75 0 1439 2636 2 MP stroke
75 0 1439 2807 2 MP stroke
0 172 1633 2589 2 MP stroke
76 0 1595 2589 2 MP stroke
76 0 1595 2761 2 MP stroke
0 173 1789 2545 2 MP stroke
75 0 1752 2545 2 MP stroke
75 0 1752 2718 2 MP stroke
0 173 1946 2504 2 MP stroke
75 0 1908 2504 2 MP stroke
75 0 1908 2677 2 MP stroke
0 170 2102 2469 2 MP stroke
75 0 2065 2469 2 MP stroke
75 0 2065 2639 2 MP stroke
0 166 2259 2440 2 MP stroke
75 0 2221 2440 2 MP stroke
75 0 2221 2606 2 MP stroke
0 161 2415 2417 2 MP stroke
76 0 2377 2417 2 MP stroke
76 0 2377 2578 2 MP stroke
0 154 2571 2399 2 MP stroke
75 0 2534 2399 2 MP stroke
75 0 2534 2553 2 MP stroke
0 148 2728 2382 2 MP stroke
75 0 2690 2382 2 MP stroke
75 0 2690 2530 2 MP stroke
0 142 2884 2367 2 MP stroke
75 0 2847 2367 2 MP stroke
75 0 2847 2509 2 MP stroke
0 134 3041 2361 2 MP stroke
75 0 3003 2361 2 MP stroke
75 0 3003 2495 2 MP stroke
0 127 3197 2359 2 MP stroke
76 0 3159 2359 2 MP stroke
76 0 3159 2486 2 MP stroke
0 119 3353 2363 2 MP stroke
75 0 3316 2363 2 MP stroke
75 0 3316 2482 2 MP stroke
0 114 3510 2371 2 MP stroke
75 0 3472 2371 2 MP stroke
75 0 3472 2485 2 MP stroke
0 110 3666 2384 2 MP stroke
75 0 3629 2384 2 MP stroke
75 0 3629 2494 2 MP stroke
0 109 3823 2400 2 MP stroke
75 0 3785 2400 2 MP stroke
75 0 3785 2509 2 MP stroke
0 111 3979 2418 2 MP stroke
76 0 3941 2418 2 MP stroke
76 0 3941 2529 2 MP stroke
0 113 4135 2437 2 MP stroke
75 0 4098 2437 2 MP stroke
75 0 4098 2550 2 MP stroke
0 116 4292 2456 2 MP stroke
75 0 4254 2456 2 MP stroke
75 0 4254 2572 2 MP stroke
0 118 4448 2474 2 MP stroke
75 0 4411 2474 2 MP stroke
75 0 4411 2592 2 MP stroke
156 19 157 21 156 20 156 18 157 16 156 11 157 6 156 0 
156 -6 157 -10 156 -18 157 -20 156 -22 156 -25 157 -31 156 -36 
157 -41 156 -44 156 -46 157 -51 156 -62 157 -66 156 -40 156 39 
695 2901 25 MP stroke
gr

c9
0 sg
2179 3606 mt 
(p. di colorazione) s
 373 1967 mt  -90 rotate
(tempo) s
90 rotate
 603 3397 mt 
( ) s
4514  358 mt 
( ) s
1 sg
0 378 1080 0 0 -378 3374 1228 4 MP
PP
-1080 0 0 378 1080 0 0 -378 3374 1228 5 MP stroke
4 w
DO
SO
6 w
0 sg
3374  850 mt 4454  850 L
3374 1228 mt 4454 1228 L
4454 1228 mt 4454  850 L
3374 1228 mt 3374  850 L
3374 1228 mt 4454 1228 L
3374 1228 mt 3374  850 L
3374  850 mt 4454  850 L
3374 1228 mt 4454 1228 L
4454 1228 mt 4454  850 L
3374 1228 mt 3374  850 L
3842  997 mt 
(t. etichetta) s
gs 3374 850 1081 379 rc
c8
360 0 3446 955 2 MP stroke
gr

c8
0 sg
3842 1166 mt 
(t. HK) s
gs 3374 850 1081 379 rc
c9
360 0 3446 1123 2 MP stroke
gr

c9

end %%Color Dict

eplot
%%EndObject

epage
end

showpage

%%Trailer
%%EOF
