%!PS-Adobe-3.0 EPSF-3.0
%%Creator: MATLAB, The MathWorks, Inc. Version 8.0.0.783 (R2012b). Operating System: Microsoft Windows 7.
%%Title: C:\SILVIA\UniversitÓ\Presenti\Modellazione E Simulazioni Numeriche\Relazione\percolazione\codici\grafici\Confronto L P=0.6 PS =20 CAMP=100.eps
%%CreationDate: 06/09/2015  09:09:45
%%DocumentNeededFonts: Helvetica
%%DocumentProcessColors: Cyan Magenta Yellow Black
%%LanguageLevel: 2
%%Pages: 1
%%BoundingBox:    87   265   507   576
%%EndComments

%%BeginProlog
% MathWorks dictionary
/MathWorks 160 dict begin
% definition operators
/bdef {bind def} bind def
/ldef {load def} bind def
/xdef {exch def} bdef
/xstore {exch store} bdef
% operator abbreviations
/c  /clip ldef
/cc /concat ldef
/cp /closepath ldef
/gr /grestore ldef
/gs /gsave ldef
/mt /moveto ldef
/np /newpath ldef
/cm /currentmatrix ldef
/sm /setmatrix ldef
/rm /rmoveto ldef
/rl /rlineto ldef
/s {show newpath} bdef
/sc {setcmykcolor} bdef
/sr /setrgbcolor ldef
/sg /setgray ldef
/w /setlinewidth ldef
/j /setlinejoin ldef
/cap /setlinecap ldef
/rc {rectclip} bdef
/rf {rectfill} bdef
% page state control
/pgsv () def
/bpage {/pgsv save def} bdef
/epage {pgsv restore} bdef
/bplot /gsave ldef
/eplot {stroke grestore} bdef
% orientation switch
/portraitMode 0 def /landscapeMode 1 def /rotateMode 2 def
% coordinate system mappings
/dpi2point 0 def
% font control
/FontSize 0 def
/FMS {/FontSize xstore findfont [FontSize 0 0 FontSize neg 0 0]
  makefont setfont} bdef
/ISOLatin1Encoding where {pop /WindowsLatin1Encoding 256 array bdef
ISOLatin1Encoding WindowsLatin1Encoding copy pop
/.notdef/.notdef/quotesinglbase/florin/quotedblbase/ellipsis/dagger
/daggerdbl/circumflex/perthousand/Scaron/guilsinglleft/OE/.notdef/.notdef
/.notdef/.notdef/quoteleft/quoteright/quotedblleft/quotedblright/bullet
/endash/emdash/tilde/trademark/scaron/guilsinglright/oe/.notdef/.notdef
/Ydieresis WindowsLatin1Encoding 128 32 getinterval astore pop}
{/WindowsLatin1Encoding StandardEncoding bdef} ifelse
/reencode {exch dup where {pop load} {pop StandardEncoding} ifelse
  exch dup 3 1 roll findfont dup length dict begin
  { 1 index /FID ne {def}{pop pop} ifelse } forall
  /Encoding exch def currentdict end definefont pop} bdef
/isroman {findfont /CharStrings get /Agrave known} bdef
/FMSR {3 1 roll 1 index dup isroman {reencode} {pop pop} ifelse
  exch FMS} bdef
/csm {1 dpi2point div -1 dpi2point div scale neg translate
 dup landscapeMode eq {pop -90 rotate}
  {rotateMode eq {90 rotate} if} ifelse} bdef
% line types: solid, dotted, dashed, dotdash
/SO { [] 0 setdash } bdef
/DO { [.5 dpi2point mul 4 dpi2point mul] 0 setdash } bdef
/DA { [6 dpi2point mul] 0 setdash } bdef
/DD { [.5 dpi2point mul 4 dpi2point mul 6 dpi2point mul 4
  dpi2point mul] 0 setdash } bdef
% macros for lines and objects
/L {lineto stroke} bdef
/MP {3 1 roll moveto 1 sub {rlineto} repeat} bdef
/AP {{rlineto} repeat} bdef
/PDlw -1 def
/W {/PDlw currentlinewidth def setlinewidth} def
/PP {closepath eofill} bdef
/DP {closepath stroke} bdef
/MR {4 -2 roll moveto dup  0 exch rlineto exch 0 rlineto
  neg 0 exch rlineto closepath} bdef
/FR {MR stroke} bdef
/PR {MR fill} bdef
/L1i {{currentfile picstr readhexstring pop} image} bdef
/tMatrix matrix def
/MakeOval {newpath tMatrix currentmatrix pop translate scale
0 0 1 0 360 arc tMatrix setmatrix} bdef
/FO {MakeOval stroke} bdef
/PO {MakeOval fill} bdef
/PD {currentlinewidth 2 div 0 360 arc fill
   PDlw -1 eq not {PDlw w /PDlw -1 def} if} def
/FA {newpath tMatrix currentmatrix pop translate scale
  0 0 1 5 -2 roll arc tMatrix setmatrix stroke} bdef
/PA {newpath tMatrix currentmatrix pop	translate 0 0 moveto scale
  0 0 1 5 -2 roll arc closepath tMatrix setmatrix fill} bdef
/FAn {newpath tMatrix currentmatrix pop translate scale
  0 0 1 5 -2 roll arcn tMatrix setmatrix stroke} bdef
/PAn {newpath tMatrix currentmatrix pop translate 0 0 moveto scale
  0 0 1 5 -2 roll arcn closepath tMatrix setmatrix fill} bdef
/vradius 0 def /hradius 0 def /lry 0 def
/lrx 0 def /uly 0 def /ulx 0 def /rad 0 def
/MRR {/vradius xdef /hradius xdef /lry xdef /lrx xdef /uly xdef
  /ulx xdef newpath tMatrix currentmatrix pop ulx hradius add uly
  vradius add translate hradius vradius scale 0 0 1 180 270 arc 
  tMatrix setmatrix lrx hradius sub uly vradius add translate
  hradius vradius scale 0 0 1 270 360 arc tMatrix setmatrix
  lrx hradius sub lry vradius sub translate hradius vradius scale
  0 0 1 0 90 arc tMatrix setmatrix ulx hradius add lry vradius sub
  translate hradius vradius scale 0 0 1 90 180 arc tMatrix setmatrix
  closepath} bdef
/FRR {MRR stroke } bdef
/PRR {MRR fill } bdef
/MlrRR {/lry xdef /lrx xdef /uly xdef /ulx xdef /rad lry uly sub 2 div def
  newpath tMatrix currentmatrix pop ulx rad add uly rad add translate
  rad rad scale 0 0 1 90 270 arc tMatrix setmatrix lrx rad sub lry rad
  sub translate rad rad scale 0 0 1 270 90 arc tMatrix setmatrix
  closepath} bdef
/FlrRR {MlrRR stroke } bdef
/PlrRR {MlrRR fill } bdef
/MtbRR {/lry xdef /lrx xdef /uly xdef /ulx xdef /rad lrx ulx sub 2 div def
  newpath tMatrix currentmatrix pop ulx rad add uly rad add translate
  rad rad scale 0 0 1 180 360 arc tMatrix setmatrix lrx rad sub lry rad
  sub translate rad rad scale 0 0 1 0 180 arc tMatrix setmatrix
  closepath} bdef
/FtbRR {MtbRR stroke } bdef
/PtbRR {MtbRR fill } bdef
/stri 6 array def /dtri 6 array def
/smat 6 array def /dmat 6 array def
/tmat1 6 array def /tmat2 6 array def /dif 3 array def
/asub {/ind2 exch def /ind1 exch def dup dup
  ind1 get exch ind2 get sub exch } bdef
/tri_to_matrix {
  2 0 asub 3 1 asub 4 0 asub 5 1 asub
  dup 0 get exch 1 get 7 -1 roll astore } bdef
/compute_transform {
  dmat dtri tri_to_matrix tmat1 invertmatrix 
  smat stri tri_to_matrix tmat2 concatmatrix } bdef
/ds {stri astore pop} bdef
/dt {dtri astore pop} bdef
/db {2 copy /cols xdef /rows xdef mul dup 3 mul string
  currentfile 
  3 index 0 eq {/ASCIIHexDecode filter}
  {/ASCII85Decode filter 3 index 2 eq {/RunLengthDecode filter} if }
  ifelse exch readstring pop
  dup 0 3 index getinterval /rbmap xdef
  dup 2 index dup getinterval /gbmap xdef
  1 index dup 2 mul exch getinterval /bbmap xdef pop pop}bdef
/it {gs np dtri aload pop moveto lineto lineto cp c
  cols rows 8 compute_transform 
  rbmap gbmap bbmap true 3 colorimage gr}bdef
/il {newpath moveto lineto stroke}bdef
currentdict end def
%%EndProlog

%%BeginSetup
MathWorks begin

0 cap

end
%%EndSetup

%%Page: 1 1
%%BeginPageSetup
%%PageBoundingBox:    87   265   507   576
MathWorks begin
bpage
%%EndPageSetup

%%BeginObject: obj1
bplot

/dpi2point 12 def
portraitMode 1044 6912 csm

    0     0  5045  3728 rc
86 dict begin %Colortable dictionary
/c0 { 0.000000 0.000000 0.000000 sr} bdef
/c1 { 1.000000 1.000000 1.000000 sr} bdef
/c2 { 0.900000 0.000000 0.000000 sr} bdef
/c3 { 0.000000 0.820000 0.000000 sr} bdef
/c4 { 0.000000 0.000000 0.800000 sr} bdef
/c5 { 0.910000 0.820000 0.320000 sr} bdef
/c6 { 1.000000 0.260000 0.820000 sr} bdef
/c7 { 0.000000 0.820000 0.820000 sr} bdef
c0
1 j
1 sg
   0    0 5046 3729 rf
6 w
0 3038 3910 0 0 -3038 656 3318 4 MP
PP
-3910 0 0 3038 3910 0 0 -3038 656 3318 5 MP stroke
4 w
DO
0 sg
 656 3318 mt  656  280 L
 656  280 mt  656  280 L
1307 3318 mt 1307  280 L
1307  280 mt 1307  280 L
1959 3318 mt 1959  280 L
1959  280 mt 1959  280 L
2611 3318 mt 2611  280 L
2611  280 mt 2611  280 L
3262 3318 mt 3262  280 L
3262  280 mt 3262  280 L
3914 3318 mt 3914  280 L
3914  280 mt 3914  280 L
4566 3318 mt 4566  280 L
4566  280 mt 4566  280 L
 656 3318 mt 4566 3318 L
4566 3318 mt 4566 3318 L
 656 3014 mt 4566 3014 L
4566 3014 mt 4566 3014 L
 656 2710 mt 4566 2710 L
4566 2710 mt 4566 2710 L
 656 2406 mt 4566 2406 L
4566 2406 mt 4566 2406 L
 656 2102 mt 4566 2102 L
4566 2102 mt 4566 2102 L
 656 1799 mt 4566 1799 L
4566 1799 mt 4566 1799 L
 656 1495 mt 4566 1495 L
4566 1495 mt 4566 1495 L
 656 1191 mt 4566 1191 L
4566 1191 mt 4566 1191 L
 656  887 mt 4566  887 L
4566  887 mt 4566  887 L
 656  583 mt 4566  583 L
4566  583 mt 4566  583 L
 656  280 mt 4566  280 L
4566  280 mt 4566  280 L
SO
6 w
 656  280 mt 4566  280 L
 656 3318 mt 4566 3318 L
4566 3318 mt 4566  280 L
 656 3318 mt  656  280 L
 656 3318 mt 4566 3318 L
 656 3318 mt  656  280 L
 656 3318 mt  656 3278 L
 656  280 mt  656  319 L
%%IncludeResource: font Helvetica
/Helvetica /WindowsLatin1Encoding 120 FMSR

 486 3463 mt 
(-200) s
1307 3318 mt 1307 3278 L
1307  280 mt 1307  319 L
1274 3463 mt 
(0) s
1959 3318 mt 1959 3278 L
1959  280 mt 1959  319 L
1859 3463 mt 
(200) s
2611 3318 mt 2611 3278 L
2611  280 mt 2611  319 L
2511 3463 mt 
(400) s
3262 3318 mt 3262 3278 L
3262  280 mt 3262  319 L
3162 3463 mt 
(600) s
3914 3318 mt 3914 3278 L
3914  280 mt 3914  319 L
3814 3463 mt 
(800) s
4566 3318 mt 4566 3278 L
4566  280 mt 4566  319 L
4433 3463 mt 
(1000) s
 656 3318 mt  695 3318 L
4566 3318 mt 4526 3318 L
 555 3362 mt 
(0) s
 656 3014 mt  695 3014 L
4566 3014 mt 4526 3014 L
 488 3058 mt 
(10) s
 656 2710 mt  695 2710 L
4566 2710 mt 4526 2710 L
 488 2754 mt 
(20) s
 656 2406 mt  695 2406 L
4566 2406 mt 4526 2406 L
 488 2450 mt 
(30) s
 656 2102 mt  695 2102 L
4566 2102 mt 4526 2102 L
 488 2146 mt 
(40) s
 656 1799 mt  695 1799 L
4566 1799 mt 4526 1799 L
 488 1843 mt 
(50) s
 656 1495 mt  695 1495 L
4566 1495 mt 4526 1495 L
 488 1539 mt 
(60) s
 656 1191 mt  695 1191 L
4566 1191 mt 4526 1191 L
 488 1235 mt 
(70) s
 656  887 mt  695  887 L
4566  887 mt 4526  887 L
 488  931 mt 
(80) s
 656  583 mt  695  583 L
4566  583 mt 4526  583 L
 488  627 mt 
(90) s
 656  280 mt  695  280 L
4566  280 mt 4526  280 L
 421  324 mt 
(100) s
 656  280 mt 4566  280 L
 656 3318 mt 4566 3318 L
4566 3318 mt 4566  280 L
 656 3318 mt  656  280 L
gs 656 280 3911 3039 rc
/c8 { 0.000000 0.000000 1.000000 sr} bdef
c8
1310 3315 PD
64 0 1278 3315 2 MP stroke
64 0 1278 3315 2 MP stroke
0 2 1376 3313 2 MP stroke
64 0 1344 3313 2 MP stroke
64 0 1344 3315 2 MP stroke
0 8 1441 3306 2 MP stroke
64 0 1409 3306 2 MP stroke
64 0 1409 3314 2 MP stroke
0 13 1506 3298 2 MP stroke
64 0 1474 3298 2 MP stroke
64 0 1474 3311 2 MP stroke
0 20 1571 3286 2 MP stroke
64 0 1539 3286 2 MP stroke
64 0 1539 3306 2 MP stroke
0 27 1636 3272 2 MP stroke
64 0 1604 3272 2 MP stroke
64 0 1604 3299 2 MP stroke
0 34 1701 3256 2 MP stroke
64 0 1669 3256 2 MP stroke
64 0 1669 3290 2 MP stroke
0 42 1767 3237 2 MP stroke
64 0 1735 3237 2 MP stroke
64 0 1735 3279 2 MP stroke
0 50 1832 3216 2 MP stroke
64 0 1800 3216 2 MP stroke
64 0 1800 3266 2 MP stroke
0 58 1897 3193 2 MP stroke
64 0 1865 3193 2 MP stroke
64 0 1865 3251 2 MP stroke
0 69 1962 3166 2 MP stroke
64 0 1930 3166 2 MP stroke
64 0 1930 3235 2 MP stroke
0 78 2027 3138 2 MP stroke
64 0 1995 3138 2 MP stroke
64 0 1995 3216 2 MP stroke
0 88 2092 3107 2 MP stroke
64 0 2060 3107 2 MP stroke
64 0 2060 3195 2 MP stroke
0 99 2158 3074 2 MP stroke
64 0 2126 3074 2 MP stroke
64 0 2126 3173 2 MP stroke
0 110 2223 3038 2 MP stroke
64 0 2191 3038 2 MP stroke
64 0 2191 3148 2 MP stroke
0 121 2288 3000 2 MP stroke
64 0 2256 3000 2 MP stroke
64 0 2256 3121 2 MP stroke
0 134 2353 2959 2 MP stroke
64 0 2321 2959 2 MP stroke
64 0 2321 3093 2 MP stroke
0 146 2418 2916 2 MP stroke
64 0 2386 2916 2 MP stroke
64 0 2386 3062 2 MP stroke
0 158 2483 2871 2 MP stroke
64 0 2451 2871 2 MP stroke
64 0 2451 3029 2 MP stroke
0 172 2549 2823 2 MP stroke
64 0 2517 2823 2 MP stroke
64 0 2517 2995 2 MP stroke
0 186 2614 2772 2 MP stroke
64 0 2582 2772 2 MP stroke
64 0 2582 2958 2 MP stroke
0 199 2679 2720 2 MP stroke
64 0 2647 2720 2 MP stroke
64 0 2647 2919 2 MP stroke
0 214 2744 2664 2 MP stroke
64 0 2712 2664 2 MP stroke
64 0 2712 2878 2 MP stroke
0 227 2809 2607 2 MP stroke
64 0 2777 2607 2 MP stroke
64 0 2777 2834 2 MP stroke
0 242 2874 2547 2 MP stroke
64 0 2842 2547 2 MP stroke
64 0 2842 2789 2 MP stroke
0 256 2940 2486 2 MP stroke
64 0 2908 2486 2 MP stroke
64 0 2908 2742 2 MP stroke
0 271 3005 2422 2 MP stroke
64 0 2973 2422 2 MP stroke
64 0 2973 2693 2 MP stroke
0 287 3070 2355 2 MP stroke
64 0 3038 2355 2 MP stroke
64 0 3038 2642 2 MP stroke
0 303 3135 2286 2 MP stroke
64 0 3103 2286 2 MP stroke
64 0 3103 2589 2 MP stroke
0 318 3200 2216 2 MP stroke
64 0 3168 2216 2 MP stroke
64 0 3168 2534 2 MP stroke
0 334 3265 2143 2 MP stroke
64 0 3233 2143 2 MP stroke
64 0 3233 2477 2 MP stroke
0 351 3331 2067 2 MP stroke
64 0 3299 2067 2 MP stroke
64 0 3299 2418 2 MP stroke
0 367 3396 1989 2 MP stroke
64 0 3364 1989 2 MP stroke
64 0 3364 2356 2 MP stroke
0 385 3461 1908 2 MP stroke
64 0 3429 1908 2 MP stroke
64 0 3429 2293 2 MP stroke
0 401 3526 1826 2 MP stroke
64 0 3494 1826 2 MP stroke
64 0 3494 2227 2 MP stroke
0 419 3591 1740 2 MP stroke
64 0 3559 1740 2 MP stroke
64 0 3559 2159 2 MP stroke
0 437 3656 1653 2 MP stroke
64 0 3624 1653 2 MP stroke
64 0 3624 2090 2 MP stroke
0 455 3722 1563 2 MP stroke
64 0 3690 1563 2 MP stroke
64 0 3690 2018 2 MP stroke
0 473 3787 1472 2 MP stroke
64 0 3755 1472 2 MP stroke
64 0 3755 1945 2 MP stroke
0 492 3852 1377 2 MP stroke
64 0 3820 1377 2 MP stroke
64 0 3820 1869 2 MP stroke
0 509 3917 1282 2 MP stroke
64 0 3885 1282 2 MP stroke
64 0 3885 1791 2 MP stroke
0 528 3982 1183 2 MP stroke
64 0 3950 1183 2 MP stroke
64 0 3950 1711 2 MP stroke
0 547 4047 1082 2 MP stroke
64 0 4015 1082 2 MP stroke
64 0 4015 1629 2 MP stroke
0 566 4113 979 2 MP stroke
64 0 4081 979 2 MP stroke
64 0 4081 1545 2 MP stroke
0 587 4178 872 2 MP stroke
64 0 4146 872 2 MP stroke
64 0 4146 1459 2 MP stroke
0 606 4243 765 2 MP stroke
64 0 4211 765 2 MP stroke
64 0 4211 1371 2 MP stroke
0 626 4308 655 2 MP stroke
64 0 4276 655 2 MP stroke
64 0 4276 1281 2 MP stroke
0 645 4373 543 2 MP stroke
64 0 4341 543 2 MP stroke
64 0 4341 1188 2 MP stroke
0 667 4438 427 2 MP stroke
64 0 4406 427 2 MP stroke
64 0 4406 1094 2 MP stroke
0 687 4504 311 2 MP stroke
64 0 4472 311 2 MP stroke
64 0 4472 998 2 MP stroke
66 -107 65 -104 65 -103 65 -100 65 -98 65 -96 66 -94 65 -91 
65 -90 65 -86 65 -85 65 -83 66 -80 65 -79 65 -76 65 -74 
65 -73 65 -69 66 -68 65 -65 65 -63 65 -60 65 -59 65 -57 
66 -54 65 -52 65 -51 65 -48 65 -46 65 -44 66 -41 65 -39 
65 -37 65 -35 65 -32 65 -30 66 -28 65 -26 65 -24 65 -21 
65 -19 65 -17 66 -15 65 -12 65 -11 65 -8 65 -6 65 -4 
66 -1 1310 3315 50 MP stroke
/c9 { 0.000000 1.000000 0.000000 sr} bdef
c9
1310 3313 PD
64 0 1278 3313 2 MP stroke
64 0 1278 3313 2 MP stroke
1376 3313 PD
64 0 1344 3313 2 MP stroke
64 0 1344 3313 2 MP stroke
0 1 1441 3312 2 MP stroke
64 0 1409 3312 2 MP stroke
64 0 1409 3313 2 MP stroke
0 4 1506 3309 2 MP stroke
64 0 1474 3309 2 MP stroke
64 0 1474 3313 2 MP stroke
0 6 1571 3305 2 MP stroke
64 0 1539 3305 2 MP stroke
64 0 1539 3311 2 MP stroke
0 9 1636 3300 2 MP stroke
64 0 1604 3300 2 MP stroke
64 0 1604 3309 2 MP stroke
0 12 1701 3294 2 MP stroke
64 0 1669 3294 2 MP stroke
64 0 1669 3306 2 MP stroke
0 14 1767 3288 2 MP stroke
64 0 1735 3288 2 MP stroke
64 0 1735 3302 2 MP stroke
0 18 1832 3280 2 MP stroke
64 0 1800 3280 2 MP stroke
64 0 1800 3298 2 MP stroke
0 21 1897 3271 2 MP stroke
64 0 1865 3271 2 MP stroke
64 0 1865 3292 2 MP stroke
0 24 1962 3262 2 MP stroke
64 0 1930 3262 2 MP stroke
64 0 1930 3286 2 MP stroke
0 28 2027 3252 2 MP stroke
64 0 1995 3252 2 MP stroke
64 0 1995 3280 2 MP stroke
0 31 2092 3241 2 MP stroke
64 0 2060 3241 2 MP stroke
64 0 2060 3272 2 MP stroke
0 35 2158 3229 2 MP stroke
64 0 2126 3229 2 MP stroke
64 0 2126 3264 2 MP stroke
0 39 2223 3216 2 MP stroke
64 0 2191 3216 2 MP stroke
64 0 2191 3255 2 MP stroke
0 43 2288 3203 2 MP stroke
64 0 2256 3203 2 MP stroke
64 0 2256 3246 2 MP stroke
0 48 2353 3188 2 MP stroke
64 0 2321 3188 2 MP stroke
64 0 2321 3236 2 MP stroke
0 52 2418 3173 2 MP stroke
64 0 2386 3173 2 MP stroke
64 0 2386 3225 2 MP stroke
0 56 2483 3157 2 MP stroke
64 0 2451 3157 2 MP stroke
64 0 2451 3213 2 MP stroke
0 61 2549 3140 2 MP stroke
64 0 2517 3140 2 MP stroke
64 0 2517 3201 2 MP stroke
0 66 2614 3122 2 MP stroke
64 0 2582 3122 2 MP stroke
64 0 2582 3188 2 MP stroke
0 71 2679 3103 2 MP stroke
64 0 2647 3103 2 MP stroke
64 0 2647 3174 2 MP stroke
0 76 2744 3083 2 MP stroke
64 0 2712 3083 2 MP stroke
64 0 2712 3159 2 MP stroke
0 81 2809 3063 2 MP stroke
64 0 2777 3063 2 MP stroke
64 0 2777 3144 2 MP stroke
0 86 2874 3042 2 MP stroke
64 0 2842 3042 2 MP stroke
64 0 2842 3128 2 MP stroke
0 91 2940 3020 2 MP stroke
64 0 2908 3020 2 MP stroke
64 0 2908 3111 2 MP stroke
0 97 3005 2997 2 MP stroke
64 0 2973 2997 2 MP stroke
64 0 2973 3094 2 MP stroke
0 102 3070 2973 2 MP stroke
64 0 3038 2973 2 MP stroke
64 0 3038 3075 2 MP stroke
0 108 3135 2948 2 MP stroke
64 0 3103 2948 2 MP stroke
64 0 3103 3056 2 MP stroke
0 114 3200 2923 2 MP stroke
64 0 3168 2923 2 MP stroke
64 0 3168 3037 2 MP stroke
0 119 3265 2897 2 MP stroke
64 0 3233 2897 2 MP stroke
64 0 3233 3016 2 MP stroke
0 126 3331 2869 2 MP stroke
64 0 3299 2869 2 MP stroke
64 0 3299 2995 2 MP stroke
0 132 3396 2841 2 MP stroke
64 0 3364 2841 2 MP stroke
64 0 3364 2973 2 MP stroke
0 138 3461 2812 2 MP stroke
64 0 3429 2812 2 MP stroke
64 0 3429 2950 2 MP stroke
0 144 3526 2783 2 MP stroke
64 0 3494 2783 2 MP stroke
64 0 3494 2927 2 MP stroke
0 150 3591 2752 2 MP stroke
64 0 3559 2752 2 MP stroke
64 0 3559 2902 2 MP stroke
0 157 3656 2721 2 MP stroke
64 0 3624 2721 2 MP stroke
64 0 3624 2878 2 MP stroke
0 163 3722 2689 2 MP stroke
64 0 3690 2689 2 MP stroke
64 0 3690 2852 2 MP stroke
0 169 3787 2656 2 MP stroke
64 0 3755 2656 2 MP stroke
64 0 3755 2825 2 MP stroke
0 175 3852 2623 2 MP stroke
64 0 3820 2623 2 MP stroke
64 0 3820 2798 2 MP stroke
0 182 3917 2589 2 MP stroke
64 0 3885 2589 2 MP stroke
64 0 3885 2771 2 MP stroke
0 188 3982 2554 2 MP stroke
64 0 3950 2554 2 MP stroke
64 0 3950 2742 2 MP stroke
0 196 4047 2517 2 MP stroke
64 0 4015 2517 2 MP stroke
64 0 4015 2713 2 MP stroke
0 203 4113 2480 2 MP stroke
64 0 4081 2480 2 MP stroke
64 0 4081 2683 2 MP stroke
0 209 4178 2443 2 MP stroke
64 0 4146 2443 2 MP stroke
64 0 4146 2652 2 MP stroke
0 217 4243 2404 2 MP stroke
64 0 4211 2404 2 MP stroke
64 0 4211 2621 2 MP stroke
0 224 4308 2365 2 MP stroke
64 0 4276 2365 2 MP stroke
64 0 4276 2589 2 MP stroke
0 231 4373 2324 2 MP stroke
64 0 4341 2324 2 MP stroke
64 0 4341 2555 2 MP stroke
0 239 4438 2283 2 MP stroke
64 0 4406 2283 2 MP stroke
64 0 4406 2522 2 MP stroke
0 246 4504 2241 2 MP stroke
64 0 4472 2241 2 MP stroke
64 0 4472 2487 2 MP stroke
66 -39 65 -37 65 -37 65 -36 65 -34 65 -35 66 -33 65 -33 
65 -32 65 -31 65 -30 65 -29 66 -29 65 -28 65 -28 65 -26 
65 -26 65 -25 66 -24 65 -24 65 -22 65 -22 65 -21 65 -20 
66 -20 65 -18 65 -18 65 -17 65 -17 65 -15 66 -15 65 -14 
65 -13 65 -12 65 -12 65 -10 66 -11 65 -9 65 -8 65 -8 
65 -7 65 -6 66 -5 65 -4 65 -4 65 -3 65 -1 65 -1 
66 0 1310 3313 50 MP stroke
gr

c9
0 sg
2179 3606 mt 
(p. di colorazione) s
 339 1967 mt  -90 rotate
(tempo) s
90 rotate
 603 3397 mt 
( ) s
4514  358 mt 
( ) s
1 sg
0 378 1080 0 0 -378 767 722 4 MP
PP
-1080 0 0 378 1080 0 0 -378 767 722 5 MP stroke
4 w
DO
SO
6 w
0 sg
 767  344 mt 1847  344 L
 767  722 mt 1847  722 L
1847  722 mt 1847  344 L
 767  722 mt  767  344 L
 767  722 mt 1847  722 L
 767  722 mt  767  344 L
 767  344 mt 1847  344 L
 767  722 mt 1847  722 L
1847  722 mt 1847  344 L
 767  722 mt  767  344 L
1235  491 mt 
(t. etichetta) s
gs 767 344 1081 379 rc
c8
360 0 839 449 2 MP stroke
gr

c8
0 sg
1235  660 mt 
(t. HK) s
gs 767 344 1081 379 rc
c9
360 0 839 617 2 MP stroke
gr

c9

end %%Color Dict

eplot
%%EndObject

epage
end

showpage

%%Trailer
%%EOF
