%!PS-Adobe-3.0 EPSF-3.0
%%Creator: MATLAB, The MathWorks, Inc. Version 8.0.0.783 (R2012b). Operating System: Microsoft Windows 7.
%%Title: C:\SILVIA\UniversitÓ\Presenti\Modellazione E Simulazioni Numeriche\Relazione\percolazione\codici\grafici\Fperc500.eps
%%CreationDate: 06/09/2015  13:52:33
%%DocumentNeededFonts: Helvetica
%%DocumentProcessColors: Cyan Magenta Yellow Black
%%LanguageLevel: 2
%%Pages: 1
%%BoundingBox:    90   267   504   574
%%EndComments

%%BeginProlog
% MathWorks dictionary
/MathWorks 160 dict begin
% definition operators
/bdef {bind def} bind def
/ldef {load def} bind def
/xdef {exch def} bdef
/xstore {exch store} bdef
% operator abbreviations
/c  /clip ldef
/cc /concat ldef
/cp /closepath ldef
/gr /grestore ldef
/gs /gsave ldef
/mt /moveto ldef
/np /newpath ldef
/cm /currentmatrix ldef
/sm /setmatrix ldef
/rm /rmoveto ldef
/rl /rlineto ldef
/s {show newpath} bdef
/sc {setcmykcolor} bdef
/sr /setrgbcolor ldef
/sg /setgray ldef
/w /setlinewidth ldef
/j /setlinejoin ldef
/cap /setlinecap ldef
/rc {rectclip} bdef
/rf {rectfill} bdef
% page state control
/pgsv () def
/bpage {/pgsv save def} bdef
/epage {pgsv restore} bdef
/bplot /gsave ldef
/eplot {stroke grestore} bdef
% orientation switch
/portraitMode 0 def /landscapeMode 1 def /rotateMode 2 def
% coordinate system mappings
/dpi2point 0 def
% font control
/FontSize 0 def
/FMS {/FontSize xstore findfont [FontSize 0 0 FontSize neg 0 0]
  makefont setfont} bdef
/ISOLatin1Encoding where {pop /WindowsLatin1Encoding 256 array bdef
ISOLatin1Encoding WindowsLatin1Encoding copy pop
/.notdef/.notdef/quotesinglbase/florin/quotedblbase/ellipsis/dagger
/daggerdbl/circumflex/perthousand/Scaron/guilsinglleft/OE/.notdef/.notdef
/.notdef/.notdef/quoteleft/quoteright/quotedblleft/quotedblright/bullet
/endash/emdash/tilde/trademark/scaron/guilsinglright/oe/.notdef/.notdef
/Ydieresis WindowsLatin1Encoding 128 32 getinterval astore pop}
{/WindowsLatin1Encoding StandardEncoding bdef} ifelse
/reencode {exch dup where {pop load} {pop StandardEncoding} ifelse
  exch dup 3 1 roll findfont dup length dict begin
  { 1 index /FID ne {def}{pop pop} ifelse } forall
  /Encoding exch def currentdict end definefont pop} bdef
/isroman {findfont /CharStrings get /Agrave known} bdef
/FMSR {3 1 roll 1 index dup isroman {reencode} {pop pop} ifelse
  exch FMS} bdef
/csm {1 dpi2point div -1 dpi2point div scale neg translate
 dup landscapeMode eq {pop -90 rotate}
  {rotateMode eq {90 rotate} if} ifelse} bdef
% line types: solid, dotted, dashed, dotdash
/SO { [] 0 setdash } bdef
/DO { [.5 dpi2point mul 4 dpi2point mul] 0 setdash } bdef
/DA { [6 dpi2point mul] 0 setdash } bdef
/DD { [.5 dpi2point mul 4 dpi2point mul 6 dpi2point mul 4
  dpi2point mul] 0 setdash } bdef
% macros for lines and objects
/L {lineto stroke} bdef
/MP {3 1 roll moveto 1 sub {rlineto} repeat} bdef
/AP {{rlineto} repeat} bdef
/PDlw -1 def
/W {/PDlw currentlinewidth def setlinewidth} def
/PP {closepath eofill} bdef
/DP {closepath stroke} bdef
/MR {4 -2 roll moveto dup  0 exch rlineto exch 0 rlineto
  neg 0 exch rlineto closepath} bdef
/FR {MR stroke} bdef
/PR {MR fill} bdef
/L1i {{currentfile picstr readhexstring pop} image} bdef
/tMatrix matrix def
/MakeOval {newpath tMatrix currentmatrix pop translate scale
0 0 1 0 360 arc tMatrix setmatrix} bdef
/FO {MakeOval stroke} bdef
/PO {MakeOval fill} bdef
/PD {currentlinewidth 2 div 0 360 arc fill
   PDlw -1 eq not {PDlw w /PDlw -1 def} if} def
/FA {newpath tMatrix currentmatrix pop translate scale
  0 0 1 5 -2 roll arc tMatrix setmatrix stroke} bdef
/PA {newpath tMatrix currentmatrix pop	translate 0 0 moveto scale
  0 0 1 5 -2 roll arc closepath tMatrix setmatrix fill} bdef
/FAn {newpath tMatrix currentmatrix pop translate scale
  0 0 1 5 -2 roll arcn tMatrix setmatrix stroke} bdef
/PAn {newpath tMatrix currentmatrix pop translate 0 0 moveto scale
  0 0 1 5 -2 roll arcn closepath tMatrix setmatrix fill} bdef
/vradius 0 def /hradius 0 def /lry 0 def
/lrx 0 def /uly 0 def /ulx 0 def /rad 0 def
/MRR {/vradius xdef /hradius xdef /lry xdef /lrx xdef /uly xdef
  /ulx xdef newpath tMatrix currentmatrix pop ulx hradius add uly
  vradius add translate hradius vradius scale 0 0 1 180 270 arc 
  tMatrix setmatrix lrx hradius sub uly vradius add translate
  hradius vradius scale 0 0 1 270 360 arc tMatrix setmatrix
  lrx hradius sub lry vradius sub translate hradius vradius scale
  0 0 1 0 90 arc tMatrix setmatrix ulx hradius add lry vradius sub
  translate hradius vradius scale 0 0 1 90 180 arc tMatrix setmatrix
  closepath} bdef
/FRR {MRR stroke } bdef
/PRR {MRR fill } bdef
/MlrRR {/lry xdef /lrx xdef /uly xdef /ulx xdef /rad lry uly sub 2 div def
  newpath tMatrix currentmatrix pop ulx rad add uly rad add translate
  rad rad scale 0 0 1 90 270 arc tMatrix setmatrix lrx rad sub lry rad
  sub translate rad rad scale 0 0 1 270 90 arc tMatrix setmatrix
  closepath} bdef
/FlrRR {MlrRR stroke } bdef
/PlrRR {MlrRR fill } bdef
/MtbRR {/lry xdef /lrx xdef /uly xdef /ulx xdef /rad lrx ulx sub 2 div def
  newpath tMatrix currentmatrix pop ulx rad add uly rad add translate
  rad rad scale 0 0 1 180 360 arc tMatrix setmatrix lrx rad sub lry rad
  sub translate rad rad scale 0 0 1 0 180 arc tMatrix setmatrix
  closepath} bdef
/FtbRR {MtbRR stroke } bdef
/PtbRR {MtbRR fill } bdef
/stri 6 array def /dtri 6 array def
/smat 6 array def /dmat 6 array def
/tmat1 6 array def /tmat2 6 array def /dif 3 array def
/asub {/ind2 exch def /ind1 exch def dup dup
  ind1 get exch ind2 get sub exch } bdef
/tri_to_matrix {
  2 0 asub 3 1 asub 4 0 asub 5 1 asub
  dup 0 get exch 1 get 7 -1 roll astore } bdef
/compute_transform {
  dmat dtri tri_to_matrix tmat1 invertmatrix 
  smat stri tri_to_matrix tmat2 concatmatrix } bdef
/ds {stri astore pop} bdef
/dt {dtri astore pop} bdef
/db {2 copy /cols xdef /rows xdef mul dup 3 mul string
  currentfile 
  3 index 0 eq {/ASCIIHexDecode filter}
  {/ASCII85Decode filter 3 index 2 eq {/RunLengthDecode filter} if }
  ifelse exch readstring pop
  dup 0 3 index getinterval /rbmap xdef
  dup 2 index dup getinterval /gbmap xdef
  1 index dup 2 mul exch getinterval /bbmap xdef pop pop}bdef
/it {gs np dtri aload pop moveto lineto lineto cp c
  cols rows 8 compute_transform 
  rbmap gbmap bbmap true 3 colorimage gr}bdef
/il {newpath moveto lineto stroke}bdef
currentdict end def
%%EndProlog

%%BeginSetup
MathWorks begin

0 cap

end
%%EndSetup

%%Page: 1 1
%%BeginPageSetup
%%PageBoundingBox:    90   267   504   574
MathWorks begin
bpage
%%EndPageSetup

%%BeginObject: obj1
bplot

/dpi2point 12 def
portraitMode 1080 6888 csm

    0     0  4973  3683 rc
85 dict begin %Colortable dictionary
/c0 { 0.000000 0.000000 0.000000 sr} bdef
/c1 { 1.000000 1.000000 1.000000 sr} bdef
/c2 { 0.900000 0.000000 0.000000 sr} bdef
/c3 { 0.000000 0.820000 0.000000 sr} bdef
/c4 { 0.000000 0.000000 0.800000 sr} bdef
/c5 { 0.910000 0.820000 0.320000 sr} bdef
/c6 { 1.000000 0.260000 0.820000 sr} bdef
/c7 { 0.000000 0.820000 0.820000 sr} bdef
c0
1 j
1 sg
   0    0 4974 3684 rf
6 w
0 3002 3855 0 0 -3002 646 3278 4 MP
PP
-3855 0 0 3002 3855 0 0 -3002 646 3278 5 MP stroke
4 w
DO
0 sg
 646 3278 mt  646  276 L
 646  276 mt  646  276 L
1417 3278 mt 1417  276 L
1417  276 mt 1417  276 L
2188 3278 mt 2188  276 L
2188  276 mt 2188  276 L
2959 3278 mt 2959  276 L
2959  276 mt 2959  276 L
3730 3278 mt 3730  276 L
3730  276 mt 3730  276 L
4501 3278 mt 4501  276 L
4501  276 mt 4501  276 L
 646 3278 mt 4501 3278 L
4501 3278 mt 4501 3278 L
 646 2849 mt 4501 2849 L
4501 2849 mt 4501 2849 L
 646 2420 mt 4501 2420 L
4501 2420 mt 4501 2420 L
 646 1991 mt 4501 1991 L
4501 1991 mt 4501 1991 L
 646 1562 mt 4501 1562 L
4501 1562 mt 4501 1562 L
 646 1133 mt 4501 1133 L
4501 1133 mt 4501 1133 L
 646  704 mt 4501  704 L
4501  704 mt 4501  704 L
 646  276 mt 4501  276 L
4501  276 mt 4501  276 L
SO
6 w
 646  276 mt 4501  276 L
 646 3278 mt 4501 3278 L
4501 3278 mt 4501  276 L
 646 3278 mt  646  276 L
 646 3278 mt 4501 3278 L
 646 3278 mt  646  276 L
 646 3278 mt  646 3239 L
 646  276 mt  646  314 L
%%IncludeResource: font Helvetica
/Helvetica /WindowsLatin1Encoding 120 FMSR

 613 3423 mt 
(0) s
1417 3278 mt 1417 3239 L
1417  276 mt 1417  314 L
1334 3423 mt 
(0.2) s
2188 3278 mt 2188 3239 L
2188  276 mt 2188  314 L
2105 3423 mt 
(0.4) s
2959 3278 mt 2959 3239 L
2959  276 mt 2959  314 L
2876 3423 mt 
(0.6) s
3730 3278 mt 3730 3239 L
3730  276 mt 3730  314 L
3647 3423 mt 
(0.8) s
4501 3278 mt 4501 3239 L
4501  276 mt 4501  314 L
4468 3423 mt 
(1) s
 646 3278 mt  684 3278 L
4501 3278 mt 4462 3278 L
 545 3322 mt 
(0) s
 646 2849 mt  684 2849 L
4501 2849 mt 4462 2849 L
 445 2893 mt 
(0.2) s
 646 2420 mt  684 2420 L
4501 2420 mt 4462 2420 L
 445 2464 mt 
(0.4) s
 646 1991 mt  684 1991 L
4501 1991 mt 4462 1991 L
 445 2035 mt 
(0.6) s
 646 1562 mt  684 1562 L
4501 1562 mt 4462 1562 L
 445 1606 mt 
(0.8) s
 646 1133 mt  684 1133 L
4501 1133 mt 4462 1133 L
 545 1177 mt 
(1) s
 646  704 mt  684  704 L
4501  704 mt 4462  704 L
 445  748 mt 
(1.2) s
 646  276 mt  684  276 L
4501  276 mt 4462  276 L
 445  320 mt 
(1.4) s
 646  276 mt 4501  276 L
 646 3278 mt 4501 3278 L
4501 3278 mt 4501  276 L
 646 3278 mt  646  276 L
gs 646 276 3856 3003 rc
/c8 { 0.000000 0.000000 1.000000 sr} bdef
c8
838 3278 PD
69 0 804 3278 2 MP stroke
69 0 804 3278 2 MP stroke
1031 3278 PD
70 0 996 3278 2 MP stroke
70 0 996 3278 2 MP stroke
1224 3278 PD
69 0 1189 3278 2 MP stroke
69 0 1189 3278 2 MP stroke
1417 3278 PD
69 0 1382 3278 2 MP stroke
69 0 1382 3278 2 MP stroke
1609 3278 PD
69 0 1575 3278 2 MP stroke
69 0 1575 3278 2 MP stroke
1802 3278 PD
70 0 1767 3278 2 MP stroke
70 0 1767 3278 2 MP stroke
1995 3278 PD
69 0 1960 3278 2 MP stroke
69 0 1960 3278 2 MP stroke
2188 3278 PD
69 0 2153 3278 2 MP stroke
69 0 2153 3278 2 MP stroke
2380 3278 PD
69 0 2346 3278 2 MP stroke
69 0 2346 3278 2 MP stroke
2573 3278 PD
70 0 2538 3278 2 MP stroke
70 0 2538 3278 2 MP stroke
2766 3278 PD
69 0 2731 3278 2 MP stroke
69 0 2731 3278 2 MP stroke
2958 3278 PD
69 0 2924 3278 2 MP stroke
69 0 2924 3278 2 MP stroke
0 2 3151 3163 2 MP stroke
69 0 3117 3163 2 MP stroke
69 0 3117 3165 2 MP stroke
0 31 3344 1154 2 MP stroke
70 0 3309 1154 2 MP stroke
70 0 3309 1185 2 MP stroke
0 42 3537 1112 2 MP stroke
69 0 3502 1112 2 MP stroke
69 0 3502 1154 2 MP stroke
0 50 3729 1108 2 MP stroke
69 0 3695 1108 2 MP stroke
69 0 3695 1158 2 MP stroke
0 56 3922 1105 2 MP stroke
69 0 3888 1105 2 MP stroke
69 0 3888 1161 2 MP stroke
0 61 4115 1103 2 MP stroke
70 0 4080 1103 2 MP stroke
70 0 4080 1164 2 MP stroke
0 64 4308 1101 2 MP stroke
69 0 4273 1101 2 MP stroke
69 0 4273 1165 2 MP stroke
193 0 193 0 193 0 192 0 193 -37 193 -1994 193 -114 192 0 
193 0 193 0 192 0 193 0 193 0 193 0 192 0 193 0 
193 0 193 0 838 3278 19 MP stroke
gr

c8
0 sg
2082 3566 mt 
(Prob. di clorazione) s
 363 2332 mt  -90 rotate
(Freq. di percolazione) s
90 rotate
2187  181 mt 
(Fperc: L = 500) s

end %%Color Dict

eplot
%%EndObject

epage
end

showpage

%%Trailer
%%EOF
