%!PS-Adobe-3.0 EPSF-3.0
%%Creator: MATLAB, The MathWorks, Inc. Version 8.0.0.783 (R2012b). Operating System: Microsoft Windows 7.
%%Title: C:\SILVIA\UniversitÓ\Presenti\Modellazione E Simulazioni Numeriche\Relazione\percolazione\codici\grafici\P L=50 passo=0.05 N =1000.eps
%%CreationDate: 06/09/2015  10:15:25
%%DocumentNeededFonts: Helvetica
%%DocumentProcessColors: Cyan Magenta Yellow Black
%%LanguageLevel: 2
%%Pages: 1
%%BoundingBox:    87   265   507   576
%%EndComments

%%BeginProlog
% MathWorks dictionary
/MathWorks 160 dict begin
% definition operators
/bdef {bind def} bind def
/ldef {load def} bind def
/xdef {exch def} bdef
/xstore {exch store} bdef
% operator abbreviations
/c  /clip ldef
/cc /concat ldef
/cp /closepath ldef
/gr /grestore ldef
/gs /gsave ldef
/mt /moveto ldef
/np /newpath ldef
/cm /currentmatrix ldef
/sm /setmatrix ldef
/rm /rmoveto ldef
/rl /rlineto ldef
/s {show newpath} bdef
/sc {setcmykcolor} bdef
/sr /setrgbcolor ldef
/sg /setgray ldef
/w /setlinewidth ldef
/j /setlinejoin ldef
/cap /setlinecap ldef
/rc {rectclip} bdef
/rf {rectfill} bdef
% page state control
/pgsv () def
/bpage {/pgsv save def} bdef
/epage {pgsv restore} bdef
/bplot /gsave ldef
/eplot {stroke grestore} bdef
% orientation switch
/portraitMode 0 def /landscapeMode 1 def /rotateMode 2 def
% coordinate system mappings
/dpi2point 0 def
% font control
/FontSize 0 def
/FMS {/FontSize xstore findfont [FontSize 0 0 FontSize neg 0 0]
  makefont setfont} bdef
/ISOLatin1Encoding where {pop /WindowsLatin1Encoding 256 array bdef
ISOLatin1Encoding WindowsLatin1Encoding copy pop
/.notdef/.notdef/quotesinglbase/florin/quotedblbase/ellipsis/dagger
/daggerdbl/circumflex/perthousand/Scaron/guilsinglleft/OE/.notdef/.notdef
/.notdef/.notdef/quoteleft/quoteright/quotedblleft/quotedblright/bullet
/endash/emdash/tilde/trademark/scaron/guilsinglright/oe/.notdef/.notdef
/Ydieresis WindowsLatin1Encoding 128 32 getinterval astore pop}
{/WindowsLatin1Encoding StandardEncoding bdef} ifelse
/reencode {exch dup where {pop load} {pop StandardEncoding} ifelse
  exch dup 3 1 roll findfont dup length dict begin
  { 1 index /FID ne {def}{pop pop} ifelse } forall
  /Encoding exch def currentdict end definefont pop} bdef
/isroman {findfont /CharStrings get /Agrave known} bdef
/FMSR {3 1 roll 1 index dup isroman {reencode} {pop pop} ifelse
  exch FMS} bdef
/csm {1 dpi2point div -1 dpi2point div scale neg translate
 dup landscapeMode eq {pop -90 rotate}
  {rotateMode eq {90 rotate} if} ifelse} bdef
% line types: solid, dotted, dashed, dotdash
/SO { [] 0 setdash } bdef
/DO { [.5 dpi2point mul 4 dpi2point mul] 0 setdash } bdef
/DA { [6 dpi2point mul] 0 setdash } bdef
/DD { [.5 dpi2point mul 4 dpi2point mul 6 dpi2point mul 4
  dpi2point mul] 0 setdash } bdef
% macros for lines and objects
/L {lineto stroke} bdef
/MP {3 1 roll moveto 1 sub {rlineto} repeat} bdef
/AP {{rlineto} repeat} bdef
/PDlw -1 def
/W {/PDlw currentlinewidth def setlinewidth} def
/PP {closepath eofill} bdef
/DP {closepath stroke} bdef
/MR {4 -2 roll moveto dup  0 exch rlineto exch 0 rlineto
  neg 0 exch rlineto closepath} bdef
/FR {MR stroke} bdef
/PR {MR fill} bdef
/L1i {{currentfile picstr readhexstring pop} image} bdef
/tMatrix matrix def
/MakeOval {newpath tMatrix currentmatrix pop translate scale
0 0 1 0 360 arc tMatrix setmatrix} bdef
/FO {MakeOval stroke} bdef
/PO {MakeOval fill} bdef
/PD {currentlinewidth 2 div 0 360 arc fill
   PDlw -1 eq not {PDlw w /PDlw -1 def} if} def
/FA {newpath tMatrix currentmatrix pop translate scale
  0 0 1 5 -2 roll arc tMatrix setmatrix stroke} bdef
/PA {newpath tMatrix currentmatrix pop	translate 0 0 moveto scale
  0 0 1 5 -2 roll arc closepath tMatrix setmatrix fill} bdef
/FAn {newpath tMatrix currentmatrix pop translate scale
  0 0 1 5 -2 roll arcn tMatrix setmatrix stroke} bdef
/PAn {newpath tMatrix currentmatrix pop translate 0 0 moveto scale
  0 0 1 5 -2 roll arcn closepath tMatrix setmatrix fill} bdef
/vradius 0 def /hradius 0 def /lry 0 def
/lrx 0 def /uly 0 def /ulx 0 def /rad 0 def
/MRR {/vradius xdef /hradius xdef /lry xdef /lrx xdef /uly xdef
  /ulx xdef newpath tMatrix currentmatrix pop ulx hradius add uly
  vradius add translate hradius vradius scale 0 0 1 180 270 arc 
  tMatrix setmatrix lrx hradius sub uly vradius add translate
  hradius vradius scale 0 0 1 270 360 arc tMatrix setmatrix
  lrx hradius sub lry vradius sub translate hradius vradius scale
  0 0 1 0 90 arc tMatrix setmatrix ulx hradius add lry vradius sub
  translate hradius vradius scale 0 0 1 90 180 arc tMatrix setmatrix
  closepath} bdef
/FRR {MRR stroke } bdef
/PRR {MRR fill } bdef
/MlrRR {/lry xdef /lrx xdef /uly xdef /ulx xdef /rad lry uly sub 2 div def
  newpath tMatrix currentmatrix pop ulx rad add uly rad add translate
  rad rad scale 0 0 1 90 270 arc tMatrix setmatrix lrx rad sub lry rad
  sub translate rad rad scale 0 0 1 270 90 arc tMatrix setmatrix
  closepath} bdef
/FlrRR {MlrRR stroke } bdef
/PlrRR {MlrRR fill } bdef
/MtbRR {/lry xdef /lrx xdef /uly xdef /ulx xdef /rad lrx ulx sub 2 div def
  newpath tMatrix currentmatrix pop ulx rad add uly rad add translate
  rad rad scale 0 0 1 180 360 arc tMatrix setmatrix lrx rad sub lry rad
  sub translate rad rad scale 0 0 1 0 180 arc tMatrix setmatrix
  closepath} bdef
/FtbRR {MtbRR stroke } bdef
/PtbRR {MtbRR fill } bdef
/stri 6 array def /dtri 6 array def
/smat 6 array def /dmat 6 array def
/tmat1 6 array def /tmat2 6 array def /dif 3 array def
/asub {/ind2 exch def /ind1 exch def dup dup
  ind1 get exch ind2 get sub exch } bdef
/tri_to_matrix {
  2 0 asub 3 1 asub 4 0 asub 5 1 asub
  dup 0 get exch 1 get 7 -1 roll astore } bdef
/compute_transform {
  dmat dtri tri_to_matrix tmat1 invertmatrix 
  smat stri tri_to_matrix tmat2 concatmatrix } bdef
/ds {stri astore pop} bdef
/dt {dtri astore pop} bdef
/db {2 copy /cols xdef /rows xdef mul dup 3 mul string
  currentfile 
  3 index 0 eq {/ASCIIHexDecode filter}
  {/ASCII85Decode filter 3 index 2 eq {/RunLengthDecode filter} if }
  ifelse exch readstring pop
  dup 0 3 index getinterval /rbmap xdef
  dup 2 index dup getinterval /gbmap xdef
  1 index dup 2 mul exch getinterval /bbmap xdef pop pop}bdef
/it {gs np dtri aload pop moveto lineto lineto cp c
  cols rows 8 compute_transform 
  rbmap gbmap bbmap true 3 colorimage gr}bdef
/il {newpath moveto lineto stroke}bdef
currentdict end def
%%EndProlog

%%BeginSetup
MathWorks begin

0 cap

end
%%EndSetup

%%Page: 1 1
%%BeginPageSetup
%%PageBoundingBox:    87   265   507   576
MathWorks begin
bpage
%%EndPageSetup

%%BeginObject: obj1
bplot

/dpi2point 12 def
portraitMode 1044 6912 csm

    0     0  5045  3728 rc
86 dict begin %Colortable dictionary
/c0 { 0.000000 0.000000 0.000000 sr} bdef
/c1 { 1.000000 1.000000 1.000000 sr} bdef
/c2 { 0.900000 0.000000 0.000000 sr} bdef
/c3 { 0.000000 0.820000 0.000000 sr} bdef
/c4 { 0.000000 0.000000 0.800000 sr} bdef
/c5 { 0.910000 0.820000 0.320000 sr} bdef
/c6 { 1.000000 0.260000 0.820000 sr} bdef
/c7 { 0.000000 0.820000 0.820000 sr} bdef
c0
1 j
1 sg
   0    0 5046 3729 rf
6 w
0 3038 3910 0 0 -3038 656 3318 4 MP
PP
-3910 0 0 3038 3910 0 0 -3038 656 3318 5 MP stroke
4 w
DO
0 sg
 656 3318 mt  656  280 L
 656  280 mt  656  280 L
1438 3318 mt 1438  280 L
1438  280 mt 1438  280 L
2220 3318 mt 2220  280 L
2220  280 mt 2220  280 L
3002 3318 mt 3002  280 L
3002  280 mt 3002  280 L
3784 3318 mt 3784  280 L
3784  280 mt 3784  280 L
4566 3318 mt 4566  280 L
4566  280 mt 4566  280 L
 656 3318 mt 4566 3318 L
4566 3318 mt 4566 3318 L
 656 2884 mt 4566 2884 L
4566 2884 mt 4566 2884 L
 656 2450 mt 4566 2450 L
4566 2450 mt 4566 2450 L
 656 2016 mt 4566 2016 L
4566 2016 mt 4566 2016 L
 656 1582 mt 4566 1582 L
4566 1582 mt 4566 1582 L
 656 1148 mt 4566 1148 L
4566 1148 mt 4566 1148 L
 656  714 mt 4566  714 L
4566  714 mt 4566  714 L
 656  280 mt 4566  280 L
4566  280 mt 4566  280 L
SO
6 w
 656 3318 mt 4566 3318 L
 656 3318 mt  656  280 L
 656 3318 mt  656 3278 L
%%IncludeResource: font Helvetica
/Helvetica /WindowsLatin1Encoding 120 FMSR

 623 3463 mt 
(0) s
1438 3318 mt 1438 3278 L
1355 3463 mt 
(0.2) s
2220 3318 mt 2220 3278 L
2137 3463 mt 
(0.4) s
3002 3318 mt 3002 3278 L
2919 3463 mt 
(0.6) s
3784 3318 mt 3784 3278 L
3701 3463 mt 
(0.8) s
4566 3318 mt 4566 3278 L
4533 3463 mt 
(1) s
 656 3318 mt  695 3318 L
 555 3362 mt 
(0) s
 656 2884 mt  695 2884 L
 455 2928 mt 
(0.2) s
 656 2450 mt  695 2450 L
 455 2494 mt 
(0.4) s
 656 2016 mt  695 2016 L
 455 2060 mt 
(0.6) s
 656 1582 mt  695 1582 L
 455 1626 mt 
(0.8) s
 656 1148 mt  695 1148 L
 555 1192 mt 
(1) s
 656  714 mt  695  714 L
 455  758 mt 
(1.2) s
 656  280 mt  695  280 L
 455  324 mt 
(1.4) s
gs 656 280 3911 3039 rc
/c8 { 1.000000 0.000000 0.000000 sr} bdef
c8
851 3315 PD
70 0 816 3315 2 MP stroke
70 0 816 3315 2 MP stroke
1047 3313 PD
71 0 1011 3313 2 MP stroke
71 0 1011 3313 2 MP stroke
1242 3312 PD
70 0 1207 3312 2 MP stroke
70 0 1207 3312 2 MP stroke
1438 3309 PD
71 0 1402 3309 2 MP stroke
71 0 1402 3309 2 MP stroke
1633 3306 PD
70 0 1598 3306 2 MP stroke
70 0 1598 3306 2 MP stroke
0 1 1829 3301 2 MP stroke
71 0 1793 3301 2 MP stroke
71 0 1793 3302 2 MP stroke
0 1 2024 3294 2 MP stroke
70 0 1989 3294 2 MP stroke
70 0 1989 3295 2 MP stroke
0 1 2220 3283 2 MP stroke
71 0 2184 3283 2 MP stroke
71 0 2184 3284 2 MP stroke
0 1 2415 3262 2 MP stroke
70 0 2380 3262 2 MP stroke
70 0 2380 3263 2 MP stroke
0 1 2611 3226 2 MP stroke
71 0 2575 3226 2 MP stroke
71 0 2575 3227 2 MP stroke
0 3 2806 3144 2 MP stroke
70 0 2771 3144 2 MP stroke
70 0 2771 3147 2 MP stroke
0 5 3001 2959 2 MP stroke
71 0 2966 2959 2 MP stroke
71 0 2966 2964 2 MP stroke
0 12 3197 2550 2 MP stroke
70 0 3162 2550 2 MP stroke
70 0 3162 2562 2 MP stroke
0 22 3393 1996 2 MP stroke
71 0 3357 1996 2 MP stroke
71 0 3357 2018 2 MP stroke
0 29 3588 1710 2 MP stroke
70 0 3553 1710 2 MP stroke
70 0 3553 1739 2 MP stroke
0 37 3783 1572 2 MP stroke
71 0 3748 1572 2 MP stroke
71 0 3748 1609 2 MP stroke
0 42 3979 1454 2 MP stroke
70 0 3944 1454 2 MP stroke
70 0 3944 1496 2 MP stroke
0 47 4175 1342 2 MP stroke
71 0 4139 1342 2 MP stroke
71 0 4139 1389 2 MP stroke
0 52 4370 1230 2 MP stroke
70 0 4335 1230 2 MP stroke
70 0 4335 1282 2 MP stroke
195 -109 196 -110 196 -116 195 -134 195 -282 196 -549 196 -406 195 -184 
195 -80 196 -37 195 -21 196 -10 195 -7 196 -5 195 -3 196 -3 
195 -1 196 -2 851 3315 19 MP stroke
/c9 { 0.000000 0.000000 1.000000 sr} bdef
c9
851 3265 PD
70 0 816 3265 2 MP stroke
70 0 816 3265 2 MP stroke
0 1 1047 3276 2 MP stroke
71 0 1011 3276 2 MP stroke
71 0 1011 3277 2 MP stroke
0 2 1242 3277 2 MP stroke
70 0 1207 3277 2 MP stroke
70 0 1207 3279 2 MP stroke
0 1 1438 3276 2 MP stroke
71 0 1402 3276 2 MP stroke
71 0 1402 3277 2 MP stroke
0 2 1633 3270 2 MP stroke
70 0 1598 3270 2 MP stroke
70 0 1598 3272 2 MP stroke
0 1 1829 3263 2 MP stroke
71 0 1793 3263 2 MP stroke
71 0 1793 3264 2 MP stroke
0 2 2024 3251 2 MP stroke
70 0 1989 3251 2 MP stroke
70 0 1989 3253 2 MP stroke
0 2 2220 3232 2 MP stroke
71 0 2184 3232 2 MP stroke
71 0 2184 3234 2 MP stroke
0 2 2415 3195 2 MP stroke
70 0 2380 3195 2 MP stroke
70 0 2380 3197 2 MP stroke
0 3 2611 3134 2 MP stroke
71 0 2575 3134 2 MP stroke
71 0 2575 3137 2 MP stroke
0 5 2806 3003 2 MP stroke
70 0 2771 3003 2 MP stroke
70 0 2771 3008 2 MP stroke
0 9 3001 2720 2 MP stroke
71 0 2966 2720 2 MP stroke
71 0 2966 2729 2 MP stroke
0 18 3197 2137 2 MP stroke
70 0 3162 2137 2 MP stroke
70 0 3162 2155 2 MP stroke
0 31 3393 1430 2 MP stroke
71 0 3357 1430 2 MP stroke
71 0 3357 1461 2 MP stroke
0 41 3588 1173 2 MP stroke
70 0 3553 1173 2 MP stroke
70 0 3553 1214 2 MP stroke
0 48 3783 1135 2 MP stroke
71 0 3748 1135 2 MP stroke
71 0 3748 1183 2 MP stroke
0 53 3979 1123 2 MP stroke
70 0 3944 1123 2 MP stroke
70 0 3944 1176 2 MP stroke
0 57 4175 1120 2 MP stroke
71 0 4139 1120 2 MP stroke
71 0 4139 1177 2 MP stroke
0 59 4370 1118 2 MP stroke
70 0 4335 1118 2 MP stroke
70 0 4335 1177 2 MP stroke
195 -2 196 0 196 -10 195 -35 195 -251 196 -701 196 -578 195 -281 
195 -130 196 -61 195 -37 196 -19 195 -12 196 -7 195 -5 196 -2 
195 2 196 11 851 3265 19 MP stroke
/c10 { 0.000000 1.000000 0.000000 sr} bdef
c10
851 3265 PD
70 0 816 3265 2 MP stroke
70 0 816 3265 2 MP stroke
0 1 1047 3276 2 MP stroke
71 0 1011 3276 2 MP stroke
71 0 1011 3277 2 MP stroke
0 1 1242 3277 2 MP stroke
70 0 1207 3277 2 MP stroke
70 0 1207 3278 2 MP stroke
0 2 1438 3275 2 MP stroke
71 0 1402 3275 2 MP stroke
71 0 1402 3277 2 MP stroke
0 2 1633 3270 2 MP stroke
70 0 1598 3270 2 MP stroke
70 0 1598 3272 2 MP stroke
0 2 1829 3263 2 MP stroke
71 0 1793 3263 2 MP stroke
71 0 1793 3265 2 MP stroke
0 2 2024 3251 2 MP stroke
70 0 1989 3251 2 MP stroke
70 0 1989 3253 2 MP stroke
0 2 2220 3232 2 MP stroke
71 0 2184 3232 2 MP stroke
71 0 2184 3234 2 MP stroke
0 2 2415 3195 2 MP stroke
70 0 2380 3195 2 MP stroke
70 0 2380 3197 2 MP stroke
0 3 2611 3134 2 MP stroke
71 0 2575 3134 2 MP stroke
71 0 2575 3137 2 MP stroke
0 5 2806 3003 2 MP stroke
70 0 2771 3003 2 MP stroke
70 0 2771 3008 2 MP stroke
0 10 3001 2720 2 MP stroke
71 0 2966 2720 2 MP stroke
71 0 2966 2730 2 MP stroke
0 18 3197 2139 2 MP stroke
70 0 3162 2139 2 MP stroke
70 0 3162 2157 2 MP stroke
0 31 3393 1431 2 MP stroke
71 0 3357 1431 2 MP stroke
71 0 3357 1462 2 MP stroke
0 40 3588 1175 2 MP stroke
70 0 3553 1175 2 MP stroke
70 0 3553 1215 2 MP stroke
0 48 3783 1135 2 MP stroke
71 0 3748 1135 2 MP stroke
71 0 3748 1183 2 MP stroke
0 54 3979 1123 2 MP stroke
70 0 3944 1123 2 MP stroke
70 0 3944 1177 2 MP stroke
0 57 4175 1120 2 MP stroke
71 0 4139 1120 2 MP stroke
71 0 4139 1177 2 MP stroke
0 59 4370 1118 2 MP stroke
70 0 4335 1118 2 MP stroke
70 0 4335 1177 2 MP stroke
195 0 196 -2 196 -9 195 -36 195 -251 196 -702 196 -577 195 -281 
195 -129 196 -61 195 -37 196 -19 195 -12 196 -7 195 -5 196 -2 
195 2 196 11 851 3265 19 MP stroke
gr

c10
0 sg
2150 3606 mt 
(Prob. colorazione) s
 373 1840 mt  -90 rotate
(P) s
90 rotate
 612 3388 mt 
( ) s
4523  349 mt 
( ) s
1 sg
0 546 666 0 0 -546 811 933 4 MP
PP
-666 0 0 546 666 0 0 -546 811 933 5 MP stroke
4 w
DO
SO
6 w
0 sg
 811  387 mt 1477  387 L
 811  933 mt 1477  933 L
1477  933 mt 1477  387 L
 811  933 mt  811  387 L
 811  933 mt 1477  933 L
 811  933 mt  811  387 L
 811  387 mt 1477  387 L
 811  933 mt 1477  933 L
1477  933 mt 1477  387 L
 811  933 mt  811  387 L
1280  534 mt 
(P1) s
gs 811 387 667 547 rc
c8
360 0 883 492 2 MP stroke
gr

c8
0 sg
1280  703 mt 
(P2) s
gs 811 387 667 547 rc
c9
360 0 883 660 2 MP stroke
gr

c9
0 sg
1280  871 mt 
(P3) s
gs 811 387 667 547 rc
c10
360 0 883 828 2 MP stroke
gr

c10

end %%Color Dict

eplot
%%EndObject

epage
end

showpage

%%Trailer
%%EOF
