%!PS-Adobe-3.0 EPSF-3.0
%%Creator: MATLAB, The MathWorks, Inc. Version 8.0.0.783 (R2012b). Operating System: Microsoft Windows 7.
%%Title: C:\SILVIA\UniversitÓ\Presenti\Modellazione E Simulazioni Numeriche\Relazione\percolazione\codici\grafici\RACS500.eps
%%CreationDate: 06/09/2015  13:52:58
%%DocumentNeededFonts: Helvetica
%%DocumentProcessColors: Cyan Magenta Yellow Black
%%LanguageLevel: 2
%%Pages: 1
%%BoundingBox:    87   265   507   576
%%EndComments

%%BeginProlog
% MathWorks dictionary
/MathWorks 160 dict begin
% definition operators
/bdef {bind def} bind def
/ldef {load def} bind def
/xdef {exch def} bdef
/xstore {exch store} bdef
% operator abbreviations
/c  /clip ldef
/cc /concat ldef
/cp /closepath ldef
/gr /grestore ldef
/gs /gsave ldef
/mt /moveto ldef
/np /newpath ldef
/cm /currentmatrix ldef
/sm /setmatrix ldef
/rm /rmoveto ldef
/rl /rlineto ldef
/s {show newpath} bdef
/sc {setcmykcolor} bdef
/sr /setrgbcolor ldef
/sg /setgray ldef
/w /setlinewidth ldef
/j /setlinejoin ldef
/cap /setlinecap ldef
/rc {rectclip} bdef
/rf {rectfill} bdef
% page state control
/pgsv () def
/bpage {/pgsv save def} bdef
/epage {pgsv restore} bdef
/bplot /gsave ldef
/eplot {stroke grestore} bdef
% orientation switch
/portraitMode 0 def /landscapeMode 1 def /rotateMode 2 def
% coordinate system mappings
/dpi2point 0 def
% font control
/FontSize 0 def
/FMS {/FontSize xstore findfont [FontSize 0 0 FontSize neg 0 0]
  makefont setfont} bdef
/ISOLatin1Encoding where {pop /WindowsLatin1Encoding 256 array bdef
ISOLatin1Encoding WindowsLatin1Encoding copy pop
/.notdef/.notdef/quotesinglbase/florin/quotedblbase/ellipsis/dagger
/daggerdbl/circumflex/perthousand/Scaron/guilsinglleft/OE/.notdef/.notdef
/.notdef/.notdef/quoteleft/quoteright/quotedblleft/quotedblright/bullet
/endash/emdash/tilde/trademark/scaron/guilsinglright/oe/.notdef/.notdef
/Ydieresis WindowsLatin1Encoding 128 32 getinterval astore pop}
{/WindowsLatin1Encoding StandardEncoding bdef} ifelse
/reencode {exch dup where {pop load} {pop StandardEncoding} ifelse
  exch dup 3 1 roll findfont dup length dict begin
  { 1 index /FID ne {def}{pop pop} ifelse } forall
  /Encoding exch def currentdict end definefont pop} bdef
/isroman {findfont /CharStrings get /Agrave known} bdef
/FMSR {3 1 roll 1 index dup isroman {reencode} {pop pop} ifelse
  exch FMS} bdef
/csm {1 dpi2point div -1 dpi2point div scale neg translate
 dup landscapeMode eq {pop -90 rotate}
  {rotateMode eq {90 rotate} if} ifelse} bdef
% line types: solid, dotted, dashed, dotdash
/SO { [] 0 setdash } bdef
/DO { [.5 dpi2point mul 4 dpi2point mul] 0 setdash } bdef
/DA { [6 dpi2point mul] 0 setdash } bdef
/DD { [.5 dpi2point mul 4 dpi2point mul 6 dpi2point mul 4
  dpi2point mul] 0 setdash } bdef
% macros for lines and objects
/L {lineto stroke} bdef
/MP {3 1 roll moveto 1 sub {rlineto} repeat} bdef
/AP {{rlineto} repeat} bdef
/PDlw -1 def
/W {/PDlw currentlinewidth def setlinewidth} def
/PP {closepath eofill} bdef
/DP {closepath stroke} bdef
/MR {4 -2 roll moveto dup  0 exch rlineto exch 0 rlineto
  neg 0 exch rlineto closepath} bdef
/FR {MR stroke} bdef
/PR {MR fill} bdef
/L1i {{currentfile picstr readhexstring pop} image} bdef
/tMatrix matrix def
/MakeOval {newpath tMatrix currentmatrix pop translate scale
0 0 1 0 360 arc tMatrix setmatrix} bdef
/FO {MakeOval stroke} bdef
/PO {MakeOval fill} bdef
/PD {currentlinewidth 2 div 0 360 arc fill
   PDlw -1 eq not {PDlw w /PDlw -1 def} if} def
/FA {newpath tMatrix currentmatrix pop translate scale
  0 0 1 5 -2 roll arc tMatrix setmatrix stroke} bdef
/PA {newpath tMatrix currentmatrix pop	translate 0 0 moveto scale
  0 0 1 5 -2 roll arc closepath tMatrix setmatrix fill} bdef
/FAn {newpath tMatrix currentmatrix pop translate scale
  0 0 1 5 -2 roll arcn tMatrix setmatrix stroke} bdef
/PAn {newpath tMatrix currentmatrix pop translate 0 0 moveto scale
  0 0 1 5 -2 roll arcn closepath tMatrix setmatrix fill} bdef
/vradius 0 def /hradius 0 def /lry 0 def
/lrx 0 def /uly 0 def /ulx 0 def /rad 0 def
/MRR {/vradius xdef /hradius xdef /lry xdef /lrx xdef /uly xdef
  /ulx xdef newpath tMatrix currentmatrix pop ulx hradius add uly
  vradius add translate hradius vradius scale 0 0 1 180 270 arc 
  tMatrix setmatrix lrx hradius sub uly vradius add translate
  hradius vradius scale 0 0 1 270 360 arc tMatrix setmatrix
  lrx hradius sub lry vradius sub translate hradius vradius scale
  0 0 1 0 90 arc tMatrix setmatrix ulx hradius add lry vradius sub
  translate hradius vradius scale 0 0 1 90 180 arc tMatrix setmatrix
  closepath} bdef
/FRR {MRR stroke } bdef
/PRR {MRR fill } bdef
/MlrRR {/lry xdef /lrx xdef /uly xdef /ulx xdef /rad lry uly sub 2 div def
  newpath tMatrix currentmatrix pop ulx rad add uly rad add translate
  rad rad scale 0 0 1 90 270 arc tMatrix setmatrix lrx rad sub lry rad
  sub translate rad rad scale 0 0 1 270 90 arc tMatrix setmatrix
  closepath} bdef
/FlrRR {MlrRR stroke } bdef
/PlrRR {MlrRR fill } bdef
/MtbRR {/lry xdef /lrx xdef /uly xdef /ulx xdef /rad lrx ulx sub 2 div def
  newpath tMatrix currentmatrix pop ulx rad add uly rad add translate
  rad rad scale 0 0 1 180 360 arc tMatrix setmatrix lrx rad sub lry rad
  sub translate rad rad scale 0 0 1 0 180 arc tMatrix setmatrix
  closepath} bdef
/FtbRR {MtbRR stroke } bdef
/PtbRR {MtbRR fill } bdef
/stri 6 array def /dtri 6 array def
/smat 6 array def /dmat 6 array def
/tmat1 6 array def /tmat2 6 array def /dif 3 array def
/asub {/ind2 exch def /ind1 exch def dup dup
  ind1 get exch ind2 get sub exch } bdef
/tri_to_matrix {
  2 0 asub 3 1 asub 4 0 asub 5 1 asub
  dup 0 get exch 1 get 7 -1 roll astore } bdef
/compute_transform {
  dmat dtri tri_to_matrix tmat1 invertmatrix 
  smat stri tri_to_matrix tmat2 concatmatrix } bdef
/ds {stri astore pop} bdef
/dt {dtri astore pop} bdef
/db {2 copy /cols xdef /rows xdef mul dup 3 mul string
  currentfile 
  3 index 0 eq {/ASCIIHexDecode filter}
  {/ASCII85Decode filter 3 index 2 eq {/RunLengthDecode filter} if }
  ifelse exch readstring pop
  dup 0 3 index getinterval /rbmap xdef
  dup 2 index dup getinterval /gbmap xdef
  1 index dup 2 mul exch getinterval /bbmap xdef pop pop}bdef
/it {gs np dtri aload pop moveto lineto lineto cp c
  cols rows 8 compute_transform 
  rbmap gbmap bbmap true 3 colorimage gr}bdef
/il {newpath moveto lineto stroke}bdef
currentdict end def
%%EndProlog

%%BeginSetup
MathWorks begin

0 cap

end
%%EndSetup

%%Page: 1 1
%%BeginPageSetup
%%PageBoundingBox:    87   265   507   576
MathWorks begin
bpage
%%EndPageSetup

%%BeginObject: obj1
bplot

/dpi2point 12 def
portraitMode 1044 6912 csm

    0     0  5045  3728 rc
85 dict begin %Colortable dictionary
/c0 { 0.000000 0.000000 0.000000 sr} bdef
/c1 { 1.000000 1.000000 1.000000 sr} bdef
/c2 { 0.900000 0.000000 0.000000 sr} bdef
/c3 { 0.000000 0.820000 0.000000 sr} bdef
/c4 { 0.000000 0.000000 0.800000 sr} bdef
/c5 { 0.910000 0.820000 0.320000 sr} bdef
/c6 { 1.000000 0.260000 0.820000 sr} bdef
/c7 { 0.000000 0.820000 0.820000 sr} bdef
c0
1 j
1 sg
   0    0 5046 3729 rf
6 w
0 3039 3910 0 0 -3039 656 3318 4 MP
PP
-3910 0 0 3039 3910 0 0 -3039 656 3318 5 MP stroke
4 w
DO
0 sg
 656 3318 mt  656  280 L
 656  280 mt  656  280 L
1438 3318 mt 1438  280 L
1438  280 mt 1438  280 L
2220 3318 mt 2220  280 L
2220  280 mt 2220  280 L
3002 3318 mt 3002  280 L
3002  280 mt 3002  280 L
3784 3318 mt 3784  280 L
3784  280 mt 3784  280 L
4566 3318 mt 4566  280 L
4566  280 mt 4566  280 L
 656 3318 mt 4566 3318 L
4566 3318 mt 4566 3318 L
 656 2980 mt 4566 2980 L
4566 2980 mt 4566 2980 L
 656 2642 mt 4566 2642 L
4566 2642 mt 4566 2642 L
 656 2305 mt 4566 2305 L
4566 2305 mt 4566 2305 L
 656 1967 mt 4566 1967 L
4566 1967 mt 4566 1967 L
 656 1630 mt 4566 1630 L
4566 1630 mt 4566 1630 L
 656 1292 mt 4566 1292 L
4566 1292 mt 4566 1292 L
 656  955 mt 4566  955 L
4566  955 mt 4566  955 L
 656  617 mt 4566  617 L
4566  617 mt 4566  617 L
 656  280 mt 4566  280 L
4566  280 mt 4566  280 L
SO
6 w
 656  279 mt 4566  279 L
 656 3318 mt 4566 3318 L
4566 3318 mt 4566  279 L
 656 3318 mt  656  279 L
 656 3318 mt 4566 3318 L
 656 3318 mt  656  279 L
 656 3318 mt  656 3278 L
 656  280 mt  656  319 L
%%IncludeResource: font Helvetica
/Helvetica /WindowsLatin1Encoding 120 FMSR

 623 3463 mt 
(0) s
1438 3318 mt 1438 3278 L
1438  280 mt 1438  319 L
1355 3463 mt 
(0.2) s
2220 3318 mt 2220 3278 L
2220  280 mt 2220  319 L
2137 3463 mt 
(0.4) s
3002 3318 mt 3002 3278 L
3002  280 mt 3002  319 L
2919 3463 mt 
(0.6) s
3784 3318 mt 3784 3278 L
3784  280 mt 3784  319 L
3701 3463 mt 
(0.8) s
4566 3318 mt 4566 3278 L
4566  280 mt 4566  319 L
4533 3463 mt 
(1) s
 656 3318 mt  695 3318 L
4566 3318 mt 4526 3318 L
 485 3362 mt 
(-2) s
 656 2980 mt  695 2980 L
4566 2980 mt 4526 2980 L
 555 3024 mt 
(0) s
 656 2642 mt  695 2642 L
4566 2642 mt 4526 2642 L
 555 2686 mt 
(2) s
 656 2305 mt  695 2305 L
4566 2305 mt 4526 2305 L
 555 2349 mt 
(4) s
 656 1967 mt  695 1967 L
4566 1967 mt 4526 1967 L
 555 2011 mt 
(6) s
 656 1630 mt  695 1630 L
4566 1630 mt 4526 1630 L
 555 1674 mt 
(8) s
 656 1292 mt  695 1292 L
4566 1292 mt 4526 1292 L
 488 1336 mt 
(10) s
 656  955 mt  695  955 L
4566  955 mt 4526  955 L
 488  999 mt 
(12) s
 656  617 mt  695  617 L
4566  617 mt 4526  617 L
 488  661 mt 
(14) s
 656  280 mt  695  280 L
4566  280 mt 4526  280 L
 488  324 mt 
(16) s
 656  226 mt 
(x 10) s
%%IncludeResource: font Helvetica
/Helvetica /WindowsLatin1Encoding 80 FMSR

 882  152 mt 
(4) s
 656  279 mt 4566  279 L
 656 3318 mt 4566 3318 L
4566 3318 mt 4566  279 L
 656 3318 mt  656  279 L
gs 656 280 3911 3039 rc
/c8 { 0.000000 0.000000 1.000000 sr} bdef
c8
0 3 851 2768 2 MP stroke
70 0 816 2768 2 MP stroke
70 0 816 2771 2 MP stroke
0 6 1047 2555 2 MP stroke
71 0 1011 2555 2 MP stroke
71 0 1011 2561 2 MP stroke
0 11 1242 2342 2 MP stroke
70 0 1207 2342 2 MP stroke
70 0 1207 2353 2 MP stroke
0 15 1438 2129 2 MP stroke
71 0 1402 2129 2 MP stroke
71 0 1402 2144 2 MP stroke
0 20 1633 1916 2 MP stroke
70 0 1598 1916 2 MP stroke
70 0 1598 1936 2 MP stroke
0 26 1829 1702 2 MP stroke
71 0 1793 1702 2 MP stroke
71 0 1793 1728 2 MP stroke
0 32 2024 1489 2 MP stroke
70 0 1989 1489 2 MP stroke
70 0 1989 1521 2 MP stroke
0 36 2220 1277 2 MP stroke
71 0 2184 1277 2 MP stroke
71 0 2184 1313 2 MP stroke
0 42 2415 1065 2 MP stroke
70 0 2380 1065 2 MP stroke
70 0 2380 1107 2 MP stroke
0 47 2611 856 2 MP stroke
71 0 2575 856 2 MP stroke
71 0 2575 903 2 MP stroke
0 53 2806 655 2 MP stroke
70 0 2771 655 2 MP stroke
70 0 2771 708 2 MP stroke
0 56 3001 493 2 MP stroke
71 0 2966 493 2 MP stroke
71 0 2966 549 2 MP stroke
0 58 3197 677 2 MP stroke
70 0 3162 677 2 MP stroke
70 0 3162 735 2 MP stroke
0 57 3393 2757 2 MP stroke
71 0 3357 2757 2 MP stroke
71 0 3357 2814 2 MP stroke
0 58 3588 2951 2 MP stroke
70 0 3553 2951 2 MP stroke
70 0 3553 3009 2 MP stroke
0 58 3783 2951 2 MP stroke
71 0 3748 2951 2 MP stroke
71 0 3748 3009 2 MP stroke
0 58 3979 2951 2 MP stroke
70 0 3944 2951 2 MP stroke
70 0 3944 3009 2 MP stroke
0 58 4175 2951 2 MP stroke
71 0 4139 2951 2 MP stroke
71 0 4139 3009 2 MP stroke
0 58 4370 2951 2 MP stroke
70 0 4335 2951 2 MP stroke
70 0 4335 3009 2 MP stroke
195 0 196 0 196 0 195 0 195 195 196 2079 196 185 195 -160 
195 -199 196 -206 195 -209 196 -210 195 -210 196 -211 195 -211 196 -210 
195 -211 196 -211 851 2769 19 MP stroke
gr

c8
0 sg
%%IncludeResource: font Helvetica
/Helvetica /WindowsLatin1Encoding 120 FMSR

2120 3606 mt 
(Prob. di clorazione) s
 403 1965 mt  -90 rotate
(RACS) s
90 rotate
2213  185 mt 
(RACS: L = 500) s

end %%Color Dict

eplot
%%EndObject

epage
end

showpage

%%Trailer
%%EOF
