%!PS-Adobe-3.0 EPSF-3.0
%%Creator: MATLAB, The MathWorks, Inc. Version 8.0.0.783 (R2012b). Operating System: Microsoft Windows 7.
%%Title: C:\SILVIA\UniversitÓ\Presenti\Modellazione E Simulazioni Numeriche\Relazione\percolazione\codici\grafici\Confronto L\Confronto L.eps
%%CreationDate: 06/13/2015  15:41:19
%%DocumentNeededFonts: Helvetica
%%DocumentProcessColors: Cyan Magenta Yellow Black
%%LanguageLevel: 2
%%Pages: 1
%%BoundingBox:     0   256   596   584
%%EndComments

%%BeginProlog
% MathWorks dictionary
/MathWorks 160 dict begin
% definition operators
/bdef {bind def} bind def
/ldef {load def} bind def
/xdef {exch def} bdef
/xstore {exch store} bdef
% operator abbreviations
/c  /clip ldef
/cc /concat ldef
/cp /closepath ldef
/gr /grestore ldef
/gs /gsave ldef
/mt /moveto ldef
/np /newpath ldef
/cm /currentmatrix ldef
/sm /setmatrix ldef
/rm /rmoveto ldef
/rl /rlineto ldef
/s {show newpath} bdef
/sc {setcmykcolor} bdef
/sr /setrgbcolor ldef
/sg /setgray ldef
/w /setlinewidth ldef
/j /setlinejoin ldef
/cap /setlinecap ldef
/rc {rectclip} bdef
/rf {rectfill} bdef
% page state control
/pgsv () def
/bpage {/pgsv save def} bdef
/epage {pgsv restore} bdef
/bplot /gsave ldef
/eplot {stroke grestore} bdef
% orientation switch
/portraitMode 0 def /landscapeMode 1 def /rotateMode 2 def
% coordinate system mappings
/dpi2point 0 def
% font control
/FontSize 0 def
/FMS {/FontSize xstore findfont [FontSize 0 0 FontSize neg 0 0]
  makefont setfont} bdef
/ISOLatin1Encoding where {pop /WindowsLatin1Encoding 256 array bdef
ISOLatin1Encoding WindowsLatin1Encoding copy pop
/.notdef/.notdef/quotesinglbase/florin/quotedblbase/ellipsis/dagger
/daggerdbl/circumflex/perthousand/Scaron/guilsinglleft/OE/.notdef/.notdef
/.notdef/.notdef/quoteleft/quoteright/quotedblleft/quotedblright/bullet
/endash/emdash/tilde/trademark/scaron/guilsinglright/oe/.notdef/.notdef
/Ydieresis WindowsLatin1Encoding 128 32 getinterval astore pop}
{/WindowsLatin1Encoding StandardEncoding bdef} ifelse
/reencode {exch dup where {pop load} {pop StandardEncoding} ifelse
  exch dup 3 1 roll findfont dup length dict begin
  { 1 index /FID ne {def}{pop pop} ifelse } forall
  /Encoding exch def currentdict end definefont pop} bdef
/isroman {findfont /CharStrings get /Agrave known} bdef
/FMSR {3 1 roll 1 index dup isroman {reencode} {pop pop} ifelse
  exch FMS} bdef
/csm {1 dpi2point div -1 dpi2point div scale neg translate
 dup landscapeMode eq {pop -90 rotate}
  {rotateMode eq {90 rotate} if} ifelse} bdef
% line types: solid, dotted, dashed, dotdash
/SO { [] 0 setdash } bdef
/DO { [.5 dpi2point mul 4 dpi2point mul] 0 setdash } bdef
/DA { [6 dpi2point mul] 0 setdash } bdef
/DD { [.5 dpi2point mul 4 dpi2point mul 6 dpi2point mul 4
  dpi2point mul] 0 setdash } bdef
% macros for lines and objects
/L {lineto stroke} bdef
/MP {3 1 roll moveto 1 sub {rlineto} repeat} bdef
/AP {{rlineto} repeat} bdef
/PDlw -1 def
/W {/PDlw currentlinewidth def setlinewidth} def
/PP {closepath eofill} bdef
/DP {closepath stroke} bdef
/MR {4 -2 roll moveto dup  0 exch rlineto exch 0 rlineto
  neg 0 exch rlineto closepath} bdef
/FR {MR stroke} bdef
/PR {MR fill} bdef
/L1i {{currentfile picstr readhexstring pop} image} bdef
/tMatrix matrix def
/MakeOval {newpath tMatrix currentmatrix pop translate scale
0 0 1 0 360 arc tMatrix setmatrix} bdef
/FO {MakeOval stroke} bdef
/PO {MakeOval fill} bdef
/PD {currentlinewidth 2 div 0 360 arc fill
   PDlw -1 eq not {PDlw w /PDlw -1 def} if} def
/FA {newpath tMatrix currentmatrix pop translate scale
  0 0 1 5 -2 roll arc tMatrix setmatrix stroke} bdef
/PA {newpath tMatrix currentmatrix pop	translate 0 0 moveto scale
  0 0 1 5 -2 roll arc closepath tMatrix setmatrix fill} bdef
/FAn {newpath tMatrix currentmatrix pop translate scale
  0 0 1 5 -2 roll arcn tMatrix setmatrix stroke} bdef
/PAn {newpath tMatrix currentmatrix pop translate 0 0 moveto scale
  0 0 1 5 -2 roll arcn closepath tMatrix setmatrix fill} bdef
/vradius 0 def /hradius 0 def /lry 0 def
/lrx 0 def /uly 0 def /ulx 0 def /rad 0 def
/MRR {/vradius xdef /hradius xdef /lry xdef /lrx xdef /uly xdef
  /ulx xdef newpath tMatrix currentmatrix pop ulx hradius add uly
  vradius add translate hradius vradius scale 0 0 1 180 270 arc 
  tMatrix setmatrix lrx hradius sub uly vradius add translate
  hradius vradius scale 0 0 1 270 360 arc tMatrix setmatrix
  lrx hradius sub lry vradius sub translate hradius vradius scale
  0 0 1 0 90 arc tMatrix setmatrix ulx hradius add lry vradius sub
  translate hradius vradius scale 0 0 1 90 180 arc tMatrix setmatrix
  closepath} bdef
/FRR {MRR stroke } bdef
/PRR {MRR fill } bdef
/MlrRR {/lry xdef /lrx xdef /uly xdef /ulx xdef /rad lry uly sub 2 div def
  newpath tMatrix currentmatrix pop ulx rad add uly rad add translate
  rad rad scale 0 0 1 90 270 arc tMatrix setmatrix lrx rad sub lry rad
  sub translate rad rad scale 0 0 1 270 90 arc tMatrix setmatrix
  closepath} bdef
/FlrRR {MlrRR stroke } bdef
/PlrRR {MlrRR fill } bdef
/MtbRR {/lry xdef /lrx xdef /uly xdef /ulx xdef /rad lrx ulx sub 2 div def
  newpath tMatrix currentmatrix pop ulx rad add uly rad add translate
  rad rad scale 0 0 1 180 360 arc tMatrix setmatrix lrx rad sub lry rad
  sub translate rad rad scale 0 0 1 0 180 arc tMatrix setmatrix
  closepath} bdef
/FtbRR {MtbRR stroke } bdef
/PtbRR {MtbRR fill } bdef
/stri 6 array def /dtri 6 array def
/smat 6 array def /dmat 6 array def
/tmat1 6 array def /tmat2 6 array def /dif 3 array def
/asub {/ind2 exch def /ind1 exch def dup dup
  ind1 get exch ind2 get sub exch } bdef
/tri_to_matrix {
  2 0 asub 3 1 asub 4 0 asub 5 1 asub
  dup 0 get exch 1 get 7 -1 roll astore } bdef
/compute_transform {
  dmat dtri tri_to_matrix tmat1 invertmatrix 
  smat stri tri_to_matrix tmat2 concatmatrix } bdef
/ds {stri astore pop} bdef
/dt {dtri astore pop} bdef
/db {2 copy /cols xdef /rows xdef mul dup 3 mul string
  currentfile 
  3 index 0 eq {/ASCIIHexDecode filter}
  {/ASCII85Decode filter 3 index 2 eq {/RunLengthDecode filter} if }
  ifelse exch readstring pop
  dup 0 3 index getinterval /rbmap xdef
  dup 2 index dup getinterval /gbmap xdef
  1 index dup 2 mul exch getinterval /bbmap xdef pop pop}bdef
/it {gs np dtri aload pop moveto lineto lineto cp c
  cols rows 8 compute_transform 
  rbmap gbmap bbmap true 3 colorimage gr}bdef
/il {newpath moveto lineto stroke}bdef
currentdict end def
%%EndProlog

%%BeginSetup
MathWorks begin

0 cap

end
%%EndSetup

%%Page: 1 1
%%BeginPageSetup
%%PageBoundingBox:     0   256   596   584
MathWorks begin
bpage
%%EndPageSetup

%%BeginObject: obj1
bplot

/dpi2point 12 def
portraitMode 0000 7008 csm

    0     0  7152  3926 rc
86 dict begin %Colortable dictionary
/c0 { 0.000000 0.000000 0.000000 sr} bdef
/c1 { 1.000000 1.000000 1.000000 sr} bdef
/c2 { 0.900000 0.000000 0.000000 sr} bdef
/c3 { 0.000000 0.820000 0.000000 sr} bdef
/c4 { 0.000000 0.000000 0.800000 sr} bdef
/c5 { 0.910000 0.820000 0.320000 sr} bdef
/c6 { 1.000000 0.260000 0.820000 sr} bdef
/c7 { 0.000000 0.820000 0.820000 sr} bdef
c0
1 j
1 sg
   0    0 7153 3927 rf
6 w
0 3199 6188 0 0 -3199 640 3503 4 MP
PP
-6188 0 0 3199 6188 0 0 -3199 640 3503 5 MP stroke
4 w
DO
0 sg
 640 3503 mt  640  304 L
 640  304 mt  640  304 L
1258 3503 mt 1258  304 L
1258  304 mt 1258  304 L
1877 3503 mt 1877  304 L
1877  304 mt 1877  304 L
2496 3503 mt 2496  304 L
2496  304 mt 2496  304 L
3115 3503 mt 3115  304 L
3115  304 mt 3115  304 L
3734 3503 mt 3734  304 L
3734  304 mt 3734  304 L
4352 3503 mt 4352  304 L
4352  304 mt 4352  304 L
4971 3503 mt 4971  304 L
4971  304 mt 4971  304 L
5590 3503 mt 5590  304 L
5590  304 mt 5590  304 L
6209 3503 mt 6209  304 L
6209  304 mt 6209  304 L
6828 3503 mt 6828  304 L
6828  304 mt 6828  304 L
 640 3503 mt 6828 3503 L
6828 3503 mt 6828 3503 L
 640 2969 mt 6828 2969 L
6828 2969 mt 6828 2969 L
 640 2436 mt 6828 2436 L
6828 2436 mt 6828 2436 L
 640 1903 mt 6828 1903 L
6828 1903 mt 6828 1903 L
 640 1370 mt 6828 1370 L
6828 1370 mt 6828 1370 L
 640  837 mt 6828  837 L
6828  837 mt 6828  837 L
 640  304 mt 6828  304 L
6828  304 mt 6828  304 L
SO
6 w
 640  304 mt 6828  304 L
 640 3503 mt 6828 3503 L
6828 3503 mt 6828  304 L
 640 3503 mt  640  304 L
 640 3503 mt 6828 3503 L
 640 3503 mt  640  304 L
 640 3503 mt  640 3441 L
 640  304 mt  640  365 L
%%IncludeResource: font Helvetica
/Helvetica /WindowsLatin1Encoding 120 FMSR

 607 3648 mt 
(0) s
1258 3503 mt 1258 3441 L
1258  304 mt 1258  365 L
1158 3648 mt 
(100) s
1877 3503 mt 1877 3441 L
1877  304 mt 1877  365 L
1777 3648 mt 
(200) s
2496 3503 mt 2496 3441 L
2496  304 mt 2496  365 L
2396 3648 mt 
(300) s
3115 3503 mt 3115 3441 L
3115  304 mt 3115  365 L
3015 3648 mt 
(400) s
3734 3503 mt 3734 3441 L
3734  304 mt 3734  365 L
3634 3648 mt 
(500) s
4352 3503 mt 4352 3441 L
4352  304 mt 4352  365 L
4252 3648 mt 
(600) s
4971 3503 mt 4971 3441 L
4971  304 mt 4971  365 L
4871 3648 mt 
(700) s
5590 3503 mt 5590 3441 L
5590  304 mt 5590  365 L
5490 3648 mt 
(800) s
6209 3503 mt 6209 3441 L
6209  304 mt 6209  365 L
6109 3648 mt 
(900) s
6828 3503 mt 6828 3441 L
6828  304 mt 6828  365 L
6695 3648 mt 
(1000) s
 640 3503 mt  701 3503 L
6828 3503 mt 6766 3503 L
 539 3547 mt 
(0) s
 640 2969 mt  701 2969 L
6828 2969 mt 6766 2969 L
 339 3013 mt 
(1000) s
 640 2436 mt  701 2436 L
6828 2436 mt 6766 2436 L
 339 2480 mt 
(2000) s
 640 1903 mt  701 1903 L
6828 1903 mt 6766 1903 L
 339 1947 mt 
(3000) s
 640 1370 mt  701 1370 L
6828 1370 mt 6766 1370 L
 339 1414 mt 
(4000) s
 640  837 mt  701  837 L
6828  837 mt 6766  837 L
 339  881 mt 
(5000) s
 640  304 mt  701  304 L
6828  304 mt 6766  304 L
 339  348 mt 
(6000) s
 640  304 mt 6828  304 L
 640 3503 mt 6828 3503 L
6828 3503 mt 6828  304 L
 640 3503 mt  640  304 L
gs 640 304 6189 3200 rc
/c8 { 0.000000 0.000000 1.000000 sr} bdef
c8
646 3502 PD
61 0 640 3502 2 MP stroke
61 0 640 3502 2 MP stroke
0 3 1574 3499 2 MP stroke
112 0 1518 3499 2 MP stroke
112 0 1518 3502 2 MP stroke
0 34 2502 3467 2 MP stroke
112 0 2446 3467 2 MP stroke
112 0 2446 3501 2 MP stroke
0 96 3430 3389 2 MP stroke
111 0 3375 3389 2 MP stroke
111 0 3375 3485 2 MP stroke
0 357 4358 3084 2 MP stroke
111 0 4303 3084 2 MP stroke
111 0 4303 3441 2 MP stroke
0 1025 5287 2259 2 MP stroke
111 0 5231 2259 2 MP stroke
111 0 5231 3284 2 MP stroke
0 2461 6215 389 2 MP stroke
112 0 6159 389 2 MP stroke
112 0 6159 2850 2 MP stroke
928 -1153 929 -490 928 -175 928 -47 928 -17 928 -1 646 3502 7 MP stroke
/c9 { 0.000000 1.000000 0.000000 sr} bdef
c9
646 3502 PD
61 0 640 3502 2 MP stroke
61 0 640 3502 2 MP stroke
1574 3502 PD
112 0 1518 3502 2 MP stroke
112 0 1518 3502 2 MP stroke
0 5 2502 3497 2 MP stroke
112 0 2446 3497 2 MP stroke
112 0 2446 3502 2 MP stroke
0 23 3430 3477 2 MP stroke
111 0 3375 3477 2 MP stroke
111 0 3375 3500 2 MP stroke
0 58 4358 3432 2 MP stroke
111 0 4303 3432 2 MP stroke
111 0 4303 3490 2 MP stroke
0 119 5287 3347 2 MP stroke
111 0 5231 3347 2 MP stroke
111 0 5231 3466 2 MP stroke
0 213 6215 3206 2 MP stroke
112 0 6159 3206 2 MP stroke
112 0 6159 3419 2 MP stroke
928 -94 929 -55 928 -27 928 -11 928 -3 928 0 646 3502 7 MP stroke
gr

c9
0 sg
3029 3791 mt 
(dimensione del reticolo \(L\)) s
 257 2071 mt  -90 rotate
(tempo) s
90 rotate
1693  209 mt 
(Confronto algortimi: probabilit\340 fissa 0.6, numero di tenta\
tivi per L fissato 100) s
 588 3574 mt 
( ) s
6777  374 mt 
( ) s
1 sg
0 378 2382 0 0 -378 865 994 4 MP
PP
-2382 0 0 378 2382 0 0 -378 865 994 5 MP stroke
4 w
DO
SO
6 w
0 sg
 865  616 mt 3247  616 L
 865  994 mt 3247  994 L
3247  994 mt 3247  616 L
 865  994 mt  865  616 L
 865  994 mt 3247  994 L
 865  994 mt  865  616 L
 865  616 mt 3247  616 L
 865  994 mt 3247  994 L
3247  994 mt 3247  616 L
 865  994 mt  865  616 L
1347  763 mt 
(tempo algoritmo etichetta) s
gs 865 616 2383 379 rc
c8
370 0 939 721 2 MP stroke
gr

c8
0 sg
1347  932 mt 
(tempo algoritmo hoshen-kopelman) s
gs 865 616 2383 379 rc
c9
370 0 939 889 2 MP stroke
gr

c9

end %%Color Dict

eplot
%%EndObject

epage
end

showpage

%%Trailer
%%EOF
