%!PS-Adobe-2.0 EPSF-1.2
%%Creator: MATLAB, The Mathworks, Inc. Version 7.9.0.529 (R2009b). Operating System: Linux 3.11.0-26-generic #45-Ubuntu SMP Tue Jul 15 04:02:06 UTC 2014 x86_64.
%%Title: grafici/Confronto L - P=0.6 PS=150 CAMP=100.eps
%%CreationDate: 06/13/2015  03:53:40
%%DocumentNeededFonts: Helvetica
%%DocumentProcessColors: Cyan Magenta Yellow Black
%%Pages: 1
%%BoundingBox:    49   199   554   602
%%EndComments

%%BeginProlog
% MathWorks dictionary
/MathWorks 160 dict begin
% definition operators
/bdef {bind def} bind def
/ldef {load def} bind def
/xdef {exch def} bdef
/xstore {exch store} bdef
% operator abbreviations
/c  /clip ldef
/cc /concat ldef
/cp /closepath ldef
/gr /grestore ldef
/gs /gsave ldef
/mt /moveto ldef
/np /newpath ldef
/cm /currentmatrix ldef
/sm /setmatrix ldef
/rm /rmoveto ldef
/rl /rlineto ldef
/s {show newpath} bdef
/sc {setcmykcolor} bdef
/sr /setrgbcolor ldef
/sg /setgray ldef
/w /setlinewidth ldef
/j /setlinejoin ldef
/cap /setlinecap ldef
/rc {rectclip} bdef
/rf {rectfill} bdef
% page state control
/pgsv () def
/bpage {/pgsv save def} bdef
/epage {pgsv restore} bdef
/bplot /gsave ldef
/eplot {stroke grestore} bdef
% orientation switch
/portraitMode 0 def /landscapeMode 1 def /rotateMode 2 def
% coordinate system mappings
/dpi2point 0 def
% font control
/FontSize 0 def
/FMS {/FontSize xstore findfont [FontSize 0 0 FontSize neg 0 0]
  makefont setfont} bdef
/reencode {exch dup where {pop load} {pop StandardEncoding} ifelse
  exch dup 3 1 roll findfont dup length dict begin
  { 1 index /FID ne {def}{pop pop} ifelse } forall
  /Encoding exch def currentdict end definefont pop} bdef
/isroman {findfont /CharStrings get /Agrave known} bdef
/FMSR {3 1 roll 1 index dup isroman {reencode} {pop pop} ifelse
  exch FMS} bdef
/csm {1 dpi2point div -1 dpi2point div scale neg translate
 dup landscapeMode eq {pop -90 rotate}
  {rotateMode eq {90 rotate} if} ifelse} bdef
% line types: solid, dotted, dashed, dotdash
/SO { [] 0 setdash } bdef
/DO { [.5 dpi2point mul 4 dpi2point mul] 0 setdash } bdef
/DA { [6 dpi2point mul] 0 setdash } bdef
/DD { [.5 dpi2point mul 4 dpi2point mul 6 dpi2point mul 4
  dpi2point mul] 0 setdash } bdef
% macros for lines and objects
/L {lineto stroke} bdef
/MP {3 1 roll moveto 1 sub {rlineto} repeat} bdef
/AP {{rlineto} repeat} bdef
/PDlw -1 def
/W {/PDlw currentlinewidth def setlinewidth} def
/PP {closepath eofill} bdef
/DP {closepath stroke} bdef
/MR {4 -2 roll moveto dup  0 exch rlineto exch 0 rlineto
  neg 0 exch rlineto closepath} bdef
/FR {MR stroke} bdef
/PR {MR fill} bdef
/L1i {{currentfile picstr readhexstring pop} image} bdef
/tMatrix matrix def
/MakeOval {newpath tMatrix currentmatrix pop translate scale
0 0 1 0 360 arc tMatrix setmatrix} bdef
/FO {MakeOval stroke} bdef
/PO {MakeOval fill} bdef
/PD {currentlinewidth 2 div 0 360 arc fill
   PDlw -1 eq not {PDlw w /PDlw -1 def} if} def
/FA {newpath tMatrix currentmatrix pop translate scale
  0 0 1 5 -2 roll arc tMatrix setmatrix stroke} bdef
/PA {newpath tMatrix currentmatrix pop	translate 0 0 moveto scale
  0 0 1 5 -2 roll arc closepath tMatrix setmatrix fill} bdef
/FAn {newpath tMatrix currentmatrix pop translate scale
  0 0 1 5 -2 roll arcn tMatrix setmatrix stroke} bdef
/PAn {newpath tMatrix currentmatrix pop translate 0 0 moveto scale
  0 0 1 5 -2 roll arcn closepath tMatrix setmatrix fill} bdef
/vradius 0 def /hradius 0 def /lry 0 def
/lrx 0 def /uly 0 def /ulx 0 def /rad 0 def
/MRR {/vradius xdef /hradius xdef /lry xdef /lrx xdef /uly xdef
  /ulx xdef newpath tMatrix currentmatrix pop ulx hradius add uly
  vradius add translate hradius vradius scale 0 0 1 180 270 arc 
  tMatrix setmatrix lrx hradius sub uly vradius add translate
  hradius vradius scale 0 0 1 270 360 arc tMatrix setmatrix
  lrx hradius sub lry vradius sub translate hradius vradius scale
  0 0 1 0 90 arc tMatrix setmatrix ulx hradius add lry vradius sub
  translate hradius vradius scale 0 0 1 90 180 arc tMatrix setmatrix
  closepath} bdef
/FRR {MRR stroke } bdef
/PRR {MRR fill } bdef
/MlrRR {/lry xdef /lrx xdef /uly xdef /ulx xdef /rad lry uly sub 2 div def
  newpath tMatrix currentmatrix pop ulx rad add uly rad add translate
  rad rad scale 0 0 1 90 270 arc tMatrix setmatrix lrx rad sub lry rad
  sub translate rad rad scale 0 0 1 270 90 arc tMatrix setmatrix
  closepath} bdef
/FlrRR {MlrRR stroke } bdef
/PlrRR {MlrRR fill } bdef
/MtbRR {/lry xdef /lrx xdef /uly xdef /ulx xdef /rad lrx ulx sub 2 div def
  newpath tMatrix currentmatrix pop ulx rad add uly rad add translate
  rad rad scale 0 0 1 180 360 arc tMatrix setmatrix lrx rad sub lry rad
  sub translate rad rad scale 0 0 1 0 180 arc tMatrix setmatrix
  closepath} bdef
/FtbRR {MtbRR stroke } bdef
/PtbRR {MtbRR fill } bdef
/stri 6 array def /dtri 6 array def
/smat 6 array def /dmat 6 array def
/tmat1 6 array def /tmat2 6 array def /dif 3 array def
/asub {/ind2 exch def /ind1 exch def dup dup
  ind1 get exch ind2 get sub exch } bdef
/tri_to_matrix {
  2 0 asub 3 1 asub 4 0 asub 5 1 asub
  dup 0 get exch 1 get 7 -1 roll astore } bdef
/compute_transform {
  dmat dtri tri_to_matrix tmat1 invertmatrix 
  smat stri tri_to_matrix tmat2 concatmatrix } bdef
/ds {stri astore pop} bdef
/dt {dtri astore pop} bdef
/db {2 copy /cols xdef /rows xdef mul dup string
  currentfile exch readhexstring pop
  /bmap xdef pop pop} bdef
/it {gs np dtri aload pop moveto lineto lineto cp c
  cols rows 8 compute_transform 
  {bmap} image gr}bdef
/il {newpath moveto lineto stroke}bdef
currentdict end def
%%EndProlog

%%BeginSetup
MathWorks begin

0 cap

end
%%EndSetup

%%Page: 1 1
%%BeginPageSetup
%%PageBoundingBox:    49   199   554   602
MathWorks begin
bpage
%%EndPageSetup

%%BeginObject: obj1
bplot

/dpi2point 12 def
portraitMode 0216 7344 csm

  380   110  6057  4845 MR c np
85 dict begin %Colortable dictionary
/c0 { 0.000000 0.000000 0.000000 sr} bdef
/c1 { 1.000000 1.000000 1.000000 sr} bdef
/c2 { 0.900000 0.000000 0.000000 sr} bdef
/c3 { 0.000000 0.820000 0.000000 sr} bdef
/c4 { 0.000000 0.000000 0.800000 sr} bdef
/c5 { 0.910000 0.820000 0.320000 sr} bdef
/c6 { 1.000000 0.260000 0.820000 sr} bdef
/c7 { 0.000000 0.820000 0.820000 sr} bdef
c0
1 j
1 sg
   0    0 6913 5186 PR
6 w
0 4226 5356 0 0 -4226 899 4615 4 MP
PP
-5356 0 0 4226 5356 0 0 -4226 899 4615 5 MP stroke
4 w
DO
0 sg
 899 4615 mt  899  389 L
 899  389 mt  899  389 L
1791 4615 mt 1791  389 L
1791  389 mt 1791  389 L
2684 4615 mt 2684  389 L
2684  389 mt 2684  389 L
3577 4615 mt 3577  389 L
3577  389 mt 3577  389 L
4469 4615 mt 4469  389 L
4469  389 mt 4469  389 L
5362 4615 mt 5362  389 L
5362  389 mt 5362  389 L
6255 4615 mt 6255  389 L
6255  389 mt 6255  389 L
 899 4615 mt 6255 4615 L
6255 4615 mt 6255 4615 L
 899 3910 mt 6255 3910 L
6255 3910 mt 6255 3910 L
 899 3206 mt 6255 3206 L
6255 3206 mt 6255 3206 L
 899 2502 mt 6255 2502 L
6255 2502 mt 6255 2502 L
 899 1797 mt 6255 1797 L
6255 1797 mt 6255 1797 L
 899 1093 mt 6255 1093 L
6255 1093 mt 6255 1093 L
 899  389 mt 6255  389 L
6255  389 mt 6255  389 L
SO
6 w
 899 4615 mt 6255 4615 L
 899  389 mt 6255  389 L
 899 4615 mt  899  389 L
6255 4615 mt 6255  389 L
 899 4615 mt 6255 4615 L
 899 4615 mt  899  389 L
 899 4615 mt  899 4561 L
 899  389 mt  899  442 L
%%IncludeResource: font Helvetica
/Helvetica /ISOLatin1Encoding 120 FMSR

 729 4760 mt 
(-200) s
1791 4615 mt 1791 4561 L
1791  389 mt 1791  442 L
1758 4760 mt 
(0) s
2684 4615 mt 2684 4561 L
2684  389 mt 2684  442 L
2584 4760 mt 
(200) s
3577 4615 mt 3577 4561 L
3577  389 mt 3577  442 L
3477 4760 mt 
(400) s
4469 4615 mt 4469 4561 L
4469  389 mt 4469  442 L
4369 4760 mt 
(600) s
5362 4615 mt 5362 4561 L
5362  389 mt 5362  442 L
5262 4760 mt 
(800) s
6255 4615 mt 6255 4561 L
6255  389 mt 6255  442 L
6122 4760 mt 
(1000) s
 899 4615 mt  952 4615 L
6255 4615 mt 6201 4615 L
 798 4659 mt 
(0) s
 899 3910 mt  952 3910 L
6255 3910 mt 6201 3910 L
 598 3954 mt 
(1000) s
 899 3206 mt  952 3206 L
6255 3206 mt 6201 3206 L
 598 3250 mt 
(2000) s
 899 2502 mt  952 2502 L
6255 2502 mt 6201 2502 L
 598 2546 mt 
(3000) s
 899 1797 mt  952 1797 L
6255 1797 mt 6201 1797 L
 598 1841 mt 
(4000) s
 899 1093 mt  952 1093 L
6255 1093 mt 6201 1093 L
 598 1137 mt 
(5000) s
 899  389 mt  952  389 L
6255  389 mt 6201  389 L
 598  433 mt 
(6000) s
 899 4615 mt 6255 4615 L
 899  389 mt 6255  389 L
 899 4615 mt  899  389 L
6255 4615 mt 6255  389 L
gs 899 389 5357 4227 MR c np
1796 4614 PD
81 0 1755 4614 2 MP stroke
81 0 1755 4614 2 MP stroke
0 4 2465 4610 2 MP stroke
80 0 2425 4610 2 MP stroke
80 0 2425 4614 2 MP stroke
0 44 3135 4568 2 MP stroke
81 0 3094 4568 2 MP stroke
81 0 3094 4612 2 MP stroke
0 127 3804 4465 2 MP stroke
80 0 3764 4465 2 MP stroke
80 0 3764 4592 2 MP stroke
0 473 4474 4061 2 MP stroke
81 0 4433 4061 2 MP stroke
81 0 4433 4534 2 MP stroke
0 1353 5143 2972 2 MP stroke
80 0 5103 2972 2 MP stroke
80 0 5103 4325 2 MP stroke
0 3252 5813 501 2 MP stroke
81 0 5772 501 2 MP stroke
81 0 5772 3753 2 MP stroke
670 -1522 669 -648 670 -231 669 -62 670 -22 669 -2 1796 4614 7 MP stroke
1796 4614 PD
81 0 1755 4614 2 MP stroke
81 0 1755 4614 2 MP stroke
0 1 2465 4613 2 MP stroke
80 0 2425 4613 2 MP stroke
80 0 2425 4614 2 MP stroke
0 7 3135 4607 2 MP stroke
81 0 3094 4607 2 MP stroke
81 0 3094 4614 2 MP stroke
0 30 3804 4581 2 MP stroke
80 0 3764 4581 2 MP stroke
80 0 3764 4611 2 MP stroke
0 76 4474 4522 2 MP stroke
81 0 4433 4522 2 MP stroke
81 0 4433 4598 2 MP stroke
0 157 5143 4409 2 MP stroke
80 0 5103 4409 2 MP stroke
80 0 5103 4566 2 MP stroke
0 282 5813 4222 2 MP stroke
81 0 5772 4222 2 MP stroke
81 0 5772 4504 2 MP stroke
670 -124 669 -73 670 -36 669 -15 670 -3 669 0 1796 4614 7 MP stroke
gr

3145 4903 mt 
(p. di colorazione) s
 516 2670 mt  -90 rotate
(tempo) s
90 rotate
2123  294 mt 
(Confronto L etichetta e HK: P=0.6 PS=150 CAMP=100) s
 869 4671 mt 
( ) s
6226  444 mt 
( ) s
1 sg
0 381 1052 0 0 -381 1052 1009 4 MP
PP
-1052 0 0 381 1052 0 0 -381 1052 1009 5 MP stroke
4 w
DO
SO
6 w
0 sg
1052 1009 mt 2104 1009 L
1052  628 mt 2104  628 L
1052 1009 mt 1052  628 L
2104 1009 mt 2104  628 L
1052 1009 mt 2104 1009 L
1052 1009 mt 1052  628 L
1052 1009 mt 2104 1009 L
1052  628 mt 2104  628 L
1052 1009 mt 1052  628 L
2104 1009 mt 2104  628 L
1521  776 mt 
(t. etichetta) s
gs 1052 628 1053 382 MR c np
360 0 1124 733 2 MP stroke
gr

1521  946 mt 
(t. HK) s
gs 1052 628 1053 382 MR c np
360 0 1124 903 2 MP stroke
gr


end %%Color Dict

eplot
%%EndObject

epage
end

showpage

%%Trailer
%%EOF
