%!PS-Adobe-3.0 EPSF-3.0
%%Creator: MATLAB, The MathWorks, Inc. Version 8.0.0.783 (R2012b). Operating System: Microsoft Windows 7.
%%Title: C:\SILVIA\UniversitÓ\Presenti\Modellazione E Simulazioni Numeriche\Relazione\percolazione\codici\nuovi grafici\P\P50.eps
%%CreationDate: 06/16/2015  13:46:46
%%DocumentNeededFonts: Helvetica
%%DocumentProcessColors: Cyan Magenta Yellow Black
%%LanguageLevel: 2
%%Pages: 1
%%BoundingBox:   105   278   489   562
%%EndComments

%%BeginProlog
% MathWorks dictionary
/MathWorks 160 dict begin
% definition operators
/bdef {bind def} bind def
/ldef {load def} bind def
/xdef {exch def} bdef
/xstore {exch store} bdef
% operator abbreviations
/c  /clip ldef
/cc /concat ldef
/cp /closepath ldef
/gr /grestore ldef
/gs /gsave ldef
/mt /moveto ldef
/np /newpath ldef
/cm /currentmatrix ldef
/sm /setmatrix ldef
/rm /rmoveto ldef
/rl /rlineto ldef
/s {show newpath} bdef
/sc {setcmykcolor} bdef
/sr /setrgbcolor ldef
/sg /setgray ldef
/w /setlinewidth ldef
/j /setlinejoin ldef
/cap /setlinecap ldef
/rc {rectclip} bdef
/rf {rectfill} bdef
% page state control
/pgsv () def
/bpage {/pgsv save def} bdef
/epage {pgsv restore} bdef
/bplot /gsave ldef
/eplot {stroke grestore} bdef
% orientation switch
/portraitMode 0 def /landscapeMode 1 def /rotateMode 2 def
% coordinate system mappings
/dpi2point 0 def
% font control
/FontSize 0 def
/FMS {/FontSize xstore findfont [FontSize 0 0 FontSize neg 0 0]
  makefont setfont} bdef
/ISOLatin1Encoding where {pop /WindowsLatin1Encoding 256 array bdef
ISOLatin1Encoding WindowsLatin1Encoding copy pop
/.notdef/.notdef/quotesinglbase/florin/quotedblbase/ellipsis/dagger
/daggerdbl/circumflex/perthousand/Scaron/guilsinglleft/OE/.notdef/.notdef
/.notdef/.notdef/quoteleft/quoteright/quotedblleft/quotedblright/bullet
/endash/emdash/tilde/trademark/scaron/guilsinglright/oe/.notdef/.notdef
/Ydieresis WindowsLatin1Encoding 128 32 getinterval astore pop}
{/WindowsLatin1Encoding StandardEncoding bdef} ifelse
/reencode {exch dup where {pop load} {pop StandardEncoding} ifelse
  exch dup 3 1 roll findfont dup length dict begin
  { 1 index /FID ne {def}{pop pop} ifelse } forall
  /Encoding exch def currentdict end definefont pop} bdef
/isroman {findfont /CharStrings get /Agrave known} bdef
/FMSR {3 1 roll 1 index dup isroman {reencode} {pop pop} ifelse
  exch FMS} bdef
/csm {1 dpi2point div -1 dpi2point div scale neg translate
 dup landscapeMode eq {pop -90 rotate}
  {rotateMode eq {90 rotate} if} ifelse} bdef
% line types: solid, dotted, dashed, dotdash
/SO { [] 0 setdash } bdef
/DO { [.5 dpi2point mul 4 dpi2point mul] 0 setdash } bdef
/DA { [6 dpi2point mul] 0 setdash } bdef
/DD { [.5 dpi2point mul 4 dpi2point mul 6 dpi2point mul 4
  dpi2point mul] 0 setdash } bdef
% macros for lines and objects
/L {lineto stroke} bdef
/MP {3 1 roll moveto 1 sub {rlineto} repeat} bdef
/AP {{rlineto} repeat} bdef
/PDlw -1 def
/W {/PDlw currentlinewidth def setlinewidth} def
/PP {closepath eofill} bdef
/DP {closepath stroke} bdef
/MR {4 -2 roll moveto dup  0 exch rlineto exch 0 rlineto
  neg 0 exch rlineto closepath} bdef
/FR {MR stroke} bdef
/PR {MR fill} bdef
/L1i {{currentfile picstr readhexstring pop} image} bdef
/tMatrix matrix def
/MakeOval {newpath tMatrix currentmatrix pop translate scale
0 0 1 0 360 arc tMatrix setmatrix} bdef
/FO {MakeOval stroke} bdef
/PO {MakeOval fill} bdef
/PD {currentlinewidth 2 div 0 360 arc fill
   PDlw -1 eq not {PDlw w /PDlw -1 def} if} def
/FA {newpath tMatrix currentmatrix pop translate scale
  0 0 1 5 -2 roll arc tMatrix setmatrix stroke} bdef
/PA {newpath tMatrix currentmatrix pop	translate 0 0 moveto scale
  0 0 1 5 -2 roll arc closepath tMatrix setmatrix fill} bdef
/FAn {newpath tMatrix currentmatrix pop translate scale
  0 0 1 5 -2 roll arcn tMatrix setmatrix stroke} bdef
/PAn {newpath tMatrix currentmatrix pop translate 0 0 moveto scale
  0 0 1 5 -2 roll arcn closepath tMatrix setmatrix fill} bdef
/vradius 0 def /hradius 0 def /lry 0 def
/lrx 0 def /uly 0 def /ulx 0 def /rad 0 def
/MRR {/vradius xdef /hradius xdef /lry xdef /lrx xdef /uly xdef
  /ulx xdef newpath tMatrix currentmatrix pop ulx hradius add uly
  vradius add translate hradius vradius scale 0 0 1 180 270 arc 
  tMatrix setmatrix lrx hradius sub uly vradius add translate
  hradius vradius scale 0 0 1 270 360 arc tMatrix setmatrix
  lrx hradius sub lry vradius sub translate hradius vradius scale
  0 0 1 0 90 arc tMatrix setmatrix ulx hradius add lry vradius sub
  translate hradius vradius scale 0 0 1 90 180 arc tMatrix setmatrix
  closepath} bdef
/FRR {MRR stroke } bdef
/PRR {MRR fill } bdef
/MlrRR {/lry xdef /lrx xdef /uly xdef /ulx xdef /rad lry uly sub 2 div def
  newpath tMatrix currentmatrix pop ulx rad add uly rad add translate
  rad rad scale 0 0 1 90 270 arc tMatrix setmatrix lrx rad sub lry rad
  sub translate rad rad scale 0 0 1 270 90 arc tMatrix setmatrix
  closepath} bdef
/FlrRR {MlrRR stroke } bdef
/PlrRR {MlrRR fill } bdef
/MtbRR {/lry xdef /lrx xdef /uly xdef /ulx xdef /rad lrx ulx sub 2 div def
  newpath tMatrix currentmatrix pop ulx rad add uly rad add translate
  rad rad scale 0 0 1 180 360 arc tMatrix setmatrix lrx rad sub lry rad
  sub translate rad rad scale 0 0 1 0 180 arc tMatrix setmatrix
  closepath} bdef
/FtbRR {MtbRR stroke } bdef
/PtbRR {MtbRR fill } bdef
/stri 6 array def /dtri 6 array def
/smat 6 array def /dmat 6 array def
/tmat1 6 array def /tmat2 6 array def /dif 3 array def
/asub {/ind2 exch def /ind1 exch def dup dup
  ind1 get exch ind2 get sub exch } bdef
/tri_to_matrix {
  2 0 asub 3 1 asub 4 0 asub 5 1 asub
  dup 0 get exch 1 get 7 -1 roll astore } bdef
/compute_transform {
  dmat dtri tri_to_matrix tmat1 invertmatrix 
  smat stri tri_to_matrix tmat2 concatmatrix } bdef
/ds {stri astore pop} bdef
/dt {dtri astore pop} bdef
/db {2 copy /cols xdef /rows xdef mul dup 3 mul string
  currentfile 
  3 index 0 eq {/ASCIIHexDecode filter}
  {/ASCII85Decode filter 3 index 2 eq {/RunLengthDecode filter} if }
  ifelse exch readstring pop
  dup 0 3 index getinterval /rbmap xdef
  dup 2 index dup getinterval /gbmap xdef
  1 index dup 2 mul exch getinterval /bbmap xdef pop pop}bdef
/it {gs np dtri aload pop moveto lineto lineto cp c
  cols rows 8 compute_transform 
  rbmap gbmap bbmap true 3 colorimage gr}bdef
/il {newpath moveto lineto stroke}bdef
currentdict end def
%%EndProlog

%%BeginSetup
MathWorks begin

0 cap

end
%%EndSetup

%%Page: 1 1
%%BeginPageSetup
%%PageBoundingBox:   105   278   489   562
MathWorks begin
bpage
%%EndPageSetup

%%BeginObject: obj1
bplot

/dpi2point 12 def
portraitMode 1260 6744 csm

    0     0  4612  3404 rc
86 dict begin %Colortable dictionary
/c0 { 0.000000 0.000000 0.000000 sr} bdef
/c1 { 1.000000 1.000000 1.000000 sr} bdef
/c2 { 0.900000 0.000000 0.000000 sr} bdef
/c3 { 0.000000 0.820000 0.000000 sr} bdef
/c4 { 0.000000 0.000000 0.800000 sr} bdef
/c5 { 0.910000 0.820000 0.320000 sr} bdef
/c6 { 1.000000 0.260000 0.820000 sr} bdef
/c7 { 0.000000 0.820000 0.820000 sr} bdef
c0
1 j
1 sg
   0    0 4613 3405 rf
6 w
0 2775 3574 0 0 -2775 600 3030 4 MP
PP
-3574 0 0 2775 3574 0 0 -2775 600 3030 5 MP stroke
4 w
DO
0 sg
 600 3030 mt  600  255 L
 600  255 mt  600  255 L
1314 3030 mt 1314  255 L
1314  255 mt 1314  255 L
2029 3030 mt 2029  255 L
2029  255 mt 2029  255 L
2744 3030 mt 2744  255 L
2744  255 mt 2744  255 L
3459 3030 mt 3459  255 L
3459  255 mt 3459  255 L
4174 3030 mt 4174  255 L
4174  255 mt 4174  255 L
 600 3030 mt 4174 3030 L
4174 3030 mt 4174 3030 L
 600 2633 mt 4174 2633 L
4174 2633 mt 4174 2633 L
 600 2237 mt 4174 2237 L
4174 2237 mt 4174 2237 L
 600 1840 mt 4174 1840 L
4174 1840 mt 4174 1840 L
 600 1444 mt 4174 1444 L
4174 1444 mt 4174 1444 L
 600 1047 mt 4174 1047 L
4174 1047 mt 4174 1047 L
 600  651 mt 4174  651 L
4174  651 mt 4174  651 L
 600  255 mt 4174  255 L
4174  255 mt 4174  255 L
SO
6 w
 600 3030 mt 4174 3030 L
 600 3030 mt  600  255 L
 600 3030 mt  600 2994 L
%%IncludeResource: font Helvetica
/Helvetica /WindowsLatin1Encoding 120 FMSR

 567 3175 mt 
(0) s
1314 3030 mt 1314 2994 L
1231 3175 mt 
(0.2) s
2029 3030 mt 2029 2994 L
1946 3175 mt 
(0.4) s
2744 3030 mt 2744 2994 L
2661 3175 mt 
(0.6) s
3459 3030 mt 3459 2994 L
3376 3175 mt 
(0.8) s
4174 3030 mt 4174 2994 L
4141 3175 mt 
(1) s
 600 3030 mt  635 3030 L
 499 3074 mt 
(0) s
 600 2633 mt  635 2633 L
 399 2677 mt 
(0.2) s
 600 2237 mt  635 2237 L
 399 2281 mt 
(0.4) s
 600 1840 mt  635 1840 L
 399 1884 mt 
(0.6) s
 600 1444 mt  635 1444 L
 399 1488 mt 
(0.8) s
 600 1047 mt  635 1047 L
 499 1091 mt 
(1) s
 600  651 mt  635  651 L
 399  695 mt 
(1.2) s
 600  255 mt  635  255 L
 399  299 mt 
(1.4) s
gs 600 255 3575 2776 rc
/c8 { 1.000000 0.000000 0.000000 sr} bdef
c8
957 3026 PD
57 0 928 3026 2 MP stroke
57 0 928 3026 2 MP stroke
1136 3024 PD
57 0 1107 3024 2 MP stroke
57 0 1107 3024 2 MP stroke
1314 3022 PD
57 0 1286 3022 2 MP stroke
57 0 1286 3022 2 MP stroke
0 1 1493 3018 2 MP stroke
58 0 1464 3018 2 MP stroke
58 0 1464 3019 2 MP stroke
0 1 1672 3014 2 MP stroke
57 0 1643 3014 2 MP stroke
57 0 1643 3015 2 MP stroke
0 1 1850 3006 2 MP stroke
57 0 1822 3006 2 MP stroke
57 0 1822 3007 2 MP stroke
0 2 2029 2996 2 MP stroke
57 0 2001 2996 2 MP stroke
57 0 2001 2998 2 MP stroke
0 3 2208 2971 2 MP stroke
57 0 2179 2971 2 MP stroke
57 0 2179 2974 2 MP stroke
0 9 2387 2912 2 MP stroke
57 0 2358 2912 2 MP stroke
57 0 2358 2921 2 MP stroke
0 26 2565 2753 2 MP stroke
57 0 2537 2753 2 MP stroke
57 0 2537 2779 2 MP stroke
0 44 2744 2294 2 MP stroke
57 0 2715 2294 2 MP stroke
57 0 2715 2338 2 MP stroke
0 20 2923 1879 2 MP stroke
57 0 2894 1879 2 MP stroke
57 0 2894 1899 2 MP stroke
0 7 3101 1681 2 MP stroke
57 0 3073 1681 2 MP stroke
57 0 3073 1688 2 MP stroke
0 5 3280 1556 2 MP stroke
58 0 3251 1556 2 MP stroke
58 0 3251 1561 2 MP stroke
0 3 3459 1449 2 MP stroke
57 0 3430 1449 2 MP stroke
57 0 3430 1452 2 MP stroke
0 4 3637 1343 2 MP stroke
57 0 3609 1343 2 MP stroke
57 0 3609 1347 2 MP stroke
0 3 3816 1244 2 MP stroke
57 0 3788 1244 2 MP stroke
57 0 3788 1247 2 MP stroke
179 -99 178 -105 179 -109 179 -126 178 -204 179 -427 179 -450 178 -150 
179 -56 179 -25 179 -10 178 -8 179 -4 179 -3 178 -2 179 -2 
957 3026 17 MP stroke
/c9 { 0.000000 0.000000 1.000000 sr} bdef
c9
0 2 957 2991 2 MP stroke
57 0 928 2991 2 MP stroke
57 0 928 2993 2 MP stroke
0 1 1136 2994 2 MP stroke
57 0 1107 2994 2 MP stroke
57 0 1107 2995 2 MP stroke
0 2 1314 2990 2 MP stroke
57 0 1286 2990 2 MP stroke
57 0 1286 2992 2 MP stroke
0 2 1493 2985 2 MP stroke
58 0 1464 2985 2 MP stroke
58 0 1464 2987 2 MP stroke
0 2 1672 2979 2 MP stroke
57 0 1643 2979 2 MP stroke
57 0 1643 2981 2 MP stroke
0 3 1850 2963 2 MP stroke
57 0 1822 2963 2 MP stroke
57 0 1822 2966 2 MP stroke
0 5 2029 2945 2 MP stroke
57 0 2001 2945 2 MP stroke
57 0 2001 2950 2 MP stroke
0 7 2208 2899 2 MP stroke
57 0 2179 2899 2 MP stroke
57 0 2179 2906 2 MP stroke
0 19 2387 2794 2 MP stroke
57 0 2358 2794 2 MP stroke
57 0 2358 2813 2 MP stroke
0 47 2565 2527 2 MP stroke
57 0 2537 2527 2 MP stroke
57 0 2537 2574 2 MP stroke
0 73 2744 1804 2 MP stroke
57 0 2715 1804 2 MP stroke
57 0 2715 1877 2 MP stroke
0 31 2923 1259 2 MP stroke
57 0 2894 1259 2 MP stroke
57 0 2894 1290 2 MP stroke
0 9 3101 1104 2 MP stroke
57 0 3073 1104 2 MP stroke
57 0 3073 1113 2 MP stroke
0 7 3280 1065 2 MP stroke
58 0 3251 1065 2 MP stroke
58 0 3251 1072 2 MP stroke
0 5 3459 1053 2 MP stroke
57 0 3430 1053 2 MP stroke
57 0 3430 1058 2 MP stroke
0 4 3637 1046 2 MP stroke
57 0 3609 1046 2 MP stroke
57 0 3609 1050 2 MP stroke
0 3 3816 1046 2 MP stroke
57 0 3788 1046 2 MP stroke
57 0 3788 1049 2 MP stroke
179 -1 178 -8 179 -13 179 -39 178 -166 179 -566 179 -711 178 -252 
179 -100 179 -45 179 -17 178 -15 179 -6 179 -5 178 -4 179 3 
957 2992 17 MP stroke
/c10 { 0.000000 1.000000 0.000000 sr} bdef
c10
0 2 957 2991 2 MP stroke
57 0 928 2991 2 MP stroke
57 0 928 2993 2 MP stroke
0 1 1136 2994 2 MP stroke
57 0 1107 2994 2 MP stroke
57 0 1107 2995 2 MP stroke
0 2 1314 2990 2 MP stroke
57 0 1286 2990 2 MP stroke
57 0 1286 2992 2 MP stroke
0 2 1493 2985 2 MP stroke
58 0 1464 2985 2 MP stroke
58 0 1464 2987 2 MP stroke
0 2 1672 2980 2 MP stroke
57 0 1643 2980 2 MP stroke
57 0 1643 2982 2 MP stroke
0 4 1850 2963 2 MP stroke
57 0 1822 2963 2 MP stroke
57 0 1822 2967 2 MP stroke
0 5 2029 2945 2 MP stroke
57 0 2001 2945 2 MP stroke
57 0 2001 2950 2 MP stroke
0 8 2208 2899 2 MP stroke
57 0 2179 2899 2 MP stroke
57 0 2179 2907 2 MP stroke
0 19 2387 2794 2 MP stroke
57 0 2358 2794 2 MP stroke
57 0 2358 2813 2 MP stroke
0 45 2565 2530 2 MP stroke
57 0 2537 2530 2 MP stroke
57 0 2537 2575 2 MP stroke
0 71 2744 1808 2 MP stroke
57 0 2715 1808 2 MP stroke
57 0 2715 1879 2 MP stroke
0 28 2923 1262 2 MP stroke
57 0 2894 1262 2 MP stroke
57 0 2894 1290 2 MP stroke
0 7 3101 1106 2 MP stroke
57 0 3073 1106 2 MP stroke
57 0 3073 1113 2 MP stroke
0 3 3280 1067 2 MP stroke
58 0 3251 1067 2 MP stroke
58 0 3251 1070 2 MP stroke
0 1 3459 1054 2 MP stroke
57 0 3430 1054 2 MP stroke
57 0 3430 1055 2 MP stroke
0 1 3637 1049 2 MP stroke
57 0 3609 1049 2 MP stroke
57 0 3609 1050 2 MP stroke
3816 1048 PD
57 0 3788 1048 2 MP stroke
57 0 3788 1048 2 MP stroke
179 -2 178 -5 179 -14 179 -41 178 -166 179 -568 179 -709 178 -250 
179 -100 179 -45 179 -17 178 -16 179 -5 179 -5 178 -4 179 3 
957 2992 17 MP stroke
gr

c10
0 sg
1926 3318 mt 
(Prob. colorazione) s
 317 1683 mt  -90 rotate
(P) s
90 rotate
2081  160 mt 
(P con L=50) s
 556 3100 mt 
( ) s
4131  324 mt 
( ) s
1 sg
0 546 666 0 0 -546 713 875 4 MP
PP
-666 0 0 546 666 0 0 -546 713 875 5 MP stroke
4 w
DO
SO
6 w
0 sg
 713  329 mt 1379  329 L
 713  875 mt 1379  875 L
1379  875 mt 1379  329 L
 713  875 mt  713  329 L
 713  875 mt 1379  875 L
 713  875 mt  713  329 L
 713  329 mt 1379  329 L
 713  875 mt 1379  875 L
1379  875 mt 1379  329 L
 713  875 mt  713  329 L
1182  476 mt 
(P1) s
gs 713 329 667 547 rc
c8
360 0 785 434 2 MP stroke
gr

c8
0 sg
1182  645 mt 
(P2) s
gs 713 329 667 547 rc
c9
360 0 785 602 2 MP stroke
gr

c9
0 sg
1182  813 mt 
(P3) s
gs 713 329 667 547 rc
c10
360 0 785 770 2 MP stroke
gr

c10

end %%Color Dict

eplot
%%EndObject

epage
end

showpage

%%Trailer
%%EOF
