%!PS-Adobe-3.0 EPSF-3.0
%%Creator: MATLAB, The MathWorks, Inc. Version 8.0.0.783 (R2012b). Operating System: Microsoft Windows 7.
%%Title: C:\SILVIA\UniversitÓ\Presenti\Modellazione E Simulazioni Numeriche\Relazione\percolazione\codici\nuovi grafici\Zoom\ZOOM_RACS_2.eps
%%CreationDate: 06/16/2015  13:52:37
%%DocumentNeededFonts: Helvetica
%%DocumentProcessColors: Cyan Magenta Yellow Black
%%LanguageLevel: 2
%%Pages: 1
%%BoundingBox:   105   276   489   565
%%EndComments

%%BeginProlog
% MathWorks dictionary
/MathWorks 160 dict begin
% definition operators
/bdef {bind def} bind def
/ldef {load def} bind def
/xdef {exch def} bdef
/xstore {exch store} bdef
% operator abbreviations
/c  /clip ldef
/cc /concat ldef
/cp /closepath ldef
/gr /grestore ldef
/gs /gsave ldef
/mt /moveto ldef
/np /newpath ldef
/cm /currentmatrix ldef
/sm /setmatrix ldef
/rm /rmoveto ldef
/rl /rlineto ldef
/s {show newpath} bdef
/sc {setcmykcolor} bdef
/sr /setrgbcolor ldef
/sg /setgray ldef
/w /setlinewidth ldef
/j /setlinejoin ldef
/cap /setlinecap ldef
/rc {rectclip} bdef
/rf {rectfill} bdef
% page state control
/pgsv () def
/bpage {/pgsv save def} bdef
/epage {pgsv restore} bdef
/bplot /gsave ldef
/eplot {stroke grestore} bdef
% orientation switch
/portraitMode 0 def /landscapeMode 1 def /rotateMode 2 def
% coordinate system mappings
/dpi2point 0 def
% font control
/FontSize 0 def
/FMS {/FontSize xstore findfont [FontSize 0 0 FontSize neg 0 0]
  makefont setfont} bdef
/ISOLatin1Encoding where {pop /WindowsLatin1Encoding 256 array bdef
ISOLatin1Encoding WindowsLatin1Encoding copy pop
/.notdef/.notdef/quotesinglbase/florin/quotedblbase/ellipsis/dagger
/daggerdbl/circumflex/perthousand/Scaron/guilsinglleft/OE/.notdef/.notdef
/.notdef/.notdef/quoteleft/quoteright/quotedblleft/quotedblright/bullet
/endash/emdash/tilde/trademark/scaron/guilsinglright/oe/.notdef/.notdef
/Ydieresis WindowsLatin1Encoding 128 32 getinterval astore pop}
{/WindowsLatin1Encoding StandardEncoding bdef} ifelse
/reencode {exch dup where {pop load} {pop StandardEncoding} ifelse
  exch dup 3 1 roll findfont dup length dict begin
  { 1 index /FID ne {def}{pop pop} ifelse } forall
  /Encoding exch def currentdict end definefont pop} bdef
/isroman {findfont /CharStrings get /Agrave known} bdef
/FMSR {3 1 roll 1 index dup isroman {reencode} {pop pop} ifelse
  exch FMS} bdef
/csm {1 dpi2point div -1 dpi2point div scale neg translate
 dup landscapeMode eq {pop -90 rotate}
  {rotateMode eq {90 rotate} if} ifelse} bdef
% line types: solid, dotted, dashed, dotdash
/SO { [] 0 setdash } bdef
/DO { [.5 dpi2point mul 4 dpi2point mul] 0 setdash } bdef
/DA { [6 dpi2point mul] 0 setdash } bdef
/DD { [.5 dpi2point mul 4 dpi2point mul 6 dpi2point mul 4
  dpi2point mul] 0 setdash } bdef
% macros for lines and objects
/L {lineto stroke} bdef
/MP {3 1 roll moveto 1 sub {rlineto} repeat} bdef
/AP {{rlineto} repeat} bdef
/PDlw -1 def
/W {/PDlw currentlinewidth def setlinewidth} def
/PP {closepath eofill} bdef
/DP {closepath stroke} bdef
/MR {4 -2 roll moveto dup  0 exch rlineto exch 0 rlineto
  neg 0 exch rlineto closepath} bdef
/FR {MR stroke} bdef
/PR {MR fill} bdef
/L1i {{currentfile picstr readhexstring pop} image} bdef
/tMatrix matrix def
/MakeOval {newpath tMatrix currentmatrix pop translate scale
0 0 1 0 360 arc tMatrix setmatrix} bdef
/FO {MakeOval stroke} bdef
/PO {MakeOval fill} bdef
/PD {currentlinewidth 2 div 0 360 arc fill
   PDlw -1 eq not {PDlw w /PDlw -1 def} if} def
/FA {newpath tMatrix currentmatrix pop translate scale
  0 0 1 5 -2 roll arc tMatrix setmatrix stroke} bdef
/PA {newpath tMatrix currentmatrix pop	translate 0 0 moveto scale
  0 0 1 5 -2 roll arc closepath tMatrix setmatrix fill} bdef
/FAn {newpath tMatrix currentmatrix pop translate scale
  0 0 1 5 -2 roll arcn tMatrix setmatrix stroke} bdef
/PAn {newpath tMatrix currentmatrix pop translate 0 0 moveto scale
  0 0 1 5 -2 roll arcn closepath tMatrix setmatrix fill} bdef
/vradius 0 def /hradius 0 def /lry 0 def
/lrx 0 def /uly 0 def /ulx 0 def /rad 0 def
/MRR {/vradius xdef /hradius xdef /lry xdef /lrx xdef /uly xdef
  /ulx xdef newpath tMatrix currentmatrix pop ulx hradius add uly
  vradius add translate hradius vradius scale 0 0 1 180 270 arc 
  tMatrix setmatrix lrx hradius sub uly vradius add translate
  hradius vradius scale 0 0 1 270 360 arc tMatrix setmatrix
  lrx hradius sub lry vradius sub translate hradius vradius scale
  0 0 1 0 90 arc tMatrix setmatrix ulx hradius add lry vradius sub
  translate hradius vradius scale 0 0 1 90 180 arc tMatrix setmatrix
  closepath} bdef
/FRR {MRR stroke } bdef
/PRR {MRR fill } bdef
/MlrRR {/lry xdef /lrx xdef /uly xdef /ulx xdef /rad lry uly sub 2 div def
  newpath tMatrix currentmatrix pop ulx rad add uly rad add translate
  rad rad scale 0 0 1 90 270 arc tMatrix setmatrix lrx rad sub lry rad
  sub translate rad rad scale 0 0 1 270 90 arc tMatrix setmatrix
  closepath} bdef
/FlrRR {MlrRR stroke } bdef
/PlrRR {MlrRR fill } bdef
/MtbRR {/lry xdef /lrx xdef /uly xdef /ulx xdef /rad lrx ulx sub 2 div def
  newpath tMatrix currentmatrix pop ulx rad add uly rad add translate
  rad rad scale 0 0 1 180 360 arc tMatrix setmatrix lrx rad sub lry rad
  sub translate rad rad scale 0 0 1 0 180 arc tMatrix setmatrix
  closepath} bdef
/FtbRR {MtbRR stroke } bdef
/PtbRR {MtbRR fill } bdef
/stri 6 array def /dtri 6 array def
/smat 6 array def /dmat 6 array def
/tmat1 6 array def /tmat2 6 array def /dif 3 array def
/asub {/ind2 exch def /ind1 exch def dup dup
  ind1 get exch ind2 get sub exch } bdef
/tri_to_matrix {
  2 0 asub 3 1 asub 4 0 asub 5 1 asub
  dup 0 get exch 1 get 7 -1 roll astore } bdef
/compute_transform {
  dmat dtri tri_to_matrix tmat1 invertmatrix 
  smat stri tri_to_matrix tmat2 concatmatrix } bdef
/ds {stri astore pop} bdef
/dt {dtri astore pop} bdef
/db {2 copy /cols xdef /rows xdef mul dup 3 mul string
  currentfile 
  3 index 0 eq {/ASCIIHexDecode filter}
  {/ASCII85Decode filter 3 index 2 eq {/RunLengthDecode filter} if }
  ifelse exch readstring pop
  dup 0 3 index getinterval /rbmap xdef
  dup 2 index dup getinterval /gbmap xdef
  1 index dup 2 mul exch getinterval /bbmap xdef pop pop}bdef
/it {gs np dtri aload pop moveto lineto lineto cp c
  cols rows 8 compute_transform 
  rbmap gbmap bbmap true 3 colorimage gr}bdef
/il {newpath moveto lineto stroke}bdef
currentdict end def
%%EndProlog

%%BeginSetup
MathWorks begin

0 cap

end
%%EndSetup

%%Page: 1 1
%%BeginPageSetup
%%PageBoundingBox:   105   276   489   565
MathWorks begin
bpage
%%EndPageSetup

%%BeginObject: obj1
bplot

/dpi2point 12 def
portraitMode 1260 6780 csm

    0     0  4612  3458 rc
85 dict begin %Colortable dictionary
/c0 { 0.000000 0.000000 0.000000 sr} bdef
/c1 { 1.000000 1.000000 1.000000 sr} bdef
/c2 { 0.900000 0.000000 0.000000 sr} bdef
/c3 { 0.000000 0.820000 0.000000 sr} bdef
/c4 { 0.000000 0.000000 0.800000 sr} bdef
/c5 { 0.910000 0.820000 0.320000 sr} bdef
/c6 { 1.000000 0.260000 0.820000 sr} bdef
/c7 { 0.000000 0.820000 0.820000 sr} bdef
c0
1 j
1 sg
   0    0 4613 3459 rf
6 w
0 2820 3574 0 0 -2820 599 3078 4 MP
PP
-3574 0 0 2820 3574 0 0 -2820 599 3078 5 MP stroke
4 w
DO
0 sg
 997 3078 mt  997  259 L
 997  259 mt  997  259 L
1394 3078 mt 1394  259 L
1394  259 mt 1394  259 L
1791 3078 mt 1791  259 L
1791  259 mt 1791  259 L
2188 3078 mt 2188  259 L
2188  259 mt 2188  259 L
2585 3078 mt 2585  259 L
2585  259 mt 2585  259 L
2982 3078 mt 2982  259 L
2982  259 mt 2982  259 L
3379 3078 mt 3379  259 L
3379  259 mt 3379  259 L
3776 3078 mt 3776  259 L
3776  259 mt 3776  259 L
4173 3078 mt 4173  259 L
4173  259 mt 4173  259 L
 599 3078 mt 4173 3078 L
4173 3078 mt 4173 3078 L
 599 2796 mt 4173 2796 L
4173 2796 mt 4173 2796 L
 599 2514 mt 4173 2514 L
4173 2514 mt 4173 2514 L
 599 2232 mt 4173 2232 L
4173 2232 mt 4173 2232 L
 599 1950 mt 4173 1950 L
4173 1950 mt 4173 1950 L
 599 1668 mt 4173 1668 L
4173 1668 mt 4173 1668 L
 599 1386 mt 4173 1386 L
4173 1386 mt 4173 1386 L
 599 1104 mt 4173 1104 L
4173 1104 mt 4173 1104 L
 599  822 mt 4173  822 L
4173  822 mt 4173  822 L
 599  540 mt 4173  540 L
4173  540 mt 4173  540 L
 599  259 mt 4173  259 L
4173  259 mt 4173  259 L
SO
6 w
 599  258 mt 4173  258 L
 599 3078 mt 4173 3078 L
4173 3078 mt 4173  258 L
 599 3078 mt  599  258 L
 599 3078 mt 4173 3078 L
 599 3078 mt  599  258 L
 997 3078 mt  997 3042 L
 997  259 mt  997  294 L
%%IncludeResource: font Helvetica
/Helvetica /WindowsLatin1Encoding 120 FMSR

 881 3223 mt 
(0.57) s
1394 3078 mt 1394 3042 L
1394  259 mt 1394  294 L
1244 3223 mt 
(0.575) s
1791 3078 mt 1791 3042 L
1791  259 mt 1791  294 L
1675 3223 mt 
(0.58) s
2188 3078 mt 2188 3042 L
2188  259 mt 2188  294 L
2038 3223 mt 
(0.585) s
2585 3078 mt 2585 3042 L
2585  259 mt 2585  294 L
2469 3223 mt 
(0.59) s
2982 3078 mt 2982 3042 L
2982  259 mt 2982  294 L
2832 3223 mt 
(0.595) s
3379 3078 mt 3379 3042 L
3379  259 mt 3379  294 L
3296 3223 mt 
(0.6) s
3776 3078 mt 3776 3042 L
3776  259 mt 3776  294 L
3626 3223 mt 
(0.605) s
4173 3078 mt 4173 3042 L
4173  259 mt 4173  294 L
4057 3223 mt 
(0.61) s
 599 3078 mt  635 3078 L
4173 3078 mt 4138 3078 L
 365 3122 mt 
(500) s
 599 2796 mt  635 2796 L
4173 2796 mt 4138 2796 L
 299 2840 mt 
(1000) s
 599 2514 mt  635 2514 L
4173 2514 mt 4138 2514 L
 299 2558 mt 
(1500) s
 599 2232 mt  635 2232 L
4173 2232 mt 4138 2232 L
 299 2276 mt 
(2000) s
 599 1950 mt  635 1950 L
4173 1950 mt 4138 1950 L
 299 1994 mt 
(2500) s
 599 1668 mt  635 1668 L
4173 1668 mt 4138 1668 L
 299 1712 mt 
(3000) s
 599 1386 mt  635 1386 L
4173 1386 mt 4138 1386 L
 299 1430 mt 
(3500) s
 599 1104 mt  635 1104 L
4173 1104 mt 4138 1104 L
 299 1148 mt 
(4000) s
 599  822 mt  635  822 L
4173  822 mt 4138  822 L
 299  866 mt 
(4500) s
 599  540 mt  635  540 L
4173  540 mt 4138  540 L
 299  584 mt 
(5000) s
 599  259 mt  635  259 L
4173  259 mt 4138  259 L
 299  303 mt 
(5500) s
 599  258 mt 4173  258 L
 599 3078 mt 4173 3078 L
4173 3078 mt 4173  258 L
 599 3078 mt  599  258 L
gs 599 259 3575 2820 rc
/c8 { 0.000000 0.000000 1.000000 sr} bdef
c8
0 18 997 2810 2 MP stroke
47 0 973 2810 2 MP stroke
47 0 973 2828 2 MP stroke
0 36 1394 2535 2 MP stroke
48 0 1370 2535 2 MP stroke
48 0 1370 2571 2 MP stroke
0 57 1791 2095 2 MP stroke
48 0 1767 2095 2 MP stroke
48 0 1767 2152 2 MP stroke
0 136 2188 1316 2 MP stroke
48 0 2164 1316 2 MP stroke
48 0 2164 1452 2 MP stroke
0 277 2585 344 2 MP stroke
48 0 2561 344 2 MP stroke
48 0 2561 621 2 MP stroke
0 538 2982 575 2 MP stroke
48 0 2958 575 2 MP stroke
48 0 2958 1113 2 MP stroke
0 404 3379 2039 2 MP stroke
48 0 3355 2039 2 MP stroke
48 0 3355 2443 2 MP stroke
397 1397 397 362 397 -902 397 -740 397 -429 397 -266 997 2819 7 MP stroke
gr

c8
0 sg
1861 3366 mt 
(Prob. di colorazione) s
 217 1834 mt  -90 rotate
(RACS) s
90 rotate
1865  164 mt 
(Ricerca della soglia) s

end %%Color Dict

eplot
%%EndObject

epage
end

showpage

%%Trailer
%%EOF
