%!PS-Adobe-2.0 EPSF-1.2
%%Creator: MATLAB, The Mathworks, Inc. Version 7.9.0.529 (R2009b). Operating System: Linux 3.11.0-26-generic #45-Ubuntu SMP Tue Jul 15 04:02:06 UTC 2014 x86_64.
%%Title: grafici/Confronto P - L=100 PS=0.1 CAMP=100.eps
%%CreationDate: 06/12/2015  13:05:31
%%DocumentNeededFonts: Helvetica
%%DocumentProcessColors: Cyan Magenta Yellow Black
%%Pages: 1
%%BoundingBox:    58   199   546   602
%%EndComments

%%BeginProlog
% MathWorks dictionary
/MathWorks 160 dict begin
% definition operators
/bdef {bind def} bind def
/ldef {load def} bind def
/xdef {exch def} bdef
/xstore {exch store} bdef
% operator abbreviations
/c  /clip ldef
/cc /concat ldef
/cp /closepath ldef
/gr /grestore ldef
/gs /gsave ldef
/mt /moveto ldef
/np /newpath ldef
/cm /currentmatrix ldef
/sm /setmatrix ldef
/rm /rmoveto ldef
/rl /rlineto ldef
/s {show newpath} bdef
/sc {setcmykcolor} bdef
/sr /setrgbcolor ldef
/sg /setgray ldef
/w /setlinewidth ldef
/j /setlinejoin ldef
/cap /setlinecap ldef
/rc {rectclip} bdef
/rf {rectfill} bdef
% page state control
/pgsv () def
/bpage {/pgsv save def} bdef
/epage {pgsv restore} bdef
/bplot /gsave ldef
/eplot {stroke grestore} bdef
% orientation switch
/portraitMode 0 def /landscapeMode 1 def /rotateMode 2 def
% coordinate system mappings
/dpi2point 0 def
% font control
/FontSize 0 def
/FMS {/FontSize xstore findfont [FontSize 0 0 FontSize neg 0 0]
  makefont setfont} bdef
/reencode {exch dup where {pop load} {pop StandardEncoding} ifelse
  exch dup 3 1 roll findfont dup length dict begin
  { 1 index /FID ne {def}{pop pop} ifelse } forall
  /Encoding exch def currentdict end definefont pop} bdef
/isroman {findfont /CharStrings get /Agrave known} bdef
/FMSR {3 1 roll 1 index dup isroman {reencode} {pop pop} ifelse
  exch FMS} bdef
/csm {1 dpi2point div -1 dpi2point div scale neg translate
 dup landscapeMode eq {pop -90 rotate}
  {rotateMode eq {90 rotate} if} ifelse} bdef
% line types: solid, dotted, dashed, dotdash
/SO { [] 0 setdash } bdef
/DO { [.5 dpi2point mul 4 dpi2point mul] 0 setdash } bdef
/DA { [6 dpi2point mul] 0 setdash } bdef
/DD { [.5 dpi2point mul 4 dpi2point mul 6 dpi2point mul 4
  dpi2point mul] 0 setdash } bdef
% macros for lines and objects
/L {lineto stroke} bdef
/MP {3 1 roll moveto 1 sub {rlineto} repeat} bdef
/AP {{rlineto} repeat} bdef
/PDlw -1 def
/W {/PDlw currentlinewidth def setlinewidth} def
/PP {closepath eofill} bdef
/DP {closepath stroke} bdef
/MR {4 -2 roll moveto dup  0 exch rlineto exch 0 rlineto
  neg 0 exch rlineto closepath} bdef
/FR {MR stroke} bdef
/PR {MR fill} bdef
/L1i {{currentfile picstr readhexstring pop} image} bdef
/tMatrix matrix def
/MakeOval {newpath tMatrix currentmatrix pop translate scale
0 0 1 0 360 arc tMatrix setmatrix} bdef
/FO {MakeOval stroke} bdef
/PO {MakeOval fill} bdef
/PD {currentlinewidth 2 div 0 360 arc fill
   PDlw -1 eq not {PDlw w /PDlw -1 def} if} def
/FA {newpath tMatrix currentmatrix pop translate scale
  0 0 1 5 -2 roll arc tMatrix setmatrix stroke} bdef
/PA {newpath tMatrix currentmatrix pop	translate 0 0 moveto scale
  0 0 1 5 -2 roll arc closepath tMatrix setmatrix fill} bdef
/FAn {newpath tMatrix currentmatrix pop translate scale
  0 0 1 5 -2 roll arcn tMatrix setmatrix stroke} bdef
/PAn {newpath tMatrix currentmatrix pop translate 0 0 moveto scale
  0 0 1 5 -2 roll arcn closepath tMatrix setmatrix fill} bdef
/vradius 0 def /hradius 0 def /lry 0 def
/lrx 0 def /uly 0 def /ulx 0 def /rad 0 def
/MRR {/vradius xdef /hradius xdef /lry xdef /lrx xdef /uly xdef
  /ulx xdef newpath tMatrix currentmatrix pop ulx hradius add uly
  vradius add translate hradius vradius scale 0 0 1 180 270 arc 
  tMatrix setmatrix lrx hradius sub uly vradius add translate
  hradius vradius scale 0 0 1 270 360 arc tMatrix setmatrix
  lrx hradius sub lry vradius sub translate hradius vradius scale
  0 0 1 0 90 arc tMatrix setmatrix ulx hradius add lry vradius sub
  translate hradius vradius scale 0 0 1 90 180 arc tMatrix setmatrix
  closepath} bdef
/FRR {MRR stroke } bdef
/PRR {MRR fill } bdef
/MlrRR {/lry xdef /lrx xdef /uly xdef /ulx xdef /rad lry uly sub 2 div def
  newpath tMatrix currentmatrix pop ulx rad add uly rad add translate
  rad rad scale 0 0 1 90 270 arc tMatrix setmatrix lrx rad sub lry rad
  sub translate rad rad scale 0 0 1 270 90 arc tMatrix setmatrix
  closepath} bdef
/FlrRR {MlrRR stroke } bdef
/PlrRR {MlrRR fill } bdef
/MtbRR {/lry xdef /lrx xdef /uly xdef /ulx xdef /rad lrx ulx sub 2 div def
  newpath tMatrix currentmatrix pop ulx rad add uly rad add translate
  rad rad scale 0 0 1 180 360 arc tMatrix setmatrix lrx rad sub lry rad
  sub translate rad rad scale 0 0 1 0 180 arc tMatrix setmatrix
  closepath} bdef
/FtbRR {MtbRR stroke } bdef
/PtbRR {MtbRR fill } bdef
/stri 6 array def /dtri 6 array def
/smat 6 array def /dmat 6 array def
/tmat1 6 array def /tmat2 6 array def /dif 3 array def
/asub {/ind2 exch def /ind1 exch def dup dup
  ind1 get exch ind2 get sub exch } bdef
/tri_to_matrix {
  2 0 asub 3 1 asub 4 0 asub 5 1 asub
  dup 0 get exch 1 get 7 -1 roll astore } bdef
/compute_transform {
  dmat dtri tri_to_matrix tmat1 invertmatrix 
  smat stri tri_to_matrix tmat2 concatmatrix } bdef
/ds {stri astore pop} bdef
/dt {dtri astore pop} bdef
/db {2 copy /cols xdef /rows xdef mul dup string
  currentfile exch readhexstring pop
  /bmap xdef pop pop} bdef
/it {gs np dtri aload pop moveto lineto lineto cp c
  cols rows 8 compute_transform 
  {bmap} image gr}bdef
/il {newpath moveto lineto stroke}bdef
currentdict end def
%%EndProlog

%%BeginSetup
MathWorks begin

0 cap

end
%%EndSetup

%%Page: 1 1
%%BeginPageSetup
%%PageBoundingBox:    58   199   546   602
MathWorks begin
bpage
%%EndPageSetup

%%BeginObject: obj1
bplot

/dpi2point 12 def
portraitMode 0216 7344 csm

  480   110  5857  4845 MR c np
85 dict begin %Colortable dictionary
/c0 { 0.000000 0.000000 0.000000 sr} bdef
/c1 { 1.000000 1.000000 1.000000 sr} bdef
/c2 { 0.900000 0.000000 0.000000 sr} bdef
/c3 { 0.000000 0.820000 0.000000 sr} bdef
/c4 { 0.000000 0.000000 0.800000 sr} bdef
/c5 { 0.910000 0.820000 0.320000 sr} bdef
/c6 { 1.000000 0.260000 0.820000 sr} bdef
/c7 { 0.000000 0.820000 0.820000 sr} bdef
c0
1 j
1 sg
   0    0 6913 5186 PR
6 w
0 4226 5356 0 0 -4226 899 4615 4 MP
PP
-5356 0 0 4226 5356 0 0 -4226 899 4615 5 MP stroke
4 w
DO
0 sg
 899 4615 mt  899  389 L
 899  389 mt  899  389 L
1434 4615 mt 1434  389 L
1434  389 mt 1434  389 L
1970 4615 mt 1970  389 L
1970  389 mt 1970  389 L
2505 4615 mt 2505  389 L
2505  389 mt 2505  389 L
3041 4615 mt 3041  389 L
3041  389 mt 3041  389 L
3577 4615 mt 3577  389 L
3577  389 mt 3577  389 L
4112 4615 mt 4112  389 L
4112  389 mt 4112  389 L
4648 4615 mt 4648  389 L
4648  389 mt 4648  389 L
5183 4615 mt 5183  389 L
5183  389 mt 5183  389 L
5719 4615 mt 5719  389 L
5719  389 mt 5719  389 L
6255 4615 mt 6255  389 L
6255  389 mt 6255  389 L
 899 4615 mt 6255 4615 L
6255 4615 mt 6255 4615 L
 899 4011 mt 6255 4011 L
6255 4011 mt 6255 4011 L
 899 3407 mt 6255 3407 L
6255 3407 mt 6255 3407 L
 899 2803 mt 6255 2803 L
6255 2803 mt 6255 2803 L
 899 2200 mt 6255 2200 L
6255 2200 mt 6255 2200 L
 899 1596 mt 6255 1596 L
6255 1596 mt 6255 1596 L
 899  992 mt 6255  992 L
6255  992 mt 6255  992 L
 899  389 mt 6255  389 L
6255  389 mt 6255  389 L
SO
6 w
 899 4615 mt 6255 4615 L
 899  389 mt 6255  389 L
 899 4615 mt  899  389 L
6255 4615 mt 6255  389 L
 899 4615 mt 6255 4615 L
 899 4615 mt  899  389 L
 899 4615 mt  899 4561 L
 899  389 mt  899  442 L
%%IncludeResource: font Helvetica
/Helvetica /ISOLatin1Encoding 120 FMSR

 866 4760 mt 
(0) s
1434 4615 mt 1434 4561 L
1434  389 mt 1434  442 L
1351 4760 mt 
(0.1) s
1970 4615 mt 1970 4561 L
1970  389 mt 1970  442 L
1887 4760 mt 
(0.2) s
2505 4615 mt 2505 4561 L
2505  389 mt 2505  442 L
2422 4760 mt 
(0.3) s
3041 4615 mt 3041 4561 L
3041  389 mt 3041  442 L
2958 4760 mt 
(0.4) s
3577 4615 mt 3577 4561 L
3577  389 mt 3577  442 L
3494 4760 mt 
(0.5) s
4112 4615 mt 4112 4561 L
4112  389 mt 4112  442 L
4029 4760 mt 
(0.6) s
4648 4615 mt 4648 4561 L
4648  389 mt 4648  442 L
4565 4760 mt 
(0.7) s
5183 4615 mt 5183 4561 L
5183  389 mt 5183  442 L
5100 4760 mt 
(0.8) s
5719 4615 mt 5719 4561 L
5719  389 mt 5719  442 L
5636 4760 mt 
(0.9) s
6255 4615 mt 6255 4561 L
6255  389 mt 6255  442 L
6222 4760 mt 
(1) s
 899 4615 mt  952 4615 L
6255 4615 mt 6201 4615 L
 798 4659 mt 
(0) s
 899 4011 mt  952 4011 L
6255 4011 mt 6201 4011 L
 698 4055 mt 
(0.5) s
 899 3407 mt  952 3407 L
6255 3407 mt 6201 3407 L
 798 3451 mt 
(1) s
 899 2803 mt  952 2803 L
6255 2803 mt 6201 2803 L
 698 2847 mt 
(1.5) s
 899 2200 mt  952 2200 L
6255 2200 mt 6201 2200 L
 798 2244 mt 
(2) s
 899 1596 mt  952 1596 L
6255 1596 mt 6201 1596 L
 698 1640 mt 
(2.5) s
 899  992 mt  952  992 L
6255  992 mt 6201  992 L
 798 1036 mt 
(3) s
 899  389 mt  952  389 L
6255  389 mt 6201  389 L
 698  433 mt 
(3.5) s
 899 4615 mt 6255 4615 L
 899  389 mt 6255  389 L
 899 4615 mt  899  389 L
6255 4615 mt 6255  389 L
gs 899 389 5357 4227 MR c np
952 3641 PD
96 0 904 3641 2 MP stroke
96 0 904 3641 2 MP stroke
0 885 1488 2756 2 MP stroke
97 0 1439 2756 2 MP stroke
97 0 1439 3641 2 MP stroke
0 857 2023 2426 2 MP stroke
96 0 1975 2426 2 MP stroke
96 0 1975 3283 2 MP stroke
0 779 2559 2220 2 MP stroke
96 0 2511 2220 2 MP stroke
96 0 2511 2999 2 MP stroke
0 678 3094 2116 2 MP stroke
97 0 3046 2116 2 MP stroke
97 0 3046 2794 2 MP stroke
0 579 3630 2081 2 MP stroke
96 0 3582 2081 2 MP stroke
96 0 3582 2660 2 MP stroke
0 559 4166 1955 2 MP stroke
97 0 4117 1955 2 MP stroke
97 0 4117 2514 2 MP stroke
0 709 4701 1621 2 MP stroke
96 0 4653 1621 2 MP stroke
96 0 4653 2330 2 MP stroke
0 859 5237 1252 2 MP stroke
96 0 5189 1252 2 MP stroke
96 0 5189 2111 2 MP stroke
0 1021 5772 834 2 MP stroke
97 0 5724 834 2 MP stroke
97 0 5724 1855 2 MP stroke
535 -337 536 -293 535 -260 536 -135 536 -85 535 -154 536 -245 535 -344 
536 -443 952 3641 10 MP stroke
952 4529 PD
96 0 904 4529 2 MP stroke
96 0 904 4529 2 MP stroke
0 9 1488 4520 2 MP stroke
97 0 1439 4520 2 MP stroke
97 0 1439 4529 2 MP stroke
0 38 2023 4487 2 MP stroke
96 0 1975 4487 2 MP stroke
96 0 1975 4525 2 MP stroke
0 73 2559 4435 2 MP stroke
96 0 2511 4435 2 MP stroke
96 0 2511 4508 2 MP stroke
0 111 3094 4369 2 MP stroke
97 0 3046 4369 2 MP stroke
97 0 3046 4480 2 MP stroke
0 139 3630 4302 2 MP stroke
96 0 3582 4302 2 MP stroke
96 0 3582 4441 2 MP stroke
0 146 4166 4255 2 MP stroke
97 0 4117 4255 2 MP stroke
97 0 4117 4401 2 MP stroke
0 133 4701 4241 2 MP stroke
96 0 4653 4241 2 MP stroke
96 0 4653 4374 2 MP stroke
0 118 5237 4246 2 MP stroke
96 0 5189 4246 2 MP stroke
96 0 5189 4364 2 MP stroke
0 106 5772 4256 2 MP stroke
97 0 5724 4256 2 MP stroke
97 0 5724 4362 2 MP stroke
535 4 536 -3 535 -20 536 -43 536 -53 535 -48 536 -34 535 -19 
536 -4 952 4529 10 MP stroke
gr

3145 4903 mt 
(p. di colorazione) s
 616 2670 mt  -90 rotate
(tempo) s
90 rotate
2026  294 mt 
(Confronto Prob. etichetta e HK: L=100 PS=0.1 CAMP=100) s
 869 4671 mt 
( ) s
6226  444 mt 
( ) s
1 sg
0 381 1052 0 0 -381 1052 1009 4 MP
PP
-1052 0 0 381 1052 0 0 -381 1052 1009 5 MP stroke
4 w
DO
SO
6 w
0 sg
1052 1009 mt 2104 1009 L
1052  628 mt 2104  628 L
1052 1009 mt 1052  628 L
2104 1009 mt 2104  628 L
1052 1009 mt 2104 1009 L
1052 1009 mt 1052  628 L
1052 1009 mt 2104 1009 L
1052  628 mt 2104  628 L
1052 1009 mt 1052  628 L
2104 1009 mt 2104  628 L
1521  776 mt 
(t. etichetta) s
gs 1052 628 1053 382 MR c np
360 0 1124 733 2 MP stroke
gr

1521  946 mt 
(t. HK) s
gs 1052 628 1053 382 MR c np
360 0 1124 903 2 MP stroke
gr


end %%Color Dict

eplot
%%EndObject

epage
end

showpage

%%Trailer
%%EOF
