%!PS-Adobe-3.0 EPSF-3.0
%%Creator: MATLAB, The MathWorks, Inc. Version 8.0.0.783 (R2012b). Operating System: Microsoft Windows 7.
%%Title: C:\SILVIA\UniversitÓ\Presenti\Modellazione E Simulazioni Numeriche\Relazione\percolazione\codici\grafici\Confronto LP\Confronto PL NHK.eps
%%CreationDate: 06/13/2015  15:16:07
%%DocumentNeededFonts: Helvetica
%%DocumentProcessColors: Cyan Magenta Yellow Black
%%LanguageLevel: 2
%%Pages: 1
%%BoundingBox:   105   278   489   562
%%EndComments

%%BeginProlog
% MathWorks dictionary
/MathWorks 160 dict begin
% definition operators
/bdef {bind def} bind def
/ldef {load def} bind def
/xdef {exch def} bdef
/xstore {exch store} bdef
% operator abbreviations
/c  /clip ldef
/cc /concat ldef
/cp /closepath ldef
/gr /grestore ldef
/gs /gsave ldef
/mt /moveto ldef
/np /newpath ldef
/cm /currentmatrix ldef
/sm /setmatrix ldef
/rm /rmoveto ldef
/rl /rlineto ldef
/s {show newpath} bdef
/sc {setcmykcolor} bdef
/sr /setrgbcolor ldef
/sg /setgray ldef
/w /setlinewidth ldef
/j /setlinejoin ldef
/cap /setlinecap ldef
/rc {rectclip} bdef
/rf {rectfill} bdef
% page state control
/pgsv () def
/bpage {/pgsv save def} bdef
/epage {pgsv restore} bdef
/bplot /gsave ldef
/eplot {stroke grestore} bdef
% orientation switch
/portraitMode 0 def /landscapeMode 1 def /rotateMode 2 def
% coordinate system mappings
/dpi2point 0 def
% font control
/FontSize 0 def
/FMS {/FontSize xstore findfont [FontSize 0 0 FontSize neg 0 0]
  makefont setfont} bdef
/ISOLatin1Encoding where {pop /WindowsLatin1Encoding 256 array bdef
ISOLatin1Encoding WindowsLatin1Encoding copy pop
/.notdef/.notdef/quotesinglbase/florin/quotedblbase/ellipsis/dagger
/daggerdbl/circumflex/perthousand/Scaron/guilsinglleft/OE/.notdef/.notdef
/.notdef/.notdef/quoteleft/quoteright/quotedblleft/quotedblright/bullet
/endash/emdash/tilde/trademark/scaron/guilsinglright/oe/.notdef/.notdef
/Ydieresis WindowsLatin1Encoding 128 32 getinterval astore pop}
{/WindowsLatin1Encoding StandardEncoding bdef} ifelse
/reencode {exch dup where {pop load} {pop StandardEncoding} ifelse
  exch dup 3 1 roll findfont dup length dict begin
  { 1 index /FID ne {def}{pop pop} ifelse } forall
  /Encoding exch def currentdict end definefont pop} bdef
/isroman {findfont /CharStrings get /Agrave known} bdef
/FMSR {3 1 roll 1 index dup isroman {reencode} {pop pop} ifelse
  exch FMS} bdef
/csm {1 dpi2point div -1 dpi2point div scale neg translate
 dup landscapeMode eq {pop -90 rotate}
  {rotateMode eq {90 rotate} if} ifelse} bdef
% line types: solid, dotted, dashed, dotdash
/SO { [] 0 setdash } bdef
/DO { [.5 dpi2point mul 4 dpi2point mul] 0 setdash } bdef
/DA { [6 dpi2point mul] 0 setdash } bdef
/DD { [.5 dpi2point mul 4 dpi2point mul 6 dpi2point mul 4
  dpi2point mul] 0 setdash } bdef
% macros for lines and objects
/L {lineto stroke} bdef
/MP {3 1 roll moveto 1 sub {rlineto} repeat} bdef
/AP {{rlineto} repeat} bdef
/PDlw -1 def
/W {/PDlw currentlinewidth def setlinewidth} def
/PP {closepath eofill} bdef
/DP {closepath stroke} bdef
/MR {4 -2 roll moveto dup  0 exch rlineto exch 0 rlineto
  neg 0 exch rlineto closepath} bdef
/FR {MR stroke} bdef
/PR {MR fill} bdef
/L1i {{currentfile picstr readhexstring pop} image} bdef
/tMatrix matrix def
/MakeOval {newpath tMatrix currentmatrix pop translate scale
0 0 1 0 360 arc tMatrix setmatrix} bdef
/FO {MakeOval stroke} bdef
/PO {MakeOval fill} bdef
/PD {currentlinewidth 2 div 0 360 arc fill
   PDlw -1 eq not {PDlw w /PDlw -1 def} if} def
/FA {newpath tMatrix currentmatrix pop translate scale
  0 0 1 5 -2 roll arc tMatrix setmatrix stroke} bdef
/PA {newpath tMatrix currentmatrix pop	translate 0 0 moveto scale
  0 0 1 5 -2 roll arc closepath tMatrix setmatrix fill} bdef
/FAn {newpath tMatrix currentmatrix pop translate scale
  0 0 1 5 -2 roll arcn tMatrix setmatrix stroke} bdef
/PAn {newpath tMatrix currentmatrix pop translate 0 0 moveto scale
  0 0 1 5 -2 roll arcn closepath tMatrix setmatrix fill} bdef
/vradius 0 def /hradius 0 def /lry 0 def
/lrx 0 def /uly 0 def /ulx 0 def /rad 0 def
/MRR {/vradius xdef /hradius xdef /lry xdef /lrx xdef /uly xdef
  /ulx xdef newpath tMatrix currentmatrix pop ulx hradius add uly
  vradius add translate hradius vradius scale 0 0 1 180 270 arc 
  tMatrix setmatrix lrx hradius sub uly vradius add translate
  hradius vradius scale 0 0 1 270 360 arc tMatrix setmatrix
  lrx hradius sub lry vradius sub translate hradius vradius scale
  0 0 1 0 90 arc tMatrix setmatrix ulx hradius add lry vradius sub
  translate hradius vradius scale 0 0 1 90 180 arc tMatrix setmatrix
  closepath} bdef
/FRR {MRR stroke } bdef
/PRR {MRR fill } bdef
/MlrRR {/lry xdef /lrx xdef /uly xdef /ulx xdef /rad lry uly sub 2 div def
  newpath tMatrix currentmatrix pop ulx rad add uly rad add translate
  rad rad scale 0 0 1 90 270 arc tMatrix setmatrix lrx rad sub lry rad
  sub translate rad rad scale 0 0 1 270 90 arc tMatrix setmatrix
  closepath} bdef
/FlrRR {MlrRR stroke } bdef
/PlrRR {MlrRR fill } bdef
/MtbRR {/lry xdef /lrx xdef /uly xdef /ulx xdef /rad lrx ulx sub 2 div def
  newpath tMatrix currentmatrix pop ulx rad add uly rad add translate
  rad rad scale 0 0 1 180 360 arc tMatrix setmatrix lrx rad sub lry rad
  sub translate rad rad scale 0 0 1 0 180 arc tMatrix setmatrix
  closepath} bdef
/FtbRR {MtbRR stroke } bdef
/PtbRR {MtbRR fill } bdef
/stri 6 array def /dtri 6 array def
/smat 6 array def /dmat 6 array def
/tmat1 6 array def /tmat2 6 array def /dif 3 array def
/asub {/ind2 exch def /ind1 exch def dup dup
  ind1 get exch ind2 get sub exch } bdef
/tri_to_matrix {
  2 0 asub 3 1 asub 4 0 asub 5 1 asub
  dup 0 get exch 1 get 7 -1 roll astore } bdef
/compute_transform {
  dmat dtri tri_to_matrix tmat1 invertmatrix 
  smat stri tri_to_matrix tmat2 concatmatrix } bdef
/ds {stri astore pop} bdef
/dt {dtri astore pop} bdef
/db {2 copy /cols xdef /rows xdef mul dup 3 mul string
  currentfile 
  3 index 0 eq {/ASCIIHexDecode filter}
  {/ASCII85Decode filter 3 index 2 eq {/RunLengthDecode filter} if }
  ifelse exch readstring pop
  dup 0 3 index getinterval /rbmap xdef
  dup 2 index dup getinterval /gbmap xdef
  1 index dup 2 mul exch getinterval /bbmap xdef pop pop}bdef
/it {gs np dtri aload pop moveto lineto lineto cp c
  cols rows 8 compute_transform 
  rbmap gbmap bbmap true 3 colorimage gr}bdef
/il {newpath moveto lineto stroke}bdef
currentdict end def
%%EndProlog

%%BeginSetup
MathWorks begin

0 cap

end
%%EndSetup

%%Page: 1 1
%%BeginPageSetup
%%PageBoundingBox:   105   278   489   562
MathWorks begin
bpage
%%EndPageSetup

%%BeginObject: obj1
bplot

/dpi2point 12 def
portraitMode 1260 6744 csm

    0     0  4612  3404 rc
85 dict begin %Colortable dictionary
/c0 { 0.000000 0.000000 0.000000 sr} bdef
/c1 { 1.000000 1.000000 1.000000 sr} bdef
/c2 { 0.900000 0.000000 0.000000 sr} bdef
/c3 { 0.000000 0.820000 0.000000 sr} bdef
/c4 { 0.000000 0.000000 0.800000 sr} bdef
/c5 { 0.910000 0.820000 0.320000 sr} bdef
/c6 { 1.000000 0.260000 0.820000 sr} bdef
/c7 { 0.000000 0.820000 0.820000 sr} bdef
c0
1 j
1 sg
   0    0 4613 3405 rf
6 w
0 1534 -1552 -703 0 -1534 4174 2491 4 MP
PP
1552 703 0 1534 -1552 -703 0 -1534 4174 2491 5 MP stroke
1552 703 2022 -539 -1551 -702 2151 3029 4 MP
PP
-2023 538 1552 703 2022 -539 -1551 -702 2151 3029 5 MP stroke
0 1534 2022 -539 0 -1534 600 2327 4 MP
PP
-2022 539 0 1534 2022 -539 0 -1534 600 2327 5 MP stroke
4 w
DO
0 sg
2151 3029 mt  600 2327 L
 600 2327 mt  600  793 L
2657 2895 mt 1105 2192 L
1105 2192 mt 1105  659 L
3162 2760 mt 1611 2058 L
1611 2058 mt 1611  524 L
3668 2625 mt 2116 1923 L
2116 1923 mt 2116  389 L
4174 2491 mt 2622 1788 L
2622 1788 mt 2622  254 L
2151 3029 mt 4174 2491 L
4174 2491 mt 4174  957 L
1763 2854 mt 3786 2315 L
3786 2315 mt 3786  781 L
1375 2678 mt 3398 2139 L
3398 2139 mt 3398  606 L
 987 2503 mt 3010 1964 L
3010 1964 mt 3010  430 L
 600 2327 mt 2622 1788 L
2622 1788 mt 2622  254 L
 600 2327 mt 2622 1788 L
2622 1788 mt 4174 2491 L
 600 1944 mt 2622 1405 L
2622 1405 mt 4174 2107 L
 600 1560 mt 2622 1021 L
2622 1021 mt 4174 1724 L
 600 1177 mt 2622  638 L
2622  638 mt 4174 1340 L
 600  793 mt 2622  254 L
2622  254 mt 4174  957 L
SO
6 w
2151 3029 mt 4174 2491 L
2151 3029 mt  600 2327 L
 600 2327 mt  600  793 L
2151 3029 mt 2199 3051 L
%%IncludeResource: font Helvetica
/Helvetica /WindowsLatin1Encoding 120 FMSR

2230 3176 mt 
(0) s
2657 2895 mt 2705 2916 L
2736 3042 mt 
(50) s
3162 2760 mt 3210 2782 L
3242 2907 mt 
(100) s
3668 2625 mt 3716 2647 L
3747 2772 mt 
(150) s
4174 2491 mt 4221 2512 L
4253 2637 mt 
(200) s
2151 3029 mt 2101 3043 L
1901 3163 mt 
(0.2) s
1763 2854 mt 1713 2867 L
1513 2987 mt 
(0.4) s
1375 2678 mt 1325 2692 L
1125 2812 mt 
(0.6) s
 987 2503 mt  937 2516 L
 737 2636 mt 
(0.8) s
 600 2327 mt  549 2341 L
 450 2460 mt 
(1) s
 600 2327 mt  552 2305 L
 454 2335 mt 
(0) s
 600 1944 mt  552 1922 L
 387 1952 mt 
(20) s
 600 1560 mt  552 1539 L
 387 1568 mt 
(40) s
 600 1177 mt  552 1155 L
 387 1185 mt 
(60) s
 600  793 mt  552  772 L
 387  802 mt 
(80) s
4158  296 mt 
( ) s
gs 600 254 3575 2776 rc
/c8 { 0.000000 0.000000 0.625000 sr} bdef
c8
-388 -195 1012 -401 3162 2721 3 MP
PP
0 sg
3162 2721 mt 4174 2320 L
4174 2320 mt 3786 2125 L
/c9 { 0.000000 0.000000 0.687500 sr} bdef
c9
-194 -74 1012 -415 2774 2540 3 MP
PP
0 sg
2774 2540 mt 3786 2125 L
3786 2125 mt 3592 2051 L
c8
1012 -415 -388 -181 3162 2721 3 MP
PP
0 sg
3162 2721 mt 2774 2540 L
2774 2540 mt 3786 2125 L
c8
-194 -202 1012 -403 2580 2454 3 MP
PP
0 sg
2580 2454 mt 3592 2051 L
3592 2051 mt 3398 1849 L
c9
1012 -403 -194 -86 2774 2540 3 MP
PP
0 sg
2774 2540 mt 2580 2454 L
2580 2454 mt 3592 2051 L
c9
-194 -481 1011 -512 2387 2361 3 MP
PP
0 sg
2387 2361 mt 3398 1849 L
3398 1849 mt 3204 1368 L
c8
1011 -512 -193 -93 2580 2454 3 MP
PP
0 sg
2580 2454 mt 2387 2361 L
2387 2361 mt 3398 1849 L
/c10 { 0.000000 0.000000 0.750000 sr} bdef
c10
-194 -306 1011 -883 2193 2251 3 MP
PP
0 sg
2193 2251 mt 3204 1368 L
3204 1368 mt 3010 1062 L
c9
1011 -883 -194 -110 2387 2361 3 MP
PP
0 sg
2387 2361 mt 2193 2251 L
2193 2251 mt 3204 1368 L
/c11 { 0.000000 0.000000 0.562500 sr} bdef
c11
-388 -181 505 -164 2657 2885 3 MP
PP
0 sg
2657 2885 mt 3162 2721 L
3162 2721 mt 2774 2540 L
gr

3066 3244 mt 
(dimensione reticolo \(L\)) s
gs 600 254 3575 2776 rc
c10
-194 -542 1011 -1088 1999 2150 3 MP
PP
0 sg
1999 2150 mt 3010 1062 L
3010 1062 mt 2816  520 L
c10
1011 -1088 -194 -101 2193 2251 3 MP
PP
0 sg
2193 2251 mt 1999 2150 L
1999 2150 mt 3010 1062 L
c10
1011 -1528 -194 -102 1999 2150 3 MP
PP
0 sg
1999 2150 mt 1805 2048 L
1805 2048 mt 2816  520 L
c11
505 -168 -388 -177 2657 2885 3 MP
PP
0 sg
2657 2885 mt 2269 2708 L
2269 2708 mt 2774 2540 L
c11
-194 -86 505 -168 2269 2708 3 MP
PP
0 sg
2269 2708 mt 2774 2540 L
2774 2540 mt 2580 2454 L
c11
-388 -177 304 -89 2353 2974 3 MP
PP
0 sg
2353 2974 mt 2657 2885 L
2657 2885 mt 2269 2708 L
c11
505 -166 -194 -88 2269 2708 3 MP
PP
0 sg
2269 2708 mt 2075 2620 L
2075 2620 mt 2580 2454 L
c11
-193 -93 505 -166 2075 2620 3 MP
PP
0 sg
2075 2620 mt 2580 2454 L
2580 2454 mt 2387 2361 L
c11
506 -172 -194 -87 2075 2620 3 MP
PP
0 sg
2075 2620 mt 1881 2533 L
1881 2533 mt 2387 2361 L
c11
-194 -110 506 -172 1881 2533 3 MP
PP
0 sg
1881 2533 mt 2387 2361 L
2387 2361 mt 2193 2251 L
gr

1499  159 mt 
(Etichetta: tempi al variare di L e p) s
gs 600 254 3575 2776 rc
c11
-387 -176 101 -28 2252 3002 3 MP
PP
0 sg
2252 3002 mt 2353 2974 L
2353 2974 mt 1966 2798 L
c11
303 -90 -387 -176 2353 2974 3 MP
PP
0 sg
2353 2974 mt 1966 2798 L
1966 2798 mt 2269 2708 L
c11
-194 -88 303 -90 1966 2798 3 MP
PP
0 sg
1966 2798 mt 2269 2708 L
2269 2708 mt 2075 2620 L
c11
102 -28 -388 -176 2252 3002 3 MP
PP
0 sg
2252 3002 mt 1864 2826 L
1864 2826 mt 1966 2798 L
c11
-194 -101 506 -193 1687 2444 3 MP
PP
0 sg
1687 2444 mt 2193 2251 L
2193 2251 mt 1999 2150 L
c11
506 -193 -194 -89 1881 2533 3 MP
PP
0 sg
1881 2533 mt 1687 2444 L
1687 2444 mt 2193 2251 L
c11
-194 -87 303 -90 1772 2710 3 MP
PP
0 sg
1772 2710 mt 2075 2620 L
2075 2620 mt 1881 2533 L
c11
303 -90 -194 -88 1966 2798 3 MP
PP
0 sg
1966 2798 mt 1772 2710 L
1772 2710 mt 2075 2620 L
c11
-194 -102 506 -205 1493 2355 3 MP
PP
0 sg
1493 2355 mt 1999 2150 L
1999 2150 mt 1805 2048 L
c11
506 -205 -194 -89 1687 2444 3 MP
PP
0 sg
1687 2444 mt 1493 2355 L
1493 2355 mt 1999 2150 L
c11
-194 -88 102 -28 1864 2826 3 MP
PP
0 sg
1864 2826 mt 1966 2798 L
1966 2798 mt 1772 2710 L
c11
303 -89 -194 -88 1772 2710 3 MP
PP
0 sg
1772 2710 mt 1578 2622 L
1578 2622 mt 1881 2533 L
c11
-194 -89 303 -89 1578 2622 3 MP
PP
0 sg
1578 2622 mt 1881 2533 L
1881 2533 mt 1687 2444 L
c11
102 -28 -194 -88 1864 2826 3 MP
PP
0 sg
1864 2826 mt 1670 2738 L
1670 2738 mt 1772 2710 L
c11
506 -218 -194 -89 1493 2355 3 MP
PP
0 sg
1493 2355 mt 1299 2266 L
1299 2266 mt 1805 2048 L
c11
-194 -88 102 -28 1670 2738 3 MP
PP
0 sg
1670 2738 mt 1772 2710 L
1772 2710 mt 1578 2622 L
c11
303 -91 -194 -87 1578 2622 3 MP
PP
0 sg
1578 2622 mt 1384 2535 L
1384 2535 mt 1687 2444 L
c11
-194 -89 303 -91 1384 2535 3 MP
PP
0 sg
1384 2535 mt 1687 2444 L
1687 2444 mt 1493 2355 L
c11
102 -29 -194 -87 1670 2738 3 MP
PP
0 sg
1670 2738 mt 1476 2651 L
1476 2651 mt 1578 2622 L
c11
-194 -87 102 -29 1476 2651 3 MP
PP
0 sg
1476 2651 mt 1578 2622 L
1578 2622 mt 1384 2535 L
c11
-194 -89 303 -92 1190 2447 3 MP
PP
0 sg
1190 2447 mt 1493 2355 L
1493 2355 mt 1299 2266 L
c11
303 -92 -194 -88 1384 2535 3 MP
PP
0 sg
1384 2535 mt 1190 2447 L
1190 2447 mt 1493 2355 L
c11
101 -28 -193 -88 1476 2651 3 MP
PP
0 sg
1476 2651 mt 1283 2563 L
1283 2563 mt 1384 2535 L
c11
-194 -88 101 -28 1283 2563 3 MP
PP
0 sg
1283 2563 mt 1384 2535 L
1384 2535 mt 1190 2447 L
gr

1084 3203 mt 
(prob.) s
gs 600 254 3575 2776 rc
c11
303 -93 -194 -88 1190 2447 3 MP
PP
0 sg
1190 2447 mt  996 2359 L
 996 2359 mt 1299 2266 L
c11
101 -28 -194 -88 1283 2563 3 MP
PP
0 sg
1283 2563 mt 1089 2475 L
1089 2475 mt 1190 2447 L
c11
-194 -88 101 -28 1089 2475 3 MP
PP
0 sg
1089 2475 mt 1190 2447 L
1190 2447 mt  996 2359 L
c11
101 -28 -194 -88 1089 2475 3 MP
PP
0 sg
1089 2475 mt  895 2387 L
 895 2387 mt  996 2359 L
gr

 583 3072 mt 
( ) s
 305 1728 mt  -90 rotate
(tempo) s
90 rotate

end %%Color Dict

eplot
%%EndObject

epage
end

showpage

%%Trailer
%%EOF
