%!PS-Adobe-3.0 EPSF-3.0
%%Creator: MATLAB, The MathWorks, Inc. Version 8.0.0.783 (R2012b). Operating System: Microsoft Windows 7.
%%Title: C:\SILVIA\UniversitÓ\Presenti\Modellazione E Simulazioni Numeriche\Relazione\percolazione\codici\grafici\RACS\RACS L10.eps
%%CreationDate: 06/13/2015  14:51:00
%%DocumentNeededFonts: Helvetica
%%DocumentProcessColors: Cyan Magenta Yellow Black
%%LanguageLevel: 2
%%Pages: 1
%%BoundingBox:    87   262   507   578
%%EndComments

%%BeginProlog
% MathWorks dictionary
/MathWorks 160 dict begin
% definition operators
/bdef {bind def} bind def
/ldef {load def} bind def
/xdef {exch def} bdef
/xstore {exch store} bdef
% operator abbreviations
/c  /clip ldef
/cc /concat ldef
/cp /closepath ldef
/gr /grestore ldef
/gs /gsave ldef
/mt /moveto ldef
/np /newpath ldef
/cm /currentmatrix ldef
/sm /setmatrix ldef
/rm /rmoveto ldef
/rl /rlineto ldef
/s {show newpath} bdef
/sc {setcmykcolor} bdef
/sr /setrgbcolor ldef
/sg /setgray ldef
/w /setlinewidth ldef
/j /setlinejoin ldef
/cap /setlinecap ldef
/rc {rectclip} bdef
/rf {rectfill} bdef
% page state control
/pgsv () def
/bpage {/pgsv save def} bdef
/epage {pgsv restore} bdef
/bplot /gsave ldef
/eplot {stroke grestore} bdef
% orientation switch
/portraitMode 0 def /landscapeMode 1 def /rotateMode 2 def
% coordinate system mappings
/dpi2point 0 def
% font control
/FontSize 0 def
/FMS {/FontSize xstore findfont [FontSize 0 0 FontSize neg 0 0]
  makefont setfont} bdef
/ISOLatin1Encoding where {pop /WindowsLatin1Encoding 256 array bdef
ISOLatin1Encoding WindowsLatin1Encoding copy pop
/.notdef/.notdef/quotesinglbase/florin/quotedblbase/ellipsis/dagger
/daggerdbl/circumflex/perthousand/Scaron/guilsinglleft/OE/.notdef/.notdef
/.notdef/.notdef/quoteleft/quoteright/quotedblleft/quotedblright/bullet
/endash/emdash/tilde/trademark/scaron/guilsinglright/oe/.notdef/.notdef
/Ydieresis WindowsLatin1Encoding 128 32 getinterval astore pop}
{/WindowsLatin1Encoding StandardEncoding bdef} ifelse
/reencode {exch dup where {pop load} {pop StandardEncoding} ifelse
  exch dup 3 1 roll findfont dup length dict begin
  { 1 index /FID ne {def}{pop pop} ifelse } forall
  /Encoding exch def currentdict end definefont pop} bdef
/isroman {findfont /CharStrings get /Agrave known} bdef
/FMSR {3 1 roll 1 index dup isroman {reencode} {pop pop} ifelse
  exch FMS} bdef
/csm {1 dpi2point div -1 dpi2point div scale neg translate
 dup landscapeMode eq {pop -90 rotate}
  {rotateMode eq {90 rotate} if} ifelse} bdef
% line types: solid, dotted, dashed, dotdash
/SO { [] 0 setdash } bdef
/DO { [.5 dpi2point mul 4 dpi2point mul] 0 setdash } bdef
/DA { [6 dpi2point mul] 0 setdash } bdef
/DD { [.5 dpi2point mul 4 dpi2point mul 6 dpi2point mul 4
  dpi2point mul] 0 setdash } bdef
% macros for lines and objects
/L {lineto stroke} bdef
/MP {3 1 roll moveto 1 sub {rlineto} repeat} bdef
/AP {{rlineto} repeat} bdef
/PDlw -1 def
/W {/PDlw currentlinewidth def setlinewidth} def
/PP {closepath eofill} bdef
/DP {closepath stroke} bdef
/MR {4 -2 roll moveto dup  0 exch rlineto exch 0 rlineto
  neg 0 exch rlineto closepath} bdef
/FR {MR stroke} bdef
/PR {MR fill} bdef
/L1i {{currentfile picstr readhexstring pop} image} bdef
/tMatrix matrix def
/MakeOval {newpath tMatrix currentmatrix pop translate scale
0 0 1 0 360 arc tMatrix setmatrix} bdef
/FO {MakeOval stroke} bdef
/PO {MakeOval fill} bdef
/PD {currentlinewidth 2 div 0 360 arc fill
   PDlw -1 eq not {PDlw w /PDlw -1 def} if} def
/FA {newpath tMatrix currentmatrix pop translate scale
  0 0 1 5 -2 roll arc tMatrix setmatrix stroke} bdef
/PA {newpath tMatrix currentmatrix pop	translate 0 0 moveto scale
  0 0 1 5 -2 roll arc closepath tMatrix setmatrix fill} bdef
/FAn {newpath tMatrix currentmatrix pop translate scale
  0 0 1 5 -2 roll arcn tMatrix setmatrix stroke} bdef
/PAn {newpath tMatrix currentmatrix pop translate 0 0 moveto scale
  0 0 1 5 -2 roll arcn closepath tMatrix setmatrix fill} bdef
/vradius 0 def /hradius 0 def /lry 0 def
/lrx 0 def /uly 0 def /ulx 0 def /rad 0 def
/MRR {/vradius xdef /hradius xdef /lry xdef /lrx xdef /uly xdef
  /ulx xdef newpath tMatrix currentmatrix pop ulx hradius add uly
  vradius add translate hradius vradius scale 0 0 1 180 270 arc 
  tMatrix setmatrix lrx hradius sub uly vradius add translate
  hradius vradius scale 0 0 1 270 360 arc tMatrix setmatrix
  lrx hradius sub lry vradius sub translate hradius vradius scale
  0 0 1 0 90 arc tMatrix setmatrix ulx hradius add lry vradius sub
  translate hradius vradius scale 0 0 1 90 180 arc tMatrix setmatrix
  closepath} bdef
/FRR {MRR stroke } bdef
/PRR {MRR fill } bdef
/MlrRR {/lry xdef /lrx xdef /uly xdef /ulx xdef /rad lry uly sub 2 div def
  newpath tMatrix currentmatrix pop ulx rad add uly rad add translate
  rad rad scale 0 0 1 90 270 arc tMatrix setmatrix lrx rad sub lry rad
  sub translate rad rad scale 0 0 1 270 90 arc tMatrix setmatrix
  closepath} bdef
/FlrRR {MlrRR stroke } bdef
/PlrRR {MlrRR fill } bdef
/MtbRR {/lry xdef /lrx xdef /uly xdef /ulx xdef /rad lrx ulx sub 2 div def
  newpath tMatrix currentmatrix pop ulx rad add uly rad add translate
  rad rad scale 0 0 1 180 360 arc tMatrix setmatrix lrx rad sub lry rad
  sub translate rad rad scale 0 0 1 0 180 arc tMatrix setmatrix
  closepath} bdef
/FtbRR {MtbRR stroke } bdef
/PtbRR {MtbRR fill } bdef
/stri 6 array def /dtri 6 array def
/smat 6 array def /dmat 6 array def
/tmat1 6 array def /tmat2 6 array def /dif 3 array def
/asub {/ind2 exch def /ind1 exch def dup dup
  ind1 get exch ind2 get sub exch } bdef
/tri_to_matrix {
  2 0 asub 3 1 asub 4 0 asub 5 1 asub
  dup 0 get exch 1 get 7 -1 roll astore } bdef
/compute_transform {
  dmat dtri tri_to_matrix tmat1 invertmatrix 
  smat stri tri_to_matrix tmat2 concatmatrix } bdef
/ds {stri astore pop} bdef
/dt {dtri astore pop} bdef
/db {2 copy /cols xdef /rows xdef mul dup 3 mul string
  currentfile 
  3 index 0 eq {/ASCIIHexDecode filter}
  {/ASCII85Decode filter 3 index 2 eq {/RunLengthDecode filter} if }
  ifelse exch readstring pop
  dup 0 3 index getinterval /rbmap xdef
  dup 2 index dup getinterval /gbmap xdef
  1 index dup 2 mul exch getinterval /bbmap xdef pop pop}bdef
/it {gs np dtri aload pop moveto lineto lineto cp c
  cols rows 8 compute_transform 
  rbmap gbmap bbmap true 3 colorimage gr}bdef
/il {newpath moveto lineto stroke}bdef
currentdict end def
%%EndProlog

%%BeginSetup
MathWorks begin

0 cap

end
%%EndSetup

%%Page: 1 1
%%BeginPageSetup
%%PageBoundingBox:    87   262   507   578
MathWorks begin
bpage
%%EndPageSetup

%%BeginObject: obj1
bplot

/dpi2point 12 def
portraitMode 1044 6936 csm

    0     0  5045  3782 rc
85 dict begin %Colortable dictionary
/c0 { 0.000000 0.000000 0.000000 sr} bdef
/c1 { 1.000000 1.000000 1.000000 sr} bdef
/c2 { 0.900000 0.000000 0.000000 sr} bdef
/c3 { 0.000000 0.820000 0.000000 sr} bdef
/c4 { 0.000000 0.000000 0.800000 sr} bdef
/c5 { 0.910000 0.820000 0.320000 sr} bdef
/c6 { 1.000000 0.260000 0.820000 sr} bdef
/c7 { 0.000000 0.820000 0.820000 sr} bdef
c0
1 j
1 sg
   0    0 5046 3783 rf
6 w
0 3082 3910 0 0 -3082 656 3366 4 MP
PP
-3910 0 0 3082 3910 0 0 -3082 656 3366 5 MP stroke
4 w
DO
0 sg
 656 3366 mt  656  284 L
 656  284 mt  656  284 L
1438 3366 mt 1438  284 L
1438  284 mt 1438  284 L
2220 3366 mt 2220  284 L
2220  284 mt 2220  284 L
3002 3366 mt 3002  284 L
3002  284 mt 3002  284 L
3784 3366 mt 3784  284 L
3784  284 mt 3784  284 L
4566 3366 mt 4566  284 L
4566  284 mt 4566  284 L
 656 3366 mt 4566 3366 L
4566 3366 mt 4566 3366 L
 656 3023 mt 4566 3023 L
4566 3023 mt 4566 3023 L
 656 2681 mt 4566 2681 L
4566 2681 mt 4566 2681 L
 656 2338 mt 4566 2338 L
4566 2338 mt 4566 2338 L
 656 1996 mt 4566 1996 L
4566 1996 mt 4566 1996 L
 656 1653 mt 4566 1653 L
4566 1653 mt 4566 1653 L
 656 1311 mt 4566 1311 L
4566 1311 mt 4566 1311 L
 656  968 mt 4566  968 L
4566  968 mt 4566  968 L
 656  626 mt 4566  626 L
4566  626 mt 4566  626 L
 656  284 mt 4566  284 L
4566  284 mt 4566  284 L
SO
6 w
 656  284 mt 4566  284 L
 656 3366 mt 4566 3366 L
4566 3366 mt 4566  284 L
 656 3366 mt  656  284 L
 656 3366 mt 4566 3366 L
 656 3366 mt  656  284 L
 656 3366 mt  656 3326 L
 656  284 mt  656  323 L
%%IncludeResource: font Helvetica
/Helvetica /WindowsLatin1Encoding 120 FMSR

 623 3511 mt 
(0) s
1438 3366 mt 1438 3326 L
1438  284 mt 1438  323 L
1355 3511 mt 
(0.2) s
2220 3366 mt 2220 3326 L
2220  284 mt 2220  323 L
2137 3511 mt 
(0.4) s
3002 3366 mt 3002 3326 L
3002  284 mt 3002  323 L
2919 3511 mt 
(0.6) s
3784 3366 mt 3784 3326 L
3784  284 mt 3784  323 L
3701 3511 mt 
(0.8) s
4566 3366 mt 4566 3326 L
4566  284 mt 4566  323 L
4533 3511 mt 
(1) s
 656 3366 mt  695 3366 L
4566 3366 mt 4526 3366 L
 385 3410 mt 
(-0.5) s
 656 3023 mt  695 3023 L
4566 3023 mt 4526 3023 L
 555 3067 mt 
(0) s
 656 2681 mt  695 2681 L
4566 2681 mt 4526 2681 L
 455 2725 mt 
(0.5) s
 656 2338 mt  695 2338 L
4566 2338 mt 4526 2338 L
 555 2382 mt 
(1) s
 656 1996 mt  695 1996 L
4566 1996 mt 4526 1996 L
 455 2040 mt 
(1.5) s
 656 1653 mt  695 1653 L
4566 1653 mt 4526 1653 L
 555 1697 mt 
(2) s
 656 1311 mt  695 1311 L
4566 1311 mt 4526 1311 L
 455 1355 mt 
(2.5) s
 656  968 mt  695  968 L
4566  968 mt 4526  968 L
 555 1012 mt 
(3) s
 656  626 mt  695  626 L
4566  626 mt 4526  626 L
 455  670 mt 
(3.5) s
 656  284 mt  695  284 L
4566  284 mt 4526  284 L
 555  328 mt 
(4) s
 656  284 mt 4566  284 L
 656 3366 mt 4566 3366 L
4566 3366 mt 4566  284 L
 656 3366 mt  656  284 L
gs 656 284 3911 3083 rc
/c8 { 0.000000 0.000000 1.000000 sr} bdef
c8
0 22 851 2550 2 MP stroke
70 0 816 2550 2 MP stroke
70 0 816 2572 2 MP stroke
0 35 1047 2391 2 MP stroke
71 0 1011 2391 2 MP stroke
71 0 1011 2426 2 MP stroke
0 45 1242 2294 2 MP stroke
70 0 1207 2294 2 MP stroke
70 0 1207 2339 2 MP stroke
0 56 1438 2156 2 MP stroke
71 0 1402 2156 2 MP stroke
71 0 1402 2212 2 MP stroke
0 72 1633 1861 2 MP stroke
70 0 1598 1861 2 MP stroke
70 0 1598 1933 2 MP stroke
0 88 1829 1639 2 MP stroke
71 0 1793 1639 2 MP stroke
71 0 1793 1727 2 MP stroke
0 104 2024 1446 2 MP stroke
70 0 1989 1446 2 MP stroke
70 0 1989 1550 2 MP stroke
0 123 2220 1152 2 MP stroke
71 0 2184 1152 2 MP stroke
71 0 2184 1275 2 MP stroke
0 145 2415 710 2 MP stroke
70 0 2380 710 2 MP stroke
70 0 2380 855 2 MP stroke
0 164 2611 590 2 MP stroke
71 0 2575 590 2 MP stroke
71 0 2575 754 2 MP stroke
0 176 2806 636 2 MP stroke
70 0 2771 636 2 MP stroke
70 0 2771 812 2 MP stroke
0 179 3001 973 2 MP stroke
71 0 2966 973 2 MP stroke
71 0 2966 1152 2 MP stroke
0 177 3197 1244 2 MP stroke
70 0 3162 1244 2 MP stroke
70 0 3162 1421 2 MP stroke
0 170 3393 2013 2 MP stroke
71 0 3357 2013 2 MP stroke
71 0 3357 2183 2 MP stroke
0 168 3588 2816 2 MP stroke
70 0 3553 2816 2 MP stroke
70 0 3553 2984 2 MP stroke
0 166 3783 2791 2 MP stroke
71 0 3748 2791 2 MP stroke
71 0 3748 2957 2 MP stroke
0 166 3979 2931 2 MP stroke
70 0 3944 2931 2 MP stroke
70 0 3944 3097 2 MP stroke
0 166 4175 2939 2 MP stroke
71 0 4139 2939 2 MP stroke
71 0 4139 3105 2 MP stroke
0 166 4370 2940 2 MP stroke
70 0 4335 2940 2 MP stroke
70 0 4335 3106 2 MP stroke
195 1 196 8 196 140 195 -26 195 802 196 765 196 271 195 338 
195 52 196 -111 195 -430 196 -285 195 -185 196 -214 195 -287 196 -133 
195 -92 196 -152 851 2561 19 MP stroke
gr

c8
0 sg
2086 3654 mt 
(Prob. di colorazione) s
 303 1991 mt  -90 rotate
(RACS) s
90 rotate
2180  189 mt 
(RACS con L=10) s

end %%Color Dict

eplot
%%EndObject

epage
end

showpage

%%Trailer
%%EOF
