%!PS-Adobe-3.0 EPSF-3.0
%%Creator: MATLAB, The MathWorks, Inc. Version 8.0.0.783 (R2012b). Operating System: Microsoft Windows 7.
%%Title: C:\SILVIA\UniversitÓ\Presenti\Modellazione E Simulazioni Numeriche\Relazione\percolazione\codici\grafici\Confronto p\Confronto P.eps
%%CreationDate: 06/13/2015  15:42:17
%%DocumentNeededFonts: Helvetica
%%DocumentProcessColors: Cyan Magenta Yellow Black
%%LanguageLevel: 2
%%Pages: 1
%%BoundingBox:     0   256   596   584
%%EndComments

%%BeginProlog
% MathWorks dictionary
/MathWorks 160 dict begin
% definition operators
/bdef {bind def} bind def
/ldef {load def} bind def
/xdef {exch def} bdef
/xstore {exch store} bdef
% operator abbreviations
/c  /clip ldef
/cc /concat ldef
/cp /closepath ldef
/gr /grestore ldef
/gs /gsave ldef
/mt /moveto ldef
/np /newpath ldef
/cm /currentmatrix ldef
/sm /setmatrix ldef
/rm /rmoveto ldef
/rl /rlineto ldef
/s {show newpath} bdef
/sc {setcmykcolor} bdef
/sr /setrgbcolor ldef
/sg /setgray ldef
/w /setlinewidth ldef
/j /setlinejoin ldef
/cap /setlinecap ldef
/rc {rectclip} bdef
/rf {rectfill} bdef
% page state control
/pgsv () def
/bpage {/pgsv save def} bdef
/epage {pgsv restore} bdef
/bplot /gsave ldef
/eplot {stroke grestore} bdef
% orientation switch
/portraitMode 0 def /landscapeMode 1 def /rotateMode 2 def
% coordinate system mappings
/dpi2point 0 def
% font control
/FontSize 0 def
/FMS {/FontSize xstore findfont [FontSize 0 0 FontSize neg 0 0]
  makefont setfont} bdef
/ISOLatin1Encoding where {pop /WindowsLatin1Encoding 256 array bdef
ISOLatin1Encoding WindowsLatin1Encoding copy pop
/.notdef/.notdef/quotesinglbase/florin/quotedblbase/ellipsis/dagger
/daggerdbl/circumflex/perthousand/Scaron/guilsinglleft/OE/.notdef/.notdef
/.notdef/.notdef/quoteleft/quoteright/quotedblleft/quotedblright/bullet
/endash/emdash/tilde/trademark/scaron/guilsinglright/oe/.notdef/.notdef
/Ydieresis WindowsLatin1Encoding 128 32 getinterval astore pop}
{/WindowsLatin1Encoding StandardEncoding bdef} ifelse
/reencode {exch dup where {pop load} {pop StandardEncoding} ifelse
  exch dup 3 1 roll findfont dup length dict begin
  { 1 index /FID ne {def}{pop pop} ifelse } forall
  /Encoding exch def currentdict end definefont pop} bdef
/isroman {findfont /CharStrings get /Agrave known} bdef
/FMSR {3 1 roll 1 index dup isroman {reencode} {pop pop} ifelse
  exch FMS} bdef
/csm {1 dpi2point div -1 dpi2point div scale neg translate
 dup landscapeMode eq {pop -90 rotate}
  {rotateMode eq {90 rotate} if} ifelse} bdef
% line types: solid, dotted, dashed, dotdash
/SO { [] 0 setdash } bdef
/DO { [.5 dpi2point mul 4 dpi2point mul] 0 setdash } bdef
/DA { [6 dpi2point mul] 0 setdash } bdef
/DD { [.5 dpi2point mul 4 dpi2point mul 6 dpi2point mul 4
  dpi2point mul] 0 setdash } bdef
% macros for lines and objects
/L {lineto stroke} bdef
/MP {3 1 roll moveto 1 sub {rlineto} repeat} bdef
/AP {{rlineto} repeat} bdef
/PDlw -1 def
/W {/PDlw currentlinewidth def setlinewidth} def
/PP {closepath eofill} bdef
/DP {closepath stroke} bdef
/MR {4 -2 roll moveto dup  0 exch rlineto exch 0 rlineto
  neg 0 exch rlineto closepath} bdef
/FR {MR stroke} bdef
/PR {MR fill} bdef
/L1i {{currentfile picstr readhexstring pop} image} bdef
/tMatrix matrix def
/MakeOval {newpath tMatrix currentmatrix pop translate scale
0 0 1 0 360 arc tMatrix setmatrix} bdef
/FO {MakeOval stroke} bdef
/PO {MakeOval fill} bdef
/PD {currentlinewidth 2 div 0 360 arc fill
   PDlw -1 eq not {PDlw w /PDlw -1 def} if} def
/FA {newpath tMatrix currentmatrix pop translate scale
  0 0 1 5 -2 roll arc tMatrix setmatrix stroke} bdef
/PA {newpath tMatrix currentmatrix pop	translate 0 0 moveto scale
  0 0 1 5 -2 roll arc closepath tMatrix setmatrix fill} bdef
/FAn {newpath tMatrix currentmatrix pop translate scale
  0 0 1 5 -2 roll arcn tMatrix setmatrix stroke} bdef
/PAn {newpath tMatrix currentmatrix pop translate 0 0 moveto scale
  0 0 1 5 -2 roll arcn closepath tMatrix setmatrix fill} bdef
/vradius 0 def /hradius 0 def /lry 0 def
/lrx 0 def /uly 0 def /ulx 0 def /rad 0 def
/MRR {/vradius xdef /hradius xdef /lry xdef /lrx xdef /uly xdef
  /ulx xdef newpath tMatrix currentmatrix pop ulx hradius add uly
  vradius add translate hradius vradius scale 0 0 1 180 270 arc 
  tMatrix setmatrix lrx hradius sub uly vradius add translate
  hradius vradius scale 0 0 1 270 360 arc tMatrix setmatrix
  lrx hradius sub lry vradius sub translate hradius vradius scale
  0 0 1 0 90 arc tMatrix setmatrix ulx hradius add lry vradius sub
  translate hradius vradius scale 0 0 1 90 180 arc tMatrix setmatrix
  closepath} bdef
/FRR {MRR stroke } bdef
/PRR {MRR fill } bdef
/MlrRR {/lry xdef /lrx xdef /uly xdef /ulx xdef /rad lry uly sub 2 div def
  newpath tMatrix currentmatrix pop ulx rad add uly rad add translate
  rad rad scale 0 0 1 90 270 arc tMatrix setmatrix lrx rad sub lry rad
  sub translate rad rad scale 0 0 1 270 90 arc tMatrix setmatrix
  closepath} bdef
/FlrRR {MlrRR stroke } bdef
/PlrRR {MlrRR fill } bdef
/MtbRR {/lry xdef /lrx xdef /uly xdef /ulx xdef /rad lrx ulx sub 2 div def
  newpath tMatrix currentmatrix pop ulx rad add uly rad add translate
  rad rad scale 0 0 1 180 360 arc tMatrix setmatrix lrx rad sub lry rad
  sub translate rad rad scale 0 0 1 0 180 arc tMatrix setmatrix
  closepath} bdef
/FtbRR {MtbRR stroke } bdef
/PtbRR {MtbRR fill } bdef
/stri 6 array def /dtri 6 array def
/smat 6 array def /dmat 6 array def
/tmat1 6 array def /tmat2 6 array def /dif 3 array def
/asub {/ind2 exch def /ind1 exch def dup dup
  ind1 get exch ind2 get sub exch } bdef
/tri_to_matrix {
  2 0 asub 3 1 asub 4 0 asub 5 1 asub
  dup 0 get exch 1 get 7 -1 roll astore } bdef
/compute_transform {
  dmat dtri tri_to_matrix tmat1 invertmatrix 
  smat stri tri_to_matrix tmat2 concatmatrix } bdef
/ds {stri astore pop} bdef
/dt {dtri astore pop} bdef
/db {2 copy /cols xdef /rows xdef mul dup 3 mul string
  currentfile 
  3 index 0 eq {/ASCIIHexDecode filter}
  {/ASCII85Decode filter 3 index 2 eq {/RunLengthDecode filter} if }
  ifelse exch readstring pop
  dup 0 3 index getinterval /rbmap xdef
  dup 2 index dup getinterval /gbmap xdef
  1 index dup 2 mul exch getinterval /bbmap xdef pop pop}bdef
/it {gs np dtri aload pop moveto lineto lineto cp c
  cols rows 8 compute_transform 
  rbmap gbmap bbmap true 3 colorimage gr}bdef
/il {newpath moveto lineto stroke}bdef
currentdict end def
%%EndProlog

%%BeginSetup
MathWorks begin

0 cap

end
%%EndSetup

%%Page: 1 1
%%BeginPageSetup
%%PageBoundingBox:     0   256   596   584
MathWorks begin
bpage
%%EndPageSetup

%%BeginObject: obj1
bplot

/dpi2point 12 def
portraitMode 0000 7008 csm

    0     0  7152  3926 rc
86 dict begin %Colortable dictionary
/c0 { 0.000000 0.000000 0.000000 sr} bdef
/c1 { 1.000000 1.000000 1.000000 sr} bdef
/c2 { 0.900000 0.000000 0.000000 sr} bdef
/c3 { 0.000000 0.820000 0.000000 sr} bdef
/c4 { 0.000000 0.000000 0.800000 sr} bdef
/c5 { 0.910000 0.820000 0.320000 sr} bdef
/c6 { 1.000000 0.260000 0.820000 sr} bdef
/c7 { 0.000000 0.820000 0.820000 sr} bdef
c0
1 j
1 sg
   0    0 7153 3927 rf
6 w
0 3200 6432 0 0 -3200 513 3494 4 MP
PP
-6432 0 0 3200 6432 0 0 -3200 513 3494 5 MP stroke
4 w
DO
0 sg
 513 3494 mt  513  294 L
 513  294 mt  513  294 L
1156 3494 mt 1156  294 L
1156  294 mt 1156  294 L
1799 3494 mt 1799  294 L
1799  294 mt 1799  294 L
2442 3494 mt 2442  294 L
2442  294 mt 2442  294 L
3085 3494 mt 3085  294 L
3085  294 mt 3085  294 L
3729 3494 mt 3729  294 L
3729  294 mt 3729  294 L
4372 3494 mt 4372  294 L
4372  294 mt 4372  294 L
5015 3494 mt 5015  294 L
5015  294 mt 5015  294 L
5658 3494 mt 5658  294 L
5658  294 mt 5658  294 L
6301 3494 mt 6301  294 L
6301  294 mt 6301  294 L
6945 3494 mt 6945  294 L
6945  294 mt 6945  294 L
 513 3494 mt 6945 3494 L
6945 3494 mt 6945 3494 L
 513 3138 mt 6945 3138 L
6945 3138 mt 6945 3138 L
 513 2782 mt 6945 2782 L
6945 2782 mt 6945 2782 L
 513 2427 mt 6945 2427 L
6945 2427 mt 6945 2427 L
 513 2071 mt 6945 2071 L
6945 2071 mt 6945 2071 L
 513 1716 mt 6945 1716 L
6945 1716 mt 6945 1716 L
 513 1360 mt 6945 1360 L
6945 1360 mt 6945 1360 L
 513 1005 mt 6945 1005 L
6945 1005 mt 6945 1005 L
 513  649 mt 6945  649 L
6945  649 mt 6945  649 L
 513  294 mt 6945  294 L
6945  294 mt 6945  294 L
SO
6 w
 513  294 mt 6945  294 L
 513 3494 mt 6945 3494 L
6945 3494 mt 6945  294 L
 513 3494 mt  513  294 L
 513 3494 mt 6945 3494 L
 513 3494 mt  513  294 L
 513 3494 mt  513 3429 L
 513  294 mt  513  358 L
%%IncludeResource: font Helvetica
/Helvetica /WindowsLatin1Encoding 120 FMSR

 480 3639 mt 
(0) s
1156 3494 mt 1156 3429 L
1156  294 mt 1156  358 L
1073 3639 mt 
(0.1) s
1799 3494 mt 1799 3429 L
1799  294 mt 1799  358 L
1716 3639 mt 
(0.2) s
2442 3494 mt 2442 3429 L
2442  294 mt 2442  358 L
2359 3639 mt 
(0.3) s
3085 3494 mt 3085 3429 L
3085  294 mt 3085  358 L
3002 3639 mt 
(0.4) s
3729 3494 mt 3729 3429 L
3729  294 mt 3729  358 L
3646 3639 mt 
(0.5) s
4372 3494 mt 4372 3429 L
4372  294 mt 4372  358 L
4289 3639 mt 
(0.6) s
5015 3494 mt 5015 3429 L
5015  294 mt 5015  358 L
4932 3639 mt 
(0.7) s
5658 3494 mt 5658 3429 L
5658  294 mt 5658  358 L
5575 3639 mt 
(0.8) s
6301 3494 mt 6301 3429 L
6301  294 mt 6301  358 L
6218 3639 mt 
(0.9) s
6945 3494 mt 6945 3429 L
6945  294 mt 6945  358 L
6912 3639 mt 
(1) s
 513 3494 mt  577 3494 L
6945 3494 mt 6880 3494 L
 412 3538 mt 
(0) s
 513 3138 mt  577 3138 L
6945 3138 mt 6880 3138 L
 345 3182 mt 
(50) s
 513 2782 mt  577 2782 L
6945 2782 mt 6880 2782 L
 278 2826 mt 
(100) s
 513 2427 mt  577 2427 L
6945 2427 mt 6880 2427 L
 278 2471 mt 
(150) s
 513 2071 mt  577 2071 L
6945 2071 mt 6880 2071 L
 278 2115 mt 
(200) s
 513 1716 mt  577 1716 L
6945 1716 mt 6880 1716 L
 278 1760 mt 
(250) s
 513 1360 mt  577 1360 L
6945 1360 mt 6880 1360 L
 278 1404 mt 
(300) s
 513 1005 mt  577 1005 L
6945 1005 mt 6880 1005 L
 278 1049 mt 
(350) s
 513  649 mt  577  649 L
6945  649 mt 6880  649 L
 278  693 mt 
(400) s
 513  294 mt  577  294 L
6945  294 mt 6880  294 L
 278  338 mt 
(450) s
 513  294 mt 6945  294 L
 513 3494 mt 6945 3494 L
6945 3494 mt 6945  294 L
 513 3494 mt  513  294 L
gs 513 294 6433 3201 rc
/c8 { 0.000000 0.000000 1.000000 sr} bdef
c8
577 3260 PD
116 0 519 3260 2 MP stroke
116 0 519 3260 2 MP stroke
0 243 1220 3017 2 MP stroke
116 0 1162 3017 2 MP stroke
116 0 1162 3260 2 MP stroke
0 262 1863 2897 2 MP stroke
116 0 1805 2897 2 MP stroke
116 0 1805 3159 2 MP stroke
0 296 2506 2764 2 MP stroke
115 0 2449 2764 2 MP stroke
115 0 2449 3060 2 MP stroke
0 264 3150 2715 2 MP stroke
116 0 3092 2715 2 MP stroke
116 0 3092 2979 2 MP stroke
0 225 3793 2703 2 MP stroke
116 0 3735 2703 2 MP stroke
116 0 3735 2928 2 MP stroke
0 368 4436 2474 2 MP stroke
116 0 4378 2474 2 MP stroke
116 0 4378 2842 2 MP stroke
0 774 5079 1918 2 MP stroke
116 0 5021 1918 2 MP stroke
116 0 5021 2692 2 MP stroke
0 1120 5722 1301 2 MP stroke
115 0 5665 1301 2 MP stroke
115 0 5665 2421 2 MP stroke
0 1512 6366 539 2 MP stroke
116 0 6308 539 2 MP stroke
116 0 6308 2051 2 MP stroke
644 -566 643 -444 643 -353 643 -157 643 -32 644 -65 643 -116 643 -110 
643 -122 577 3260 10 MP stroke
/c9 { 0.000000 1.000000 0.000000 sr} bdef
c9
577 3477 PD
116 0 519 3477 2 MP stroke
116 0 519 3477 2 MP stroke
0 7 1220 3470 2 MP stroke
116 0 1162 3470 2 MP stroke
116 0 1162 3477 2 MP stroke
0 28 1863 3446 2 MP stroke
116 0 1805 3446 2 MP stroke
116 0 1805 3474 2 MP stroke
0 53 2506 3409 2 MP stroke
115 0 2449 3409 2 MP stroke
115 0 2449 3462 2 MP stroke
0 78 3150 3363 2 MP stroke
116 0 3092 3363 2 MP stroke
116 0 3092 3441 2 MP stroke
0 96 3793 3318 2 MP stroke
116 0 3735 3318 2 MP stroke
116 0 3735 3414 2 MP stroke
0 98 4436 3289 2 MP stroke
116 0 4378 3289 2 MP stroke
116 0 4378 3387 2 MP stroke
0 87 5079 3287 2 MP stroke
116 0 5021 3287 2 MP stroke
116 0 5021 3374 2 MP stroke
0 77 5722 3297 2 MP stroke
115 0 5665 3297 2 MP stroke
115 0 5665 3374 2 MP stroke
0 71 6366 3308 2 MP stroke
116 0 6308 3308 2 MP stroke
116 0 6308 3379 2 MP stroke
644 7 643 5 643 -7 643 -28 643 -36 644 -34 643 -24 643 -14 
643 -3 577 3477 10 MP stroke
gr

c9
0 sg
3297 3782 mt 
(p. di colorazione) s
 196 2062 mt  -90 rotate
(tempo) s
90 rotate
1225  199 mt 
(Confronto algortimi: dimensione reticoli \(L\) 200, numero di\
 tentativi per probabilit\340 fissato 1000) s
 434 3592 mt 
( ) s
6867  391 mt 
( ) s
1 sg
0 378 2382 0 0 -378 806 869 4 MP
PP
-2382 0 0 378 2382 0 0 -378 806 869 5 MP stroke
4 w
DO
SO
6 w
0 sg
 806  491 mt 3188  491 L
 806  869 mt 3188  869 L
3188  869 mt 3188  491 L
 806  869 mt  806  491 L
 806  869 mt 3188  869 L
 806  869 mt  806  491 L
 806  491 mt 3188  491 L
 806  869 mt 3188  869 L
3188  869 mt 3188  491 L
 806  869 mt  806  491 L
1288  638 mt 
(tempo algoritmo etichetta) s
gs 806 491 2383 379 rc
c8
370 0 880 596 2 MP stroke
gr

c8
0 sg
1288  807 mt 
(tempo algoritmo hoshen-kopelman) s
gs 806 491 2383 379 rc
c9
370 0 880 764 2 MP stroke
gr

c9

end %%Color Dict

eplot
%%EndObject

epage
end

showpage

%%Trailer
%%EOF
