%!PS-Adobe-3.0 EPSF-3.0
%%Creator: MATLAB, The MathWorks, Inc. Version 8.0.0.783 (R2012b). Operating System: Microsoft Windows 7.
%%Title: C:\SILVIA\UniversitÓ\Presenti\Modellazione E Simulazioni Numeriche\Relazione\percolazione\codici\nuovi grafici\RACS\RACS10.eps
%%CreationDate: 06/16/2015  13:47:58
%%DocumentNeededFonts: Helvetica
%%DocumentProcessColors: Cyan Magenta Yellow Black
%%LanguageLevel: 2
%%Pages: 1
%%BoundingBox:   105   278   489   562
%%EndComments

%%BeginProlog
% MathWorks dictionary
/MathWorks 160 dict begin
% definition operators
/bdef {bind def} bind def
/ldef {load def} bind def
/xdef {exch def} bdef
/xstore {exch store} bdef
% operator abbreviations
/c  /clip ldef
/cc /concat ldef
/cp /closepath ldef
/gr /grestore ldef
/gs /gsave ldef
/mt /moveto ldef
/np /newpath ldef
/cm /currentmatrix ldef
/sm /setmatrix ldef
/rm /rmoveto ldef
/rl /rlineto ldef
/s {show newpath} bdef
/sc {setcmykcolor} bdef
/sr /setrgbcolor ldef
/sg /setgray ldef
/w /setlinewidth ldef
/j /setlinejoin ldef
/cap /setlinecap ldef
/rc {rectclip} bdef
/rf {rectfill} bdef
% page state control
/pgsv () def
/bpage {/pgsv save def} bdef
/epage {pgsv restore} bdef
/bplot /gsave ldef
/eplot {stroke grestore} bdef
% orientation switch
/portraitMode 0 def /landscapeMode 1 def /rotateMode 2 def
% coordinate system mappings
/dpi2point 0 def
% font control
/FontSize 0 def
/FMS {/FontSize xstore findfont [FontSize 0 0 FontSize neg 0 0]
  makefont setfont} bdef
/ISOLatin1Encoding where {pop /WindowsLatin1Encoding 256 array bdef
ISOLatin1Encoding WindowsLatin1Encoding copy pop
/.notdef/.notdef/quotesinglbase/florin/quotedblbase/ellipsis/dagger
/daggerdbl/circumflex/perthousand/Scaron/guilsinglleft/OE/.notdef/.notdef
/.notdef/.notdef/quoteleft/quoteright/quotedblleft/quotedblright/bullet
/endash/emdash/tilde/trademark/scaron/guilsinglright/oe/.notdef/.notdef
/Ydieresis WindowsLatin1Encoding 128 32 getinterval astore pop}
{/WindowsLatin1Encoding StandardEncoding bdef} ifelse
/reencode {exch dup where {pop load} {pop StandardEncoding} ifelse
  exch dup 3 1 roll findfont dup length dict begin
  { 1 index /FID ne {def}{pop pop} ifelse } forall
  /Encoding exch def currentdict end definefont pop} bdef
/isroman {findfont /CharStrings get /Agrave known} bdef
/FMSR {3 1 roll 1 index dup isroman {reencode} {pop pop} ifelse
  exch FMS} bdef
/csm {1 dpi2point div -1 dpi2point div scale neg translate
 dup landscapeMode eq {pop -90 rotate}
  {rotateMode eq {90 rotate} if} ifelse} bdef
% line types: solid, dotted, dashed, dotdash
/SO { [] 0 setdash } bdef
/DO { [.5 dpi2point mul 4 dpi2point mul] 0 setdash } bdef
/DA { [6 dpi2point mul] 0 setdash } bdef
/DD { [.5 dpi2point mul 4 dpi2point mul 6 dpi2point mul 4
  dpi2point mul] 0 setdash } bdef
% macros for lines and objects
/L {lineto stroke} bdef
/MP {3 1 roll moveto 1 sub {rlineto} repeat} bdef
/AP {{rlineto} repeat} bdef
/PDlw -1 def
/W {/PDlw currentlinewidth def setlinewidth} def
/PP {closepath eofill} bdef
/DP {closepath stroke} bdef
/MR {4 -2 roll moveto dup  0 exch rlineto exch 0 rlineto
  neg 0 exch rlineto closepath} bdef
/FR {MR stroke} bdef
/PR {MR fill} bdef
/L1i {{currentfile picstr readhexstring pop} image} bdef
/tMatrix matrix def
/MakeOval {newpath tMatrix currentmatrix pop translate scale
0 0 1 0 360 arc tMatrix setmatrix} bdef
/FO {MakeOval stroke} bdef
/PO {MakeOval fill} bdef
/PD {currentlinewidth 2 div 0 360 arc fill
   PDlw -1 eq not {PDlw w /PDlw -1 def} if} def
/FA {newpath tMatrix currentmatrix pop translate scale
  0 0 1 5 -2 roll arc tMatrix setmatrix stroke} bdef
/PA {newpath tMatrix currentmatrix pop	translate 0 0 moveto scale
  0 0 1 5 -2 roll arc closepath tMatrix setmatrix fill} bdef
/FAn {newpath tMatrix currentmatrix pop translate scale
  0 0 1 5 -2 roll arcn tMatrix setmatrix stroke} bdef
/PAn {newpath tMatrix currentmatrix pop translate 0 0 moveto scale
  0 0 1 5 -2 roll arcn closepath tMatrix setmatrix fill} bdef
/vradius 0 def /hradius 0 def /lry 0 def
/lrx 0 def /uly 0 def /ulx 0 def /rad 0 def
/MRR {/vradius xdef /hradius xdef /lry xdef /lrx xdef /uly xdef
  /ulx xdef newpath tMatrix currentmatrix pop ulx hradius add uly
  vradius add translate hradius vradius scale 0 0 1 180 270 arc 
  tMatrix setmatrix lrx hradius sub uly vradius add translate
  hradius vradius scale 0 0 1 270 360 arc tMatrix setmatrix
  lrx hradius sub lry vradius sub translate hradius vradius scale
  0 0 1 0 90 arc tMatrix setmatrix ulx hradius add lry vradius sub
  translate hradius vradius scale 0 0 1 90 180 arc tMatrix setmatrix
  closepath} bdef
/FRR {MRR stroke } bdef
/PRR {MRR fill } bdef
/MlrRR {/lry xdef /lrx xdef /uly xdef /ulx xdef /rad lry uly sub 2 div def
  newpath tMatrix currentmatrix pop ulx rad add uly rad add translate
  rad rad scale 0 0 1 90 270 arc tMatrix setmatrix lrx rad sub lry rad
  sub translate rad rad scale 0 0 1 270 90 arc tMatrix setmatrix
  closepath} bdef
/FlrRR {MlrRR stroke } bdef
/PlrRR {MlrRR fill } bdef
/MtbRR {/lry xdef /lrx xdef /uly xdef /ulx xdef /rad lrx ulx sub 2 div def
  newpath tMatrix currentmatrix pop ulx rad add uly rad add translate
  rad rad scale 0 0 1 180 360 arc tMatrix setmatrix lrx rad sub lry rad
  sub translate rad rad scale 0 0 1 0 180 arc tMatrix setmatrix
  closepath} bdef
/FtbRR {MtbRR stroke } bdef
/PtbRR {MtbRR fill } bdef
/stri 6 array def /dtri 6 array def
/smat 6 array def /dmat 6 array def
/tmat1 6 array def /tmat2 6 array def /dif 3 array def
/asub {/ind2 exch def /ind1 exch def dup dup
  ind1 get exch ind2 get sub exch } bdef
/tri_to_matrix {
  2 0 asub 3 1 asub 4 0 asub 5 1 asub
  dup 0 get exch 1 get 7 -1 roll astore } bdef
/compute_transform {
  dmat dtri tri_to_matrix tmat1 invertmatrix 
  smat stri tri_to_matrix tmat2 concatmatrix } bdef
/ds {stri astore pop} bdef
/dt {dtri astore pop} bdef
/db {2 copy /cols xdef /rows xdef mul dup 3 mul string
  currentfile 
  3 index 0 eq {/ASCIIHexDecode filter}
  {/ASCII85Decode filter 3 index 2 eq {/RunLengthDecode filter} if }
  ifelse exch readstring pop
  dup 0 3 index getinterval /rbmap xdef
  dup 2 index dup getinterval /gbmap xdef
  1 index dup 2 mul exch getinterval /bbmap xdef pop pop}bdef
/it {gs np dtri aload pop moveto lineto lineto cp c
  cols rows 8 compute_transform 
  rbmap gbmap bbmap true 3 colorimage gr}bdef
/il {newpath moveto lineto stroke}bdef
currentdict end def
%%EndProlog

%%BeginSetup
MathWorks begin

0 cap

end
%%EndSetup

%%Page: 1 1
%%BeginPageSetup
%%PageBoundingBox:   105   278   489   562
MathWorks begin
bpage
%%EndPageSetup

%%BeginObject: obj1
bplot

/dpi2point 12 def
portraitMode 1260 6744 csm

    0     0  4612  3404 rc
85 dict begin %Colortable dictionary
/c0 { 0.000000 0.000000 0.000000 sr} bdef
/c1 { 1.000000 1.000000 1.000000 sr} bdef
/c2 { 0.900000 0.000000 0.000000 sr} bdef
/c3 { 0.000000 0.820000 0.000000 sr} bdef
/c4 { 0.000000 0.000000 0.800000 sr} bdef
/c5 { 0.910000 0.820000 0.320000 sr} bdef
/c6 { 1.000000 0.260000 0.820000 sr} bdef
/c7 { 0.000000 0.820000 0.820000 sr} bdef
c0
1 j
1 sg
   0    0 4613 3405 rf
6 w
0 2775 3574 0 0 -2775 600 3030 4 MP
PP
-3574 0 0 2775 3574 0 0 -2775 600 3030 5 MP stroke
4 w
DO
0 sg
 600 3030 mt  600  255 L
 600  255 mt  600  255 L
1314 3030 mt 1314  255 L
1314  255 mt 1314  255 L
2029 3030 mt 2029  255 L
2029  255 mt 2029  255 L
2744 3030 mt 2744  255 L
2744  255 mt 2744  255 L
3459 3030 mt 3459  255 L
3459  255 mt 3459  255 L
4174 3030 mt 4174  255 L
4174  255 mt 4174  255 L
 600 3030 mt 4174 3030 L
4174 3030 mt 4174 3030 L
 600 2683 mt 4174 2683 L
4174 2683 mt 4174 2683 L
 600 2336 mt 4174 2336 L
4174 2336 mt 4174 2336 L
 600 1989 mt 4174 1989 L
4174 1989 mt 4174 1989 L
 600 1642 mt 4174 1642 L
4174 1642 mt 4174 1642 L
 600 1295 mt 4174 1295 L
4174 1295 mt 4174 1295 L
 600  948 mt 4174  948 L
4174  948 mt 4174  948 L
 600  601 mt 4174  601 L
4174  601 mt 4174  601 L
 600  255 mt 4174  255 L
4174  255 mt 4174  255 L
SO
6 w
 600  255 mt 4174  255 L
 600 3030 mt 4174 3030 L
4174 3030 mt 4174  255 L
 600 3030 mt  600  255 L
 600 3030 mt 4174 3030 L
 600 3030 mt  600  255 L
 600 3030 mt  600 2994 L
 600  255 mt  600  290 L
%%IncludeResource: font Helvetica
/Helvetica /WindowsLatin1Encoding 120 FMSR

 567 3175 mt 
(0) s
1314 3030 mt 1314 2994 L
1314  255 mt 1314  290 L
1231 3175 mt 
(0.2) s
2029 3030 mt 2029 2994 L
2029  255 mt 2029  290 L
1946 3175 mt 
(0.4) s
2744 3030 mt 2744 2994 L
2744  255 mt 2744  290 L
2661 3175 mt 
(0.6) s
3459 3030 mt 3459 2994 L
3459  255 mt 3459  290 L
3376 3175 mt 
(0.8) s
4174 3030 mt 4174 2994 L
4174  255 mt 4174  290 L
4141 3175 mt 
(1) s
 600 3030 mt  635 3030 L
4174 3030 mt 4138 3030 L
 499 3074 mt 
(0) s
 600 2683 mt  635 2683 L
4174 2683 mt 4138 2683 L
 399 2727 mt 
(0.5) s
 600 2336 mt  635 2336 L
4174 2336 mt 4138 2336 L
 499 2380 mt 
(1) s
 600 1989 mt  635 1989 L
4174 1989 mt 4138 1989 L
 399 2033 mt 
(1.5) s
 600 1642 mt  635 1642 L
4174 1642 mt 4138 1642 L
 499 1686 mt 
(2) s
 600 1295 mt  635 1295 L
4174 1295 mt 4138 1295 L
 399 1339 mt 
(2.5) s
 600  948 mt  635  948 L
4174  948 mt 4138  948 L
 499  992 mt 
(3) s
 600  601 mt  635  601 L
4174  601 mt 4138  601 L
 399  645 mt 
(3.5) s
 600  255 mt  635  255 L
4174  255 mt 4138  255 L
 499  299 mt 
(4) s
 600  255 mt 4174  255 L
 600 3030 mt 4174 3030 L
4174 3030 mt 4174  255 L
 600 3030 mt  600  255 L
gs 600 255 3575 2776 rc
/c8 { 0.000000 0.000000 1.000000 sr} bdef
c8
0 27 957 2387 2 MP stroke
57 0 928 2387 2 MP stroke
57 0 928 2414 2 MP stroke
0 37 1136 2264 2 MP stroke
57 0 1107 2264 2 MP stroke
57 0 1107 2301 2 MP stroke
0 44 1314 2116 2 MP stroke
57 0 1286 2116 2 MP stroke
57 0 1286 2160 2 MP stroke
0 58 1493 1948 2 MP stroke
58 0 1464 1948 2 MP stroke
58 0 1464 2006 2 MP stroke
0 76 1672 1649 2 MP stroke
57 0 1643 1649 2 MP stroke
57 0 1643 1725 2 MP stroke
0 92 1850 1494 2 MP stroke
57 0 1822 1494 2 MP stroke
57 0 1822 1586 2 MP stroke
0 179 2029 1058 2 MP stroke
57 0 2001 1058 2 MP stroke
57 0 2001 1237 2 MP stroke
0 204 2208 719 2 MP stroke
57 0 2179 719 2 MP stroke
57 0 2179 923 2 MP stroke
0 271 2387 534 2 MP stroke
57 0 2358 534 2 MP stroke
57 0 2358 805 2 MP stroke
0 331 2565 618 2 MP stroke
57 0 2537 618 2 MP stroke
57 0 2537 949 2 MP stroke
0 362 2744 930 2 MP stroke
57 0 2715 930 2 MP stroke
57 0 2715 1292 2 MP stroke
0 409 2923 1291 2 MP stroke
57 0 2894 1291 2 MP stroke
57 0 2894 1700 2 MP stroke
0 206 3101 2335 2 MP stroke
57 0 3073 2335 2 MP stroke
57 0 3073 2541 2 MP stroke
0 281 3280 2402 2 MP stroke
58 0 3251 2402 2 MP stroke
58 0 3251 2683 2 MP stroke
0 251 3459 2727 2 MP stroke
57 0 3430 2727 2 MP stroke
57 0 3430 2978 2 MP stroke
0 4 3637 3022 2 MP stroke
57 0 3609 3022 2 MP stroke
57 0 3609 3026 2 MP stroke
0 6 3816 3023 2 MP stroke
57 0 3788 3023 2 MP stroke
57 0 3788 3029 2 MP stroke
179 2 178 171 179 311 179 104 178 942 179 385 179 327 178 115 
179 -152 179 -327 179 -392 178 -147 179 -290 179 -161 178 -145 179 -118 
957 2401 17 MP stroke
gr

c8
0 sg
1862 3318 mt 
(Prob. di colorazione) s
 317 1808 mt  -90 rotate
(RACS) s
90 rotate
1956  160 mt 
(RACS con L=10) s

end %%Color Dict

eplot
%%EndObject

epage
end

showpage

%%Trailer
%%EOF
