%!PS-Adobe-3.0 EPSF-3.0
%%Creator: MATLAB, The MathWorks, Inc. Version 8.0.0.783 (R2012b). Operating System: Microsoft Windows 7.
%%Title: C:\SILVIA\UniversitÓ\Presenti\Modellazione E Simulazioni Numeriche\Relazione\percolazione\codici\nuovi grafici\RACS\RACS500.eps
%%CreationDate: 06/16/2015  13:49:26
%%DocumentNeededFonts: Helvetica
%%DocumentProcessColors: Cyan Magenta Yellow Black
%%LanguageLevel: 2
%%Pages: 1
%%BoundingBox:   105   278   489   562
%%EndComments

%%BeginProlog
% MathWorks dictionary
/MathWorks 160 dict begin
% definition operators
/bdef {bind def} bind def
/ldef {load def} bind def
/xdef {exch def} bdef
/xstore {exch store} bdef
% operator abbreviations
/c  /clip ldef
/cc /concat ldef
/cp /closepath ldef
/gr /grestore ldef
/gs /gsave ldef
/mt /moveto ldef
/np /newpath ldef
/cm /currentmatrix ldef
/sm /setmatrix ldef
/rm /rmoveto ldef
/rl /rlineto ldef
/s {show newpath} bdef
/sc {setcmykcolor} bdef
/sr /setrgbcolor ldef
/sg /setgray ldef
/w /setlinewidth ldef
/j /setlinejoin ldef
/cap /setlinecap ldef
/rc {rectclip} bdef
/rf {rectfill} bdef
% page state control
/pgsv () def
/bpage {/pgsv save def} bdef
/epage {pgsv restore} bdef
/bplot /gsave ldef
/eplot {stroke grestore} bdef
% orientation switch
/portraitMode 0 def /landscapeMode 1 def /rotateMode 2 def
% coordinate system mappings
/dpi2point 0 def
% font control
/FontSize 0 def
/FMS {/FontSize xstore findfont [FontSize 0 0 FontSize neg 0 0]
  makefont setfont} bdef
/ISOLatin1Encoding where {pop /WindowsLatin1Encoding 256 array bdef
ISOLatin1Encoding WindowsLatin1Encoding copy pop
/.notdef/.notdef/quotesinglbase/florin/quotedblbase/ellipsis/dagger
/daggerdbl/circumflex/perthousand/Scaron/guilsinglleft/OE/.notdef/.notdef
/.notdef/.notdef/quoteleft/quoteright/quotedblleft/quotedblright/bullet
/endash/emdash/tilde/trademark/scaron/guilsinglright/oe/.notdef/.notdef
/Ydieresis WindowsLatin1Encoding 128 32 getinterval astore pop}
{/WindowsLatin1Encoding StandardEncoding bdef} ifelse
/reencode {exch dup where {pop load} {pop StandardEncoding} ifelse
  exch dup 3 1 roll findfont dup length dict begin
  { 1 index /FID ne {def}{pop pop} ifelse } forall
  /Encoding exch def currentdict end definefont pop} bdef
/isroman {findfont /CharStrings get /Agrave known} bdef
/FMSR {3 1 roll 1 index dup isroman {reencode} {pop pop} ifelse
  exch FMS} bdef
/csm {1 dpi2point div -1 dpi2point div scale neg translate
 dup landscapeMode eq {pop -90 rotate}
  {rotateMode eq {90 rotate} if} ifelse} bdef
% line types: solid, dotted, dashed, dotdash
/SO { [] 0 setdash } bdef
/DO { [.5 dpi2point mul 4 dpi2point mul] 0 setdash } bdef
/DA { [6 dpi2point mul] 0 setdash } bdef
/DD { [.5 dpi2point mul 4 dpi2point mul 6 dpi2point mul 4
  dpi2point mul] 0 setdash } bdef
% macros for lines and objects
/L {lineto stroke} bdef
/MP {3 1 roll moveto 1 sub {rlineto} repeat} bdef
/AP {{rlineto} repeat} bdef
/PDlw -1 def
/W {/PDlw currentlinewidth def setlinewidth} def
/PP {closepath eofill} bdef
/DP {closepath stroke} bdef
/MR {4 -2 roll moveto dup  0 exch rlineto exch 0 rlineto
  neg 0 exch rlineto closepath} bdef
/FR {MR stroke} bdef
/PR {MR fill} bdef
/L1i {{currentfile picstr readhexstring pop} image} bdef
/tMatrix matrix def
/MakeOval {newpath tMatrix currentmatrix pop translate scale
0 0 1 0 360 arc tMatrix setmatrix} bdef
/FO {MakeOval stroke} bdef
/PO {MakeOval fill} bdef
/PD {currentlinewidth 2 div 0 360 arc fill
   PDlw -1 eq not {PDlw w /PDlw -1 def} if} def
/FA {newpath tMatrix currentmatrix pop translate scale
  0 0 1 5 -2 roll arc tMatrix setmatrix stroke} bdef
/PA {newpath tMatrix currentmatrix pop	translate 0 0 moveto scale
  0 0 1 5 -2 roll arc closepath tMatrix setmatrix fill} bdef
/FAn {newpath tMatrix currentmatrix pop translate scale
  0 0 1 5 -2 roll arcn tMatrix setmatrix stroke} bdef
/PAn {newpath tMatrix currentmatrix pop translate 0 0 moveto scale
  0 0 1 5 -2 roll arcn closepath tMatrix setmatrix fill} bdef
/vradius 0 def /hradius 0 def /lry 0 def
/lrx 0 def /uly 0 def /ulx 0 def /rad 0 def
/MRR {/vradius xdef /hradius xdef /lry xdef /lrx xdef /uly xdef
  /ulx xdef newpath tMatrix currentmatrix pop ulx hradius add uly
  vradius add translate hradius vradius scale 0 0 1 180 270 arc 
  tMatrix setmatrix lrx hradius sub uly vradius add translate
  hradius vradius scale 0 0 1 270 360 arc tMatrix setmatrix
  lrx hradius sub lry vradius sub translate hradius vradius scale
  0 0 1 0 90 arc tMatrix setmatrix ulx hradius add lry vradius sub
  translate hradius vradius scale 0 0 1 90 180 arc tMatrix setmatrix
  closepath} bdef
/FRR {MRR stroke } bdef
/PRR {MRR fill } bdef
/MlrRR {/lry xdef /lrx xdef /uly xdef /ulx xdef /rad lry uly sub 2 div def
  newpath tMatrix currentmatrix pop ulx rad add uly rad add translate
  rad rad scale 0 0 1 90 270 arc tMatrix setmatrix lrx rad sub lry rad
  sub translate rad rad scale 0 0 1 270 90 arc tMatrix setmatrix
  closepath} bdef
/FlrRR {MlrRR stroke } bdef
/PlrRR {MlrRR fill } bdef
/MtbRR {/lry xdef /lrx xdef /uly xdef /ulx xdef /rad lrx ulx sub 2 div def
  newpath tMatrix currentmatrix pop ulx rad add uly rad add translate
  rad rad scale 0 0 1 180 360 arc tMatrix setmatrix lrx rad sub lry rad
  sub translate rad rad scale 0 0 1 0 180 arc tMatrix setmatrix
  closepath} bdef
/FtbRR {MtbRR stroke } bdef
/PtbRR {MtbRR fill } bdef
/stri 6 array def /dtri 6 array def
/smat 6 array def /dmat 6 array def
/tmat1 6 array def /tmat2 6 array def /dif 3 array def
/asub {/ind2 exch def /ind1 exch def dup dup
  ind1 get exch ind2 get sub exch } bdef
/tri_to_matrix {
  2 0 asub 3 1 asub 4 0 asub 5 1 asub
  dup 0 get exch 1 get 7 -1 roll astore } bdef
/compute_transform {
  dmat dtri tri_to_matrix tmat1 invertmatrix 
  smat stri tri_to_matrix tmat2 concatmatrix } bdef
/ds {stri astore pop} bdef
/dt {dtri astore pop} bdef
/db {2 copy /cols xdef /rows xdef mul dup 3 mul string
  currentfile 
  3 index 0 eq {/ASCIIHexDecode filter}
  {/ASCII85Decode filter 3 index 2 eq {/RunLengthDecode filter} if }
  ifelse exch readstring pop
  dup 0 3 index getinterval /rbmap xdef
  dup 2 index dup getinterval /gbmap xdef
  1 index dup 2 mul exch getinterval /bbmap xdef pop pop}bdef
/it {gs np dtri aload pop moveto lineto lineto cp c
  cols rows 8 compute_transform 
  rbmap gbmap bbmap true 3 colorimage gr}bdef
/il {newpath moveto lineto stroke}bdef
currentdict end def
%%EndProlog

%%BeginSetup
MathWorks begin

0 cap

end
%%EndSetup

%%Page: 1 1
%%BeginPageSetup
%%PageBoundingBox:   105   278   489   562
MathWorks begin
bpage
%%EndPageSetup

%%BeginObject: obj1
bplot

/dpi2point 12 def
portraitMode 1260 6744 csm

    0     0  4612  3404 rc
85 dict begin %Colortable dictionary
/c0 { 0.000000 0.000000 0.000000 sr} bdef
/c1 { 1.000000 1.000000 1.000000 sr} bdef
/c2 { 0.900000 0.000000 0.000000 sr} bdef
/c3 { 0.000000 0.820000 0.000000 sr} bdef
/c4 { 0.000000 0.000000 0.800000 sr} bdef
/c5 { 0.910000 0.820000 0.320000 sr} bdef
/c6 { 1.000000 0.260000 0.820000 sr} bdef
/c7 { 0.000000 0.820000 0.820000 sr} bdef
c0
1 j
1 sg
   0    0 4613 3405 rf
6 w
0 2776 3574 0 0 -2776 600 3030 4 MP
PP
-3574 0 0 2776 3574 0 0 -2776 600 3030 5 MP stroke
4 w
DO
0 sg
 600 3030 mt  600  255 L
 600  255 mt  600  255 L
1314 3030 mt 1314  255 L
1314  255 mt 1314  255 L
2029 3030 mt 2029  255 L
2029  255 mt 2029  255 L
2744 3030 mt 2744  255 L
2744  255 mt 2744  255 L
3459 3030 mt 3459  255 L
3459  255 mt 3459  255 L
4174 3030 mt 4174  255 L
4174  255 mt 4174  255 L
 600 3030 mt 4174 3030 L
4174 3030 mt 4174 3030 L
 600 2475 mt 4174 2475 L
4174 2475 mt 4174 2475 L
 600 1920 mt 4174 1920 L
4174 1920 mt 4174 1920 L
 600 1365 mt 4174 1365 L
4174 1365 mt 4174 1365 L
 600  810 mt 4174  810 L
4174  810 mt 4174  810 L
 600  255 mt 4174  255 L
4174  255 mt 4174  255 L
SO
6 w
 600  254 mt 4174  254 L
 600 3030 mt 4174 3030 L
4174 3030 mt 4174  254 L
 600 3030 mt  600  254 L
 600 3030 mt 4174 3030 L
 600 3030 mt  600  254 L
 600 3030 mt  600 2994 L
 600  255 mt  600  290 L
%%IncludeResource: font Helvetica
/Helvetica /WindowsLatin1Encoding 120 FMSR

 567 3175 mt 
(0) s
1314 3030 mt 1314 2994 L
1314  255 mt 1314  290 L
1231 3175 mt 
(0.2) s
2029 3030 mt 2029 2994 L
2029  255 mt 2029  290 L
1946 3175 mt 
(0.4) s
2744 3030 mt 2744 2994 L
2744  255 mt 2744  290 L
2661 3175 mt 
(0.6) s
3459 3030 mt 3459 2994 L
3459  255 mt 3459  290 L
3376 3175 mt 
(0.8) s
4174 3030 mt 4174 2994 L
4174  255 mt 4174  290 L
4141 3175 mt 
(1) s
 600 3030 mt  635 3030 L
4174 3030 mt 4138 3030 L
 499 3074 mt 
(0) s
 600 2475 mt  635 2475 L
4174 2475 mt 4138 2475 L
 365 2519 mt 
(500) s
 600 1920 mt  635 1920 L
4174 1920 mt 4138 1920 L
 299 1964 mt 
(1000) s
 600 1365 mt  635 1365 L
4174 1365 mt 4138 1365 L
 299 1409 mt 
(1500) s
 600  810 mt  635  810 L
4174  810 mt 4138  810 L
 299  854 mt 
(2000) s
 600  255 mt  635  255 L
4174  255 mt 4138  255 L
 299  299 mt 
(2500) s
 600  254 mt 4174  254 L
 600 3030 mt 4174 3030 L
4174 3030 mt 4174  254 L
 600 3030 mt  600  254 L
gs 600 255 3575 2776 rc
/c8 { 0.000000 0.000000 1.000000 sr} bdef
c8
957 3028 PD
57 0 928 3028 2 MP stroke
57 0 928 3028 2 MP stroke
1136 3027 PD
57 0 1107 3027 2 MP stroke
57 0 1107 3027 2 MP stroke
1314 3027 PD
57 0 1286 3027 2 MP stroke
57 0 1286 3027 2 MP stroke
1493 3026 PD
58 0 1464 3026 2 MP stroke
58 0 1464 3026 2 MP stroke
1672 3024 PD
57 0 1643 3024 2 MP stroke
57 0 1643 3024 2 MP stroke
1850 3021 PD
57 0 1822 3021 2 MP stroke
57 0 1822 3021 2 MP stroke
2029 3016 PD
57 0 2001 3016 2 MP stroke
57 0 2001 3016 2 MP stroke
2208 3004 PD
57 0 2179 3004 2 MP stroke
57 0 2179 3004 2 MP stroke
2387 2967 PD
57 0 2358 2967 2 MP stroke
57 0 2358 2967 2 MP stroke
0 7 2565 2724 2 MP stroke
57 0 2537 2724 2 MP stroke
57 0 2537 2731 2 MP stroke
0 822 2744 356 2 MP stroke
57 0 2715 356 2 MP stroke
57 0 2715 1178 2 MP stroke
2923 3028 PD
57 0 2894 3028 2 MP stroke
57 0 2894 3028 2 MP stroke
3101 3029 PD
57 0 3073 3029 2 MP stroke
57 0 3073 3029 2 MP stroke
3280 3029 PD
58 0 3251 3029 2 MP stroke
58 0 3251 3029 2 MP stroke
3459 3029 PD
57 0 3430 3029 2 MP stroke
57 0 3430 3029 2 MP stroke
3637 3029 PD
57 0 3609 3029 2 MP stroke
57 0 3609 3029 2 MP stroke
3816 3029 PD
57 0 3788 3029 2 MP stroke
57 0 3788 3029 2 MP stroke
179 0 178 0 179 0 179 0 178 1 179 2261 179 -1961 178 -239 
179 -37 179 -12 179 -5 178 -3 179 -2 179 -1 178 0 179 -1 
957 3028 17 MP stroke
gr

c8
0 sg
1862 3318 mt 
(Prob. di colorazione) s
 217 1808 mt  -90 rotate
(RACS) s
90 rotate
1923  160 mt 
(RACS con L=500) s

end %%Color Dict

eplot
%%EndObject

epage
end

showpage

%%Trailer
%%EOF
