%!PS-Adobe-3.0 EPSF-3.0
%%Creator: MATLAB, The MathWorks, Inc. Version 8.0.0.783 (R2012b). Operating System: Microsoft Windows 7.
%%Title: C:\SILVIA\UniversitÓ\Presenti\Modellazione E Simulazioni Numeriche\Relazione\percolazione\codici\grafici\Zoom\Zoom2.eps
%%CreationDate: 06/14/2015  22:49:43
%%DocumentNeededFonts: Helvetica
%%DocumentProcessColors: Cyan Magenta Yellow Black
%%LanguageLevel: 2
%%Pages: 1
%%BoundingBox:    87   265   507   576
%%EndComments

%%BeginProlog
% MathWorks dictionary
/MathWorks 160 dict begin
% definition operators
/bdef {bind def} bind def
/ldef {load def} bind def
/xdef {exch def} bdef
/xstore {exch store} bdef
% operator abbreviations
/c  /clip ldef
/cc /concat ldef
/cp /closepath ldef
/gr /grestore ldef
/gs /gsave ldef
/mt /moveto ldef
/np /newpath ldef
/cm /currentmatrix ldef
/sm /setmatrix ldef
/rm /rmoveto ldef
/rl /rlineto ldef
/s {show newpath} bdef
/sc {setcmykcolor} bdef
/sr /setrgbcolor ldef
/sg /setgray ldef
/w /setlinewidth ldef
/j /setlinejoin ldef
/cap /setlinecap ldef
/rc {rectclip} bdef
/rf {rectfill} bdef
% page state control
/pgsv () def
/bpage {/pgsv save def} bdef
/epage {pgsv restore} bdef
/bplot /gsave ldef
/eplot {stroke grestore} bdef
% orientation switch
/portraitMode 0 def /landscapeMode 1 def /rotateMode 2 def
% coordinate system mappings
/dpi2point 0 def
% font control
/FontSize 0 def
/FMS {/FontSize xstore findfont [FontSize 0 0 FontSize neg 0 0]
  makefont setfont} bdef
/ISOLatin1Encoding where {pop /WindowsLatin1Encoding 256 array bdef
ISOLatin1Encoding WindowsLatin1Encoding copy pop
/.notdef/.notdef/quotesinglbase/florin/quotedblbase/ellipsis/dagger
/daggerdbl/circumflex/perthousand/Scaron/guilsinglleft/OE/.notdef/.notdef
/.notdef/.notdef/quoteleft/quoteright/quotedblleft/quotedblright/bullet
/endash/emdash/tilde/trademark/scaron/guilsinglright/oe/.notdef/.notdef
/Ydieresis WindowsLatin1Encoding 128 32 getinterval astore pop}
{/WindowsLatin1Encoding StandardEncoding bdef} ifelse
/reencode {exch dup where {pop load} {pop StandardEncoding} ifelse
  exch dup 3 1 roll findfont dup length dict begin
  { 1 index /FID ne {def}{pop pop} ifelse } forall
  /Encoding exch def currentdict end definefont pop} bdef
/isroman {findfont /CharStrings get /Agrave known} bdef
/FMSR {3 1 roll 1 index dup isroman {reencode} {pop pop} ifelse
  exch FMS} bdef
/csm {1 dpi2point div -1 dpi2point div scale neg translate
 dup landscapeMode eq {pop -90 rotate}
  {rotateMode eq {90 rotate} if} ifelse} bdef
% line types: solid, dotted, dashed, dotdash
/SO { [] 0 setdash } bdef
/DO { [.5 dpi2point mul 4 dpi2point mul] 0 setdash } bdef
/DA { [6 dpi2point mul] 0 setdash } bdef
/DD { [.5 dpi2point mul 4 dpi2point mul 6 dpi2point mul 4
  dpi2point mul] 0 setdash } bdef
% macros for lines and objects
/L {lineto stroke} bdef
/MP {3 1 roll moveto 1 sub {rlineto} repeat} bdef
/AP {{rlineto} repeat} bdef
/PDlw -1 def
/W {/PDlw currentlinewidth def setlinewidth} def
/PP {closepath eofill} bdef
/DP {closepath stroke} bdef
/MR {4 -2 roll moveto dup  0 exch rlineto exch 0 rlineto
  neg 0 exch rlineto closepath} bdef
/FR {MR stroke} bdef
/PR {MR fill} bdef
/L1i {{currentfile picstr readhexstring pop} image} bdef
/tMatrix matrix def
/MakeOval {newpath tMatrix currentmatrix pop translate scale
0 0 1 0 360 arc tMatrix setmatrix} bdef
/FO {MakeOval stroke} bdef
/PO {MakeOval fill} bdef
/PD {currentlinewidth 2 div 0 360 arc fill
   PDlw -1 eq not {PDlw w /PDlw -1 def} if} def
/FA {newpath tMatrix currentmatrix pop translate scale
  0 0 1 5 -2 roll arc tMatrix setmatrix stroke} bdef
/PA {newpath tMatrix currentmatrix pop	translate 0 0 moveto scale
  0 0 1 5 -2 roll arc closepath tMatrix setmatrix fill} bdef
/FAn {newpath tMatrix currentmatrix pop translate scale
  0 0 1 5 -2 roll arcn tMatrix setmatrix stroke} bdef
/PAn {newpath tMatrix currentmatrix pop translate 0 0 moveto scale
  0 0 1 5 -2 roll arcn closepath tMatrix setmatrix fill} bdef
/vradius 0 def /hradius 0 def /lry 0 def
/lrx 0 def /uly 0 def /ulx 0 def /rad 0 def
/MRR {/vradius xdef /hradius xdef /lry xdef /lrx xdef /uly xdef
  /ulx xdef newpath tMatrix currentmatrix pop ulx hradius add uly
  vradius add translate hradius vradius scale 0 0 1 180 270 arc 
  tMatrix setmatrix lrx hradius sub uly vradius add translate
  hradius vradius scale 0 0 1 270 360 arc tMatrix setmatrix
  lrx hradius sub lry vradius sub translate hradius vradius scale
  0 0 1 0 90 arc tMatrix setmatrix ulx hradius add lry vradius sub
  translate hradius vradius scale 0 0 1 90 180 arc tMatrix setmatrix
  closepath} bdef
/FRR {MRR stroke } bdef
/PRR {MRR fill } bdef
/MlrRR {/lry xdef /lrx xdef /uly xdef /ulx xdef /rad lry uly sub 2 div def
  newpath tMatrix currentmatrix pop ulx rad add uly rad add translate
  rad rad scale 0 0 1 90 270 arc tMatrix setmatrix lrx rad sub lry rad
  sub translate rad rad scale 0 0 1 270 90 arc tMatrix setmatrix
  closepath} bdef
/FlrRR {MlrRR stroke } bdef
/PlrRR {MlrRR fill } bdef
/MtbRR {/lry xdef /lrx xdef /uly xdef /ulx xdef /rad lrx ulx sub 2 div def
  newpath tMatrix currentmatrix pop ulx rad add uly rad add translate
  rad rad scale 0 0 1 180 360 arc tMatrix setmatrix lrx rad sub lry rad
  sub translate rad rad scale 0 0 1 0 180 arc tMatrix setmatrix
  closepath} bdef
/FtbRR {MtbRR stroke } bdef
/PtbRR {MtbRR fill } bdef
/stri 6 array def /dtri 6 array def
/smat 6 array def /dmat 6 array def
/tmat1 6 array def /tmat2 6 array def /dif 3 array def
/asub {/ind2 exch def /ind1 exch def dup dup
  ind1 get exch ind2 get sub exch } bdef
/tri_to_matrix {
  2 0 asub 3 1 asub 4 0 asub 5 1 asub
  dup 0 get exch 1 get 7 -1 roll astore } bdef
/compute_transform {
  dmat dtri tri_to_matrix tmat1 invertmatrix 
  smat stri tri_to_matrix tmat2 concatmatrix } bdef
/ds {stri astore pop} bdef
/dt {dtri astore pop} bdef
/db {2 copy /cols xdef /rows xdef mul dup 3 mul string
  currentfile 
  3 index 0 eq {/ASCIIHexDecode filter}
  {/ASCII85Decode filter 3 index 2 eq {/RunLengthDecode filter} if }
  ifelse exch readstring pop
  dup 0 3 index getinterval /rbmap xdef
  dup 2 index dup getinterval /gbmap xdef
  1 index dup 2 mul exch getinterval /bbmap xdef pop pop}bdef
/it {gs np dtri aload pop moveto lineto lineto cp c
  cols rows 8 compute_transform 
  rbmap gbmap bbmap true 3 colorimage gr}bdef
/il {newpath moveto lineto stroke}bdef
currentdict end def
%%EndProlog

%%BeginSetup
MathWorks begin

0 cap

end
%%EndSetup

%%Page: 1 1
%%BeginPageSetup
%%PageBoundingBox:    87   265   507   576
MathWorks begin
bpage
%%EndPageSetup

%%BeginObject: obj1
bplot

/dpi2point 12 def
portraitMode 1044 6912 csm

    0     0  5045  3728 rc
85 dict begin %Colortable dictionary
/c0 { 0.000000 0.000000 0.000000 sr} bdef
/c1 { 1.000000 1.000000 1.000000 sr} bdef
/c2 { 0.900000 0.000000 0.000000 sr} bdef
/c3 { 0.000000 0.820000 0.000000 sr} bdef
/c4 { 0.000000 0.000000 0.800000 sr} bdef
/c5 { 0.910000 0.820000 0.320000 sr} bdef
/c6 { 1.000000 0.260000 0.820000 sr} bdef
/c7 { 0.000000 0.820000 0.820000 sr} bdef
c0
1 j
1 sg
   0    0 5046 3729 rf
6 w
0 3039 3910 0 0 -3039 655 3318 4 MP
PP
-3910 0 0 3039 3910 0 0 -3039 655 3318 5 MP stroke
4 w
DO
0 sg
1090 3318 mt 1090  280 L
1090  280 mt 1090  280 L
1524 3318 mt 1524  280 L
1524  280 mt 1524  280 L
1959 3318 mt 1959  280 L
1959  280 mt 1959  280 L
2393 3318 mt 2393  280 L
2393  280 mt 2393  280 L
2828 3318 mt 2828  280 L
2828  280 mt 2828  280 L
3262 3318 mt 3262  280 L
3262  280 mt 3262  280 L
3697 3318 mt 3697  280 L
3697  280 mt 3697  280 L
4131 3318 mt 4131  280 L
4131  280 mt 4131  280 L
4565 3318 mt 4565  280 L
4565  280 mt 4565  280 L
 655 3318 mt 4565 3318 L
4565 3318 mt 4565 3318 L
 655 2884 mt 4565 2884 L
4565 2884 mt 4565 2884 L
 655 2450 mt 4565 2450 L
4565 2450 mt 4565 2450 L
 655 2016 mt 4565 2016 L
4565 2016 mt 4565 2016 L
 655 1582 mt 4565 1582 L
4565 1582 mt 4565 1582 L
 655 1148 mt 4565 1148 L
4565 1148 mt 4565 1148 L
 655  714 mt 4565  714 L
4565  714 mt 4565  714 L
 655  280 mt 4565  280 L
4565  280 mt 4565  280 L
SO
6 w
 655  279 mt 4565  279 L
 655 3318 mt 4565 3318 L
4565 3318 mt 4565  279 L
 655 3318 mt  655  279 L
 655 3318 mt 4565 3318 L
 655 3318 mt  655  279 L
1090 3318 mt 1090 3278 L
1090  280 mt 1090  319 L
%%IncludeResource: font Helvetica
/Helvetica /WindowsLatin1Encoding 120 FMSR

 974 3463 mt 
(0.57) s
1524 3318 mt 1524 3278 L
1524  280 mt 1524  319 L
1374 3463 mt 
(0.575) s
1959 3318 mt 1959 3278 L
1959  280 mt 1959  319 L
1843 3463 mt 
(0.58) s
2393 3318 mt 2393 3278 L
2393  280 mt 2393  319 L
2243 3463 mt 
(0.585) s
2828 3318 mt 2828 3278 L
2828  280 mt 2828  319 L
2712 3463 mt 
(0.59) s
3262 3318 mt 3262 3278 L
3262  280 mt 3262  319 L
3112 3463 mt 
(0.595) s
3697 3318 mt 3697 3278 L
3697  280 mt 3697  319 L
3614 3463 mt 
(0.6) s
4131 3318 mt 4131 3278 L
4131  280 mt 4131  319 L
3981 3463 mt 
(0.605) s
4565 3318 mt 4565 3278 L
4565  280 mt 4565  319 L
4449 3463 mt 
(0.61) s
 655 3318 mt  695 3318 L
4565 3318 mt 4526 3318 L
 421 3362 mt 
(500) s
 655 2884 mt  695 2884 L
4565 2884 mt 4526 2884 L
 355 2928 mt 
(1000) s
 655 2450 mt  695 2450 L
4565 2450 mt 4526 2450 L
 355 2494 mt 
(1500) s
 655 2016 mt  695 2016 L
4565 2016 mt 4526 2016 L
 355 2060 mt 
(2000) s
 655 1582 mt  695 1582 L
4565 1582 mt 4526 1582 L
 355 1626 mt 
(2500) s
 655 1148 mt  695 1148 L
4565 1148 mt 4526 1148 L
 355 1192 mt 
(3000) s
 655  714 mt  695  714 L
4565  714 mt 4526  714 L
 355  758 mt 
(3500) s
 655  280 mt  695  280 L
4565  280 mt 4526  280 L
 355  324 mt 
(4000) s
 655  279 mt 4565  279 L
 655 3318 mt 4565 3318 L
4565 3318 mt 4565  279 L
 655 3318 mt  655  279 L
gs 655 280 3911 3039 rc
/c8 { 0.000000 0.000000 1.000000 sr} bdef
c8
0 12 1090 2983 2 MP stroke
52 0 1064 2983 2 MP stroke
52 0 1064 2995 2 MP stroke
0 18 1177 2918 2 MP stroke
52 0 1151 2918 2 MP stroke
52 0 1151 2936 2 MP stroke
0 22 1264 2865 2 MP stroke
52 0 1238 2865 2 MP stroke
52 0 1238 2887 2 MP stroke
0 26 1351 2790 2 MP stroke
52 0 1325 2790 2 MP stroke
52 0 1325 2816 2 MP stroke
0 30 1437 2692 2 MP stroke
53 0 1411 2692 2 MP stroke
53 0 1411 2722 2 MP stroke
0 34 1524 2639 2 MP stroke
52 0 1498 2639 2 MP stroke
52 0 1498 2673 2 MP stroke
0 38 1611 2510 2 MP stroke
52 0 1585 2510 2 MP stroke
52 0 1585 2548 2 MP stroke
0 41 1698 2417 2 MP stroke
52 0 1672 2417 2 MP stroke
52 0 1672 2458 2 MP stroke
0 45 1785 2322 2 MP stroke
52 0 1759 2322 2 MP stroke
52 0 1759 2367 2 MP stroke
0 49 1872 2210 2 MP stroke
52 0 1846 2210 2 MP stroke
52 0 1846 2259 2 MP stroke
0 52 1959 2077 2 MP stroke
52 0 1933 2077 2 MP stroke
52 0 1933 2129 2 MP stroke
0 57 2046 1902 2 MP stroke
52 0 2020 1902 2 MP stroke
52 0 2020 1959 2 MP stroke
0 60 2133 1782 2 MP stroke
52 0 2107 1782 2 MP stroke
52 0 2107 1842 2 MP stroke
0 64 2219 1639 2 MP stroke
53 0 2193 1639 2 MP stroke
53 0 2193 1703 2 MP stroke
0 70 2306 1445 2 MP stroke
52 0 2280 1445 2 MP stroke
52 0 2280 1515 2 MP stroke
0 75 2393 1263 2 MP stroke
52 0 2367 1263 2 MP stroke
52 0 2367 1338 2 MP stroke
0 78 2480 1164 2 MP stroke
52 0 2454 1164 2 MP stroke
52 0 2454 1242 2 MP stroke
0 84 2567 932 2 MP stroke
52 0 2541 932 2 MP stroke
52 0 2541 1016 2 MP stroke
0 87 2654 875 2 MP stroke
52 0 2628 875 2 MP stroke
52 0 2628 962 2 MP stroke
0 90 2741 772 2 MP stroke
52 0 2715 772 2 MP stroke
52 0 2715 862 2 MP stroke
0 95 2828 423 2 MP stroke
52 0 2802 423 2 MP stroke
52 0 2802 518 2 MP stroke
0 97 2915 684 2 MP stroke
52 0 2889 684 2 MP stroke
52 0 2889 781 2 MP stroke
0 98 3001 841 2 MP stroke
53 0 2975 841 2 MP stroke
53 0 2975 939 2 MP stroke
0 98 3088 694 2 MP stroke
52 0 3062 694 2 MP stroke
52 0 3062 792 2 MP stroke
0 98 3175 868 2 MP stroke
52 0 3149 868 2 MP stroke
52 0 3149 966 2 MP stroke
0 96 3262 848 2 MP stroke
52 0 3236 848 2 MP stroke
52 0 3236 944 2 MP stroke
0 92 3349 1363 2 MP stroke
52 0 3323 1363 2 MP stroke
52 0 3323 1455 2 MP stroke
0 87 3436 1547 2 MP stroke
52 0 3410 1547 2 MP stroke
52 0 3410 1634 2 MP stroke
0 82 3523 1932 2 MP stroke
52 0 3497 1932 2 MP stroke
52 0 3497 2014 2 MP stroke
0 76 3610 2036 2 MP stroke
52 0 3584 2036 2 MP stroke
52 0 3584 2112 2 MP stroke
0 69 3697 2450 2 MP stroke
52 0 3671 2450 2 MP stroke
52 0 3671 2519 2 MP stroke
87 410 87 101 87 383 87 181 87 513 87 -21 87 174 87 -147 
86 158 87 262 87 -347 87 -102 87 -55 87 -229 87 -97 87 -180 
87 -191 86 -141 87 -119 87 -172 87 -132 87 -110 87 -93 87 -91 
87 -127 87 -51 86 -96 87 -73 87 -51 87 -62 1090 2989 31 MP stroke
gr

c8
0 sg
2085 3606 mt 
(Prob. di colorazione) s
 273 1965 mt  -90 rotate
(RACS) s
90 rotate
1669  185 mt 
(Ricerca della soglia di percolazione) s

end %%Color Dict

eplot
%%EndObject

epage
end

showpage

%%Trailer
%%EOF
