%!PS-Adobe-3.0 EPSF-3.0
%%Creator: MATLAB, The MathWorks, Inc. Version 8.0.0.783 (R2012b). Operating System: Microsoft Windows 7.
%%Title: C:\SILVIA\UniversitÓ\Presenti\Modellazione E Simulazioni Numeriche\Relazione\percolazione\codici\grafici\Zoom\Zoom3.eps
%%CreationDate: 06/15/2015  10:52:34
%%DocumentNeededFonts: Helvetica
%%DocumentProcessColors: Cyan Magenta Yellow Black
%%LanguageLevel: 2
%%Pages: 1
%%BoundingBox:    87   265   507   576
%%EndComments

%%BeginProlog
% MathWorks dictionary
/MathWorks 160 dict begin
% definition operators
/bdef {bind def} bind def
/ldef {load def} bind def
/xdef {exch def} bdef
/xstore {exch store} bdef
% operator abbreviations
/c  /clip ldef
/cc /concat ldef
/cp /closepath ldef
/gr /grestore ldef
/gs /gsave ldef
/mt /moveto ldef
/np /newpath ldef
/cm /currentmatrix ldef
/sm /setmatrix ldef
/rm /rmoveto ldef
/rl /rlineto ldef
/s {show newpath} bdef
/sc {setcmykcolor} bdef
/sr /setrgbcolor ldef
/sg /setgray ldef
/w /setlinewidth ldef
/j /setlinejoin ldef
/cap /setlinecap ldef
/rc {rectclip} bdef
/rf {rectfill} bdef
% page state control
/pgsv () def
/bpage {/pgsv save def} bdef
/epage {pgsv restore} bdef
/bplot /gsave ldef
/eplot {stroke grestore} bdef
% orientation switch
/portraitMode 0 def /landscapeMode 1 def /rotateMode 2 def
% coordinate system mappings
/dpi2point 0 def
% font control
/FontSize 0 def
/FMS {/FontSize xstore findfont [FontSize 0 0 FontSize neg 0 0]
  makefont setfont} bdef
/ISOLatin1Encoding where {pop /WindowsLatin1Encoding 256 array bdef
ISOLatin1Encoding WindowsLatin1Encoding copy pop
/.notdef/.notdef/quotesinglbase/florin/quotedblbase/ellipsis/dagger
/daggerdbl/circumflex/perthousand/Scaron/guilsinglleft/OE/.notdef/.notdef
/.notdef/.notdef/quoteleft/quoteright/quotedblleft/quotedblright/bullet
/endash/emdash/tilde/trademark/scaron/guilsinglright/oe/.notdef/.notdef
/Ydieresis WindowsLatin1Encoding 128 32 getinterval astore pop}
{/WindowsLatin1Encoding StandardEncoding bdef} ifelse
/reencode {exch dup where {pop load} {pop StandardEncoding} ifelse
  exch dup 3 1 roll findfont dup length dict begin
  { 1 index /FID ne {def}{pop pop} ifelse } forall
  /Encoding exch def currentdict end definefont pop} bdef
/isroman {findfont /CharStrings get /Agrave known} bdef
/FMSR {3 1 roll 1 index dup isroman {reencode} {pop pop} ifelse
  exch FMS} bdef
/csm {1 dpi2point div -1 dpi2point div scale neg translate
 dup landscapeMode eq {pop -90 rotate}
  {rotateMode eq {90 rotate} if} ifelse} bdef
% line types: solid, dotted, dashed, dotdash
/SO { [] 0 setdash } bdef
/DO { [.5 dpi2point mul 4 dpi2point mul] 0 setdash } bdef
/DA { [6 dpi2point mul] 0 setdash } bdef
/DD { [.5 dpi2point mul 4 dpi2point mul 6 dpi2point mul 4
  dpi2point mul] 0 setdash } bdef
% macros for lines and objects
/L {lineto stroke} bdef
/MP {3 1 roll moveto 1 sub {rlineto} repeat} bdef
/AP {{rlineto} repeat} bdef
/PDlw -1 def
/W {/PDlw currentlinewidth def setlinewidth} def
/PP {closepath eofill} bdef
/DP {closepath stroke} bdef
/MR {4 -2 roll moveto dup  0 exch rlineto exch 0 rlineto
  neg 0 exch rlineto closepath} bdef
/FR {MR stroke} bdef
/PR {MR fill} bdef
/L1i {{currentfile picstr readhexstring pop} image} bdef
/tMatrix matrix def
/MakeOval {newpath tMatrix currentmatrix pop translate scale
0 0 1 0 360 arc tMatrix setmatrix} bdef
/FO {MakeOval stroke} bdef
/PO {MakeOval fill} bdef
/PD {currentlinewidth 2 div 0 360 arc fill
   PDlw -1 eq not {PDlw w /PDlw -1 def} if} def
/FA {newpath tMatrix currentmatrix pop translate scale
  0 0 1 5 -2 roll arc tMatrix setmatrix stroke} bdef
/PA {newpath tMatrix currentmatrix pop	translate 0 0 moveto scale
  0 0 1 5 -2 roll arc closepath tMatrix setmatrix fill} bdef
/FAn {newpath tMatrix currentmatrix pop translate scale
  0 0 1 5 -2 roll arcn tMatrix setmatrix stroke} bdef
/PAn {newpath tMatrix currentmatrix pop translate 0 0 moveto scale
  0 0 1 5 -2 roll arcn closepath tMatrix setmatrix fill} bdef
/vradius 0 def /hradius 0 def /lry 0 def
/lrx 0 def /uly 0 def /ulx 0 def /rad 0 def
/MRR {/vradius xdef /hradius xdef /lry xdef /lrx xdef /uly xdef
  /ulx xdef newpath tMatrix currentmatrix pop ulx hradius add uly
  vradius add translate hradius vradius scale 0 0 1 180 270 arc 
  tMatrix setmatrix lrx hradius sub uly vradius add translate
  hradius vradius scale 0 0 1 270 360 arc tMatrix setmatrix
  lrx hradius sub lry vradius sub translate hradius vradius scale
  0 0 1 0 90 arc tMatrix setmatrix ulx hradius add lry vradius sub
  translate hradius vradius scale 0 0 1 90 180 arc tMatrix setmatrix
  closepath} bdef
/FRR {MRR stroke } bdef
/PRR {MRR fill } bdef
/MlrRR {/lry xdef /lrx xdef /uly xdef /ulx xdef /rad lry uly sub 2 div def
  newpath tMatrix currentmatrix pop ulx rad add uly rad add translate
  rad rad scale 0 0 1 90 270 arc tMatrix setmatrix lrx rad sub lry rad
  sub translate rad rad scale 0 0 1 270 90 arc tMatrix setmatrix
  closepath} bdef
/FlrRR {MlrRR stroke } bdef
/PlrRR {MlrRR fill } bdef
/MtbRR {/lry xdef /lrx xdef /uly xdef /ulx xdef /rad lrx ulx sub 2 div def
  newpath tMatrix currentmatrix pop ulx rad add uly rad add translate
  rad rad scale 0 0 1 180 360 arc tMatrix setmatrix lrx rad sub lry rad
  sub translate rad rad scale 0 0 1 0 180 arc tMatrix setmatrix
  closepath} bdef
/FtbRR {MtbRR stroke } bdef
/PtbRR {MtbRR fill } bdef
/stri 6 array def /dtri 6 array def
/smat 6 array def /dmat 6 array def
/tmat1 6 array def /tmat2 6 array def /dif 3 array def
/asub {/ind2 exch def /ind1 exch def dup dup
  ind1 get exch ind2 get sub exch } bdef
/tri_to_matrix {
  2 0 asub 3 1 asub 4 0 asub 5 1 asub
  dup 0 get exch 1 get 7 -1 roll astore } bdef
/compute_transform {
  dmat dtri tri_to_matrix tmat1 invertmatrix 
  smat stri tri_to_matrix tmat2 concatmatrix } bdef
/ds {stri astore pop} bdef
/dt {dtri astore pop} bdef
/db {2 copy /cols xdef /rows xdef mul dup 3 mul string
  currentfile 
  3 index 0 eq {/ASCIIHexDecode filter}
  {/ASCII85Decode filter 3 index 2 eq {/RunLengthDecode filter} if }
  ifelse exch readstring pop
  dup 0 3 index getinterval /rbmap xdef
  dup 2 index dup getinterval /gbmap xdef
  1 index dup 2 mul exch getinterval /bbmap xdef pop pop}bdef
/it {gs np dtri aload pop moveto lineto lineto cp c
  cols rows 8 compute_transform 
  rbmap gbmap bbmap true 3 colorimage gr}bdef
/il {newpath moveto lineto stroke}bdef
currentdict end def
%%EndProlog

%%BeginSetup
MathWorks begin

0 cap

end
%%EndSetup

%%Page: 1 1
%%BeginPageSetup
%%PageBoundingBox:    87   265   507   576
MathWorks begin
bpage
%%EndPageSetup

%%BeginObject: obj1
bplot

/dpi2point 12 def
portraitMode 1044 6912 csm

    0     0  5045  3728 rc
86 dict begin %Colortable dictionary
/c0 { 0.000000 0.000000 0.000000 sr} bdef
/c1 { 1.000000 1.000000 1.000000 sr} bdef
/c2 { 0.900000 0.000000 0.000000 sr} bdef
/c3 { 0.000000 0.820000 0.000000 sr} bdef
/c4 { 0.000000 0.000000 0.800000 sr} bdef
/c5 { 0.910000 0.820000 0.320000 sr} bdef
/c6 { 1.000000 0.260000 0.820000 sr} bdef
/c7 { 0.000000 0.820000 0.820000 sr} bdef
c0
1 j
1 sg
   0    0 5046 3729 rf
6 w
0 3038 3910 0 0 -3038 656 3318 4 MP
PP
-3910 0 0 3038 3910 0 0 -3038 656 3318 5 MP stroke
4 w
DO
0 sg
 656 3318 mt  656  280 L
 656  280 mt  656  280 L
1090 3318 mt 1090  280 L
1090  280 mt 1090  280 L
1524 3318 mt 1524  280 L
1524  280 mt 1524  280 L
1959 3318 mt 1959  280 L
1959  280 mt 1959  280 L
2393 3318 mt 2393  280 L
2393  280 mt 2393  280 L
2828 3318 mt 2828  280 L
2828  280 mt 2828  280 L
3262 3318 mt 3262  280 L
3262  280 mt 3262  280 L
3697 3318 mt 3697  280 L
3697  280 mt 3697  280 L
4131 3318 mt 4131  280 L
4131  280 mt 4131  280 L
4566 3318 mt 4566  280 L
4566  280 mt 4566  280 L
 656 3318 mt 4566 3318 L
4566 3318 mt 4566 3318 L
 656 3014 mt 4566 3014 L
4566 3014 mt 4566 3014 L
 656 2710 mt 4566 2710 L
4566 2710 mt 4566 2710 L
 656 2406 mt 4566 2406 L
4566 2406 mt 4566 2406 L
 656 2102 mt 4566 2102 L
4566 2102 mt 4566 2102 L
 656 1799 mt 4566 1799 L
4566 1799 mt 4566 1799 L
 656 1495 mt 4566 1495 L
4566 1495 mt 4566 1495 L
 656 1191 mt 4566 1191 L
4566 1191 mt 4566 1191 L
 656  887 mt 4566  887 L
4566  887 mt 4566  887 L
 656  583 mt 4566  583 L
4566  583 mt 4566  583 L
 656  280 mt 4566  280 L
4566  280 mt 4566  280 L
SO
6 w
 656 3318 mt 4566 3318 L
 656 3318 mt  656  280 L
 656 3318 mt  656 3278 L
%%IncludeResource: font Helvetica
/Helvetica /WindowsLatin1Encoding 120 FMSR

 540 3463 mt 
(0.54) s
1090 3318 mt 1090 3278 L
 974 3463 mt 
(0.55) s
1524 3318 mt 1524 3278 L
1408 3463 mt 
(0.56) s
1959 3318 mt 1959 3278 L
1843 3463 mt 
(0.57) s
2393 3318 mt 2393 3278 L
2277 3463 mt 
(0.58) s
2828 3318 mt 2828 3278 L
2712 3463 mt 
(0.59) s
3262 3318 mt 3262 3278 L
3179 3463 mt 
(0.6) s
3697 3318 mt 3697 3278 L
3581 3463 mt 
(0.61) s
4131 3318 mt 4131 3278 L
4015 3463 mt 
(0.62) s
4566 3318 mt 4566 3278 L
4450 3463 mt 
(0.63) s
 656 3318 mt  695 3318 L
 555 3362 mt 
(0) s
 656 3014 mt  695 3014 L
 455 3058 mt 
(0.1) s
 656 2710 mt  695 2710 L
 455 2754 mt 
(0.2) s
 656 2406 mt  695 2406 L
 455 2450 mt 
(0.3) s
 656 2102 mt  695 2102 L
 455 2146 mt 
(0.4) s
 656 1799 mt  695 1799 L
 455 1843 mt 
(0.5) s
 656 1495 mt  695 1495 L
 455 1539 mt 
(0.6) s
 656 1191 mt  695 1191 L
 455 1235 mt 
(0.7) s
 656  887 mt  695  887 L
 455  931 mt 
(0.8) s
 656  583 mt  695  583 L
 455  627 mt 
(0.9) s
 656  280 mt  695  280 L
 555  324 mt 
(1) s
gs 656 280 3911 3039 rc
/c8 { 1.000000 0.000000 0.000000 sr} bdef
c8
1090 3292 PD
60 0 1060 3292 2 MP stroke
60 0 1060 3292 2 MP stroke
0 1 1133 3290 2 MP stroke
61 0 1103 3290 2 MP stroke
61 0 1103 3291 2 MP stroke
0 1 1177 3289 2 MP stroke
61 0 1146 3289 2 MP stroke
61 0 1146 3290 2 MP stroke
0 1 1220 3286 2 MP stroke
61 0 1190 3286 2 MP stroke
61 0 1190 3287 2 MP stroke
0 2 1264 3285 2 MP stroke
61 0 1233 3285 2 MP stroke
61 0 1233 3287 2 MP stroke
0 2 1307 3285 2 MP stroke
61 0 1277 3285 2 MP stroke
61 0 1277 3287 2 MP stroke
0 2 1351 3284 2 MP stroke
61 0 1320 3284 2 MP stroke
61 0 1320 3286 2 MP stroke
0 2 1394 3281 2 MP stroke
60 0 1364 3281 2 MP stroke
60 0 1364 3283 2 MP stroke
0 2 1438 3278 2 MP stroke
61 0 1407 3278 2 MP stroke
61 0 1407 3280 2 MP stroke
0 2 1481 3278 2 MP stroke
60 0 1451 3278 2 MP stroke
60 0 1451 3280 2 MP stroke
0 2 1524 3275 2 MP stroke
61 0 1494 3275 2 MP stroke
61 0 1494 3277 2 MP stroke
0 2 1568 3274 2 MP stroke
61 0 1537 3274 2 MP stroke
61 0 1537 3276 2 MP stroke
0 3 1611 3269 2 MP stroke
61 0 1581 3269 2 MP stroke
61 0 1581 3272 2 MP stroke
0 3 1655 3267 2 MP stroke
61 0 1624 3267 2 MP stroke
61 0 1624 3270 2 MP stroke
0 4 1698 3264 2 MP stroke
61 0 1668 3264 2 MP stroke
61 0 1668 3268 2 MP stroke
0 3 1742 3263 2 MP stroke
61 0 1711 3263 2 MP stroke
61 0 1711 3266 2 MP stroke
0 3 1785 3257 2 MP stroke
60 0 1755 3257 2 MP stroke
60 0 1755 3260 2 MP stroke
0 4 1829 3249 2 MP stroke
61 0 1798 3249 2 MP stroke
61 0 1798 3253 2 MP stroke
0 4 1872 3248 2 MP stroke
60 0 1842 3248 2 MP stroke
60 0 1842 3252 2 MP stroke
0 4 1915 3247 2 MP stroke
61 0 1885 3247 2 MP stroke
61 0 1885 3251 2 MP stroke
0 5 1959 3244 2 MP stroke
61 0 1928 3244 2 MP stroke
61 0 1928 3249 2 MP stroke
0 5 2002 3231 2 MP stroke
61 0 1972 3231 2 MP stroke
61 0 1972 3236 2 MP stroke
0 5 2046 3223 2 MP stroke
61 0 2015 3223 2 MP stroke
61 0 2015 3228 2 MP stroke
0 6 2089 3221 2 MP stroke
61 0 2059 3221 2 MP stroke
61 0 2059 3227 2 MP stroke
0 6 2133 3209 2 MP stroke
61 0 2102 3209 2 MP stroke
61 0 2102 3215 2 MP stroke
0 6 2176 3205 2 MP stroke
60 0 2146 3205 2 MP stroke
60 0 2146 3211 2 MP stroke
0 7 2220 3190 2 MP stroke
61 0 2189 3190 2 MP stroke
61 0 2189 3197 2 MP stroke
0 7 2263 3179 2 MP stroke
60 0 2233 3179 2 MP stroke
60 0 2233 3186 2 MP stroke
0 8 2306 3169 2 MP stroke
61 0 2276 3169 2 MP stroke
61 0 2276 3177 2 MP stroke
0 8 2350 3144 2 MP stroke
61 0 2319 3144 2 MP stroke
61 0 2319 3152 2 MP stroke
0 9 2393 3142 2 MP stroke
61 0 2363 3142 2 MP stroke
61 0 2363 3151 2 MP stroke
0 10 2437 3117 2 MP stroke
61 0 2406 3117 2 MP stroke
61 0 2406 3127 2 MP stroke
0 10 2480 3090 2 MP stroke
61 0 2450 3090 2 MP stroke
61 0 2450 3100 2 MP stroke
0 12 2524 3081 2 MP stroke
61 0 2493 3081 2 MP stroke
61 0 2493 3093 2 MP stroke
0 12 2567 3048 2 MP stroke
60 0 2537 3048 2 MP stroke
60 0 2537 3060 2 MP stroke
0 14 2611 3009 2 MP stroke
61 0 2580 3009 2 MP stroke
61 0 2580 3023 2 MP stroke
0 16 2654 2998 2 MP stroke
60 0 2624 2998 2 MP stroke
60 0 2624 3014 2 MP stroke
0 17 2697 2929 2 MP stroke
61 0 2667 2929 2 MP stroke
61 0 2667 2946 2 MP stroke
0 19 2741 2893 2 MP stroke
61 0 2710 2893 2 MP stroke
61 0 2710 2912 2 MP stroke
0 22 2784 2840 2 MP stroke
61 0 2754 2840 2 MP stroke
61 0 2754 2862 2 MP stroke
0 24 2828 2819 2 MP stroke
61 0 2797 2819 2 MP stroke
61 0 2797 2843 2 MP stroke
0 27 2871 2718 2 MP stroke
61 0 2841 2718 2 MP stroke
61 0 2841 2745 2 MP stroke
0 29 2915 2665 2 MP stroke
61 0 2884 2665 2 MP stroke
61 0 2884 2694 2 MP stroke
0 33 2958 2618 2 MP stroke
60 0 2928 2618 2 MP stroke
60 0 2928 2651 2 MP stroke
0 36 3002 2491 2 MP stroke
61 0 2971 2491 2 MP stroke
61 0 2971 2527 2 MP stroke
0 40 3045 2463 2 MP stroke
60 0 3015 2463 2 MP stroke
60 0 3015 2503 2 MP stroke
0 44 3088 2421 2 MP stroke
61 0 3058 2421 2 MP stroke
61 0 3058 2465 2 MP stroke
0 48 3132 2309 2 MP stroke
61 0 3101 2309 2 MP stroke
61 0 3101 2357 2 MP stroke
0 53 3175 2223 2 MP stroke
61 0 3145 2223 2 MP stroke
61 0 3145 2276 2 MP stroke
0 57 3219 2183 2 MP stroke
61 0 3188 2183 2 MP stroke
61 0 3188 2240 2 MP stroke
0 61 3262 2127 2 MP stroke
61 0 3232 2127 2 MP stroke
61 0 3232 2188 2 MP stroke
0 65 3306 2088 2 MP stroke
61 0 3275 2088 2 MP stroke
61 0 3275 2153 2 MP stroke
0 70 3349 1988 2 MP stroke
60 0 3319 1988 2 MP stroke
60 0 3319 2058 2 MP stroke
0 74 3393 1953 2 MP stroke
61 0 3362 1953 2 MP stroke
61 0 3362 2027 2 MP stroke
0 78 3436 1924 2 MP stroke
60 0 3406 1924 2 MP stroke
60 0 3406 2002 2 MP stroke
0 82 3479 1887 2 MP stroke
61 0 3449 1887 2 MP stroke
61 0 3449 1969 2 MP stroke
0 86 3523 1857 2 MP stroke
61 0 3492 1857 2 MP stroke
61 0 3492 1943 2 MP stroke
0 90 3566 1814 2 MP stroke
61 0 3536 1814 2 MP stroke
61 0 3536 1904 2 MP stroke
0 94 3610 1798 2 MP stroke
61 0 3579 1798 2 MP stroke
61 0 3579 1892 2 MP stroke
0 97 3653 1792 2 MP stroke
61 0 3623 1792 2 MP stroke
61 0 3623 1889 2 MP stroke
0 101 3697 1760 2 MP stroke
61 0 3666 1760 2 MP stroke
61 0 3666 1861 2 MP stroke
0 104 3740 1743 2 MP stroke
60 0 3710 1743 2 MP stroke
60 0 3710 1847 2 MP stroke
0 107 3784 1718 2 MP stroke
61 0 3753 1718 2 MP stroke
61 0 3753 1825 2 MP stroke
0 109 3827 1703 2 MP stroke
60 0 3797 1703 2 MP stroke
60 0 3797 1812 2 MP stroke
0 112 3870 1684 2 MP stroke
61 0 3840 1684 2 MP stroke
61 0 3840 1796 2 MP stroke
0 114 3914 1671 2 MP stroke
61 0 3883 1671 2 MP stroke
61 0 3883 1785 2 MP stroke
0 117 3957 1660 2 MP stroke
61 0 3927 1660 2 MP stroke
61 0 3927 1777 2 MP stroke
0 118 4001 1648 2 MP stroke
61 0 3970 1648 2 MP stroke
61 0 3970 1766 2 MP stroke
0 121 4044 1634 2 MP stroke
61 0 4014 1634 2 MP stroke
61 0 4014 1755 2 MP stroke
0 122 4088 1619 2 MP stroke
61 0 4057 1619 2 MP stroke
61 0 4057 1741 2 MP stroke
0 124 4131 1609 2 MP stroke
60 0 4101 1609 2 MP stroke
60 0 4101 1733 2 MP stroke
43 -9 44 -14 43 -13 44 -11 43 -10 44 -12 43 -17 43 -15 
44 -23 43 -15 44 -31 43 -4 44 -14 43 -41 44 -28 43 -35 
43 -27 44 -33 43 -98 44 -36 43 -55 44 -38 43 -83 44 -110 
43 -40 43 -26 44 -125 43 -45 44 -53 43 -99 44 -20 43 -51 
44 -35 43 -69 43 -10 44 -38 43 -33 44 -8 43 -27 44 -24 
43 -2 44 -25 43 -9 43 -12 44 -14 43 -4 44 -12 43 -1 
44 -9 43 -12 44 -3 43 -1 43 -1 44 -8 43 -5 44 -2 
43 -3 44 -2 43 -4 44 -1 43 -3 43 0 44 -3 43 -3 
44 -1 43 0 44 -1 43 -3 44 -1 43 -1 1090 3292 71 MP stroke
/c9 { 0.000000 0.000000 1.000000 sr} bdef
c9
0 1 1090 3271 2 MP stroke
60 0 1060 3271 2 MP stroke
60 0 1060 3272 2 MP stroke
0 2 1133 3268 2 MP stroke
61 0 1103 3268 2 MP stroke
61 0 1103 3270 2 MP stroke
0 1 1177 3267 2 MP stroke
61 0 1146 3267 2 MP stroke
61 0 1146 3268 2 MP stroke
0 2 1220 3261 2 MP stroke
61 0 1190 3261 2 MP stroke
61 0 1190 3263 2 MP stroke
0 2 1264 3260 2 MP stroke
61 0 1233 3260 2 MP stroke
61 0 1233 3262 2 MP stroke
0 3 1307 3259 2 MP stroke
61 0 1277 3259 2 MP stroke
61 0 1277 3262 2 MP stroke
0 4 1351 3257 2 MP stroke
61 0 1320 3257 2 MP stroke
61 0 1320 3261 2 MP stroke
0 3 1394 3252 2 MP stroke
60 0 1364 3252 2 MP stroke
60 0 1364 3255 2 MP stroke
0 4 1438 3247 2 MP stroke
61 0 1407 3247 2 MP stroke
61 0 1407 3251 2 MP stroke
0 4 1481 3247 2 MP stroke
60 0 1451 3247 2 MP stroke
60 0 1451 3251 2 MP stroke
0 5 1524 3241 2 MP stroke
61 0 1494 3241 2 MP stroke
61 0 1494 3246 2 MP stroke
0 5 1568 3239 2 MP stroke
61 0 1537 3239 2 MP stroke
61 0 1537 3244 2 MP stroke
0 5 1611 3232 2 MP stroke
61 0 1581 3232 2 MP stroke
61 0 1581 3237 2 MP stroke
0 5 1655 3229 2 MP stroke
61 0 1624 3229 2 MP stroke
61 0 1624 3234 2 MP stroke
0 6 1698 3223 2 MP stroke
61 0 1668 3223 2 MP stroke
61 0 1668 3229 2 MP stroke
0 5 1742 3221 2 MP stroke
61 0 1711 3221 2 MP stroke
61 0 1711 3226 2 MP stroke
0 7 1785 3210 2 MP stroke
60 0 1755 3210 2 MP stroke
60 0 1755 3217 2 MP stroke
0 7 1829 3196 2 MP stroke
61 0 1798 3196 2 MP stroke
61 0 1798 3203 2 MP stroke
0 8 1872 3195 2 MP stroke
60 0 1842 3195 2 MP stroke
60 0 1842 3203 2 MP stroke
0 8 1915 3193 2 MP stroke
61 0 1885 3193 2 MP stroke
61 0 1885 3201 2 MP stroke
0 8 1959 3189 2 MP stroke
61 0 1928 3189 2 MP stroke
61 0 1928 3197 2 MP stroke
0 9 2002 3166 2 MP stroke
61 0 1972 3166 2 MP stroke
61 0 1972 3175 2 MP stroke
0 9 2046 3152 2 MP stroke
61 0 2015 3152 2 MP stroke
61 0 2015 3161 2 MP stroke
0 9 2089 3150 2 MP stroke
61 0 2059 3150 2 MP stroke
61 0 2059 3159 2 MP stroke
0 10 2133 3128 2 MP stroke
61 0 2102 3128 2 MP stroke
61 0 2102 3138 2 MP stroke
0 10 2176 3122 2 MP stroke
60 0 2146 3122 2 MP stroke
60 0 2146 3132 2 MP stroke
0 11 2220 3097 2 MP stroke
61 0 2189 3097 2 MP stroke
61 0 2189 3108 2 MP stroke
0 12 2263 3077 2 MP stroke
60 0 2233 3077 2 MP stroke
60 0 2233 3089 2 MP stroke
0 14 2306 3061 2 MP stroke
61 0 2276 3061 2 MP stroke
61 0 2276 3075 2 MP stroke
0 15 2350 3017 2 MP stroke
61 0 2319 3017 2 MP stroke
61 0 2319 3032 2 MP stroke
0 15 2393 3015 2 MP stroke
61 0 2363 3015 2 MP stroke
61 0 2363 3030 2 MP stroke
0 17 2437 2972 2 MP stroke
61 0 2406 2972 2 MP stroke
61 0 2406 2989 2 MP stroke
0 18 2480 2926 2 MP stroke
61 0 2450 2926 2 MP stroke
61 0 2450 2944 2 MP stroke
0 20 2524 2912 2 MP stroke
61 0 2493 2912 2 MP stroke
61 0 2493 2932 2 MP stroke
0 21 2567 2856 2 MP stroke
60 0 2537 2856 2 MP stroke
60 0 2537 2877 2 MP stroke
0 24 2611 2790 2 MP stroke
61 0 2580 2790 2 MP stroke
61 0 2580 2814 2 MP stroke
0 26 2654 2773 2 MP stroke
60 0 2624 2773 2 MP stroke
60 0 2624 2799 2 MP stroke
0 30 2697 2655 2 MP stroke
61 0 2667 2655 2 MP stroke
61 0 2667 2685 2 MP stroke
0 33 2741 2595 2 MP stroke
61 0 2710 2595 2 MP stroke
61 0 2710 2628 2 MP stroke
0 37 2784 2507 2 MP stroke
61 0 2754 2507 2 MP stroke
61 0 2754 2544 2 MP stroke
0 40 2828 2473 2 MP stroke
61 0 2797 2473 2 MP stroke
61 0 2797 2513 2 MP stroke
0 44 2871 2304 2 MP stroke
61 0 2841 2304 2 MP stroke
61 0 2841 2348 2 MP stroke
0 49 2915 2215 2 MP stroke
61 0 2884 2215 2 MP stroke
61 0 2884 2264 2 MP stroke
0 55 2958 2138 2 MP stroke
60 0 2928 2138 2 MP stroke
60 0 2928 2193 2 MP stroke
0 61 3002 1926 2 MP stroke
61 0 2971 1926 2 MP stroke
61 0 2971 1987 2 MP stroke
0 68 3045 1881 2 MP stroke
60 0 3015 1881 2 MP stroke
60 0 3015 1949 2 MP stroke
0 74 3088 1813 2 MP stroke
61 0 3058 1813 2 MP stroke
61 0 3058 1887 2 MP stroke
0 81 3132 1627 2 MP stroke
61 0 3101 1627 2 MP stroke
61 0 3101 1708 2 MP stroke
0 88 3175 1488 2 MP stroke
61 0 3145 1488 2 MP stroke
61 0 3145 1576 2 MP stroke
0 95 3219 1424 2 MP stroke
61 0 3188 1424 2 MP stroke
61 0 3188 1519 2 MP stroke
0 103 3262 1332 2 MP stroke
61 0 3232 1332 2 MP stroke
61 0 3232 1435 2 MP stroke
0 110 3306 1271 2 MP stroke
61 0 3275 1271 2 MP stroke
61 0 3275 1381 2 MP stroke
0 117 3349 1108 2 MP stroke
60 0 3319 1108 2 MP stroke
60 0 3319 1225 2 MP stroke
0 124 3393 1054 2 MP stroke
61 0 3362 1054 2 MP stroke
61 0 3362 1178 2 MP stroke
0 131 3436 1010 2 MP stroke
60 0 3406 1010 2 MP stroke
60 0 3406 1141 2 MP stroke
0 138 3479 952 2 MP stroke
61 0 3449 952 2 MP stroke
61 0 3449 1090 2 MP stroke
0 144 3523 906 2 MP stroke
61 0 3492 906 2 MP stroke
61 0 3492 1050 2 MP stroke
0 150 3566 839 2 MP stroke
61 0 3536 839 2 MP stroke
61 0 3536 989 2 MP stroke
0 156 3610 817 2 MP stroke
61 0 3579 817 2 MP stroke
61 0 3579 973 2 MP stroke
0 161 3653 812 2 MP stroke
61 0 3623 812 2 MP stroke
61 0 3623 973 2 MP stroke
0 166 3697 764 2 MP stroke
61 0 3666 764 2 MP stroke
61 0 3666 930 2 MP stroke
0 171 3740 740 2 MP stroke
60 0 3710 740 2 MP stroke
60 0 3710 911 2 MP stroke
0 175 3784 704 2 MP stroke
61 0 3753 704 2 MP stroke
61 0 3753 879 2 MP stroke
0 180 3827 682 2 MP stroke
60 0 3797 682 2 MP stroke
60 0 3797 862 2 MP stroke
0 184 3870 656 2 MP stroke
61 0 3840 656 2 MP stroke
61 0 3840 840 2 MP stroke
0 187 3914 639 2 MP stroke
61 0 3883 639 2 MP stroke
61 0 3883 826 2 MP stroke
0 191 3957 626 2 MP stroke
61 0 3927 626 2 MP stroke
61 0 3927 817 2 MP stroke
0 194 4001 610 2 MP stroke
61 0 3970 610 2 MP stroke
61 0 3970 804 2 MP stroke
0 197 4044 592 2 MP stroke
61 0 4014 592 2 MP stroke
61 0 4014 789 2 MP stroke
0 200 4088 572 2 MP stroke
61 0 4057 572 2 MP stroke
61 0 4057 772 2 MP stroke
0 202 4131 560 2 MP stroke
60 0 4101 560 2 MP stroke
60 0 4101 762 2 MP stroke
43 -11 44 -19 43 -16 44 -15 43 -10 44 -16 43 -24 43 -20 
44 -34 43 -21 44 -45 43 -3 44 -19 43 -64 44 -43 43 -54 
43 -41 44 -51 43 -159 44 -58 43 -87 44 -61 43 -136 44 -182 
43 -65 43 -42 44 -209 43 -73 44 -87 43 -167 44 -32 43 -86 
44 -59 43 -116 43 -16 44 -64 43 -56 44 -13 43 -46 44 -42 
43 -2 44 -43 43 -15 43 -19 44 -25 43 -6 44 -21 43 -2 
44 -15 43 -22 44 -4 43 -2 43 -1 44 -13 43 -10 44 -3 
43 -5 44 -3 43 -7 44 -2 43 -6 43 0 44 -5 43 -5 
44 -2 43 0 44 -1 43 -6 44 -1 43 -2 1090 3271 71 MP stroke
/c10 { 0.000000 1.000000 0.000000 sr} bdef
c10
0 1 1090 3271 2 MP stroke
60 0 1060 3271 2 MP stroke
60 0 1060 3272 2 MP stroke
0 2 1133 3268 2 MP stroke
61 0 1103 3268 2 MP stroke
61 0 1103 3270 2 MP stroke
0 1 1177 3267 2 MP stroke
61 0 1146 3267 2 MP stroke
61 0 1146 3268 2 MP stroke
0 2 1220 3261 2 MP stroke
61 0 1190 3261 2 MP stroke
61 0 1190 3263 2 MP stroke
0 2 1264 3260 2 MP stroke
61 0 1233 3260 2 MP stroke
61 0 1233 3262 2 MP stroke
0 3 1307 3259 2 MP stroke
61 0 1277 3259 2 MP stroke
61 0 1277 3262 2 MP stroke
0 4 1351 3257 2 MP stroke
61 0 1320 3257 2 MP stroke
61 0 1320 3261 2 MP stroke
0 3 1394 3252 2 MP stroke
60 0 1364 3252 2 MP stroke
60 0 1364 3255 2 MP stroke
0 4 1438 3247 2 MP stroke
61 0 1407 3247 2 MP stroke
61 0 1407 3251 2 MP stroke
0 4 1481 3247 2 MP stroke
60 0 1451 3247 2 MP stroke
60 0 1451 3251 2 MP stroke
0 5 1524 3241 2 MP stroke
61 0 1494 3241 2 MP stroke
61 0 1494 3246 2 MP stroke
0 5 1568 3239 2 MP stroke
61 0 1537 3239 2 MP stroke
61 0 1537 3244 2 MP stroke
0 5 1611 3232 2 MP stroke
61 0 1581 3232 2 MP stroke
61 0 1581 3237 2 MP stroke
0 5 1655 3229 2 MP stroke
61 0 1624 3229 2 MP stroke
61 0 1624 3234 2 MP stroke
0 6 1698 3223 2 MP stroke
61 0 1668 3223 2 MP stroke
61 0 1668 3229 2 MP stroke
0 5 1742 3221 2 MP stroke
61 0 1711 3221 2 MP stroke
61 0 1711 3226 2 MP stroke
0 7 1785 3210 2 MP stroke
60 0 1755 3210 2 MP stroke
60 0 1755 3217 2 MP stroke
0 7 1829 3196 2 MP stroke
61 0 1798 3196 2 MP stroke
61 0 1798 3203 2 MP stroke
0 8 1872 3195 2 MP stroke
60 0 1842 3195 2 MP stroke
60 0 1842 3203 2 MP stroke
0 8 1915 3193 2 MP stroke
61 0 1885 3193 2 MP stroke
61 0 1885 3201 2 MP stroke
0 8 1959 3189 2 MP stroke
61 0 1928 3189 2 MP stroke
61 0 1928 3197 2 MP stroke
0 9 2002 3166 2 MP stroke
61 0 1972 3166 2 MP stroke
61 0 1972 3175 2 MP stroke
0 9 2046 3152 2 MP stroke
61 0 2015 3152 2 MP stroke
61 0 2015 3161 2 MP stroke
0 9 2089 3150 2 MP stroke
61 0 2059 3150 2 MP stroke
61 0 2059 3159 2 MP stroke
0 10 2133 3128 2 MP stroke
61 0 2102 3128 2 MP stroke
61 0 2102 3138 2 MP stroke
0 10 2176 3122 2 MP stroke
60 0 2146 3122 2 MP stroke
60 0 2146 3132 2 MP stroke
0 11 2220 3097 2 MP stroke
61 0 2189 3097 2 MP stroke
61 0 2189 3108 2 MP stroke
0 12 2263 3077 2 MP stroke
60 0 2233 3077 2 MP stroke
60 0 2233 3089 2 MP stroke
0 14 2306 3061 2 MP stroke
61 0 2276 3061 2 MP stroke
61 0 2276 3075 2 MP stroke
0 14 2350 3018 2 MP stroke
61 0 2319 3018 2 MP stroke
61 0 2319 3032 2 MP stroke
0 16 2393 3015 2 MP stroke
61 0 2363 3015 2 MP stroke
61 0 2363 3031 2 MP stroke
0 17 2437 2972 2 MP stroke
61 0 2406 2972 2 MP stroke
61 0 2406 2989 2 MP stroke
0 18 2480 2926 2 MP stroke
61 0 2450 2926 2 MP stroke
61 0 2450 2944 2 MP stroke
0 20 2524 2912 2 MP stroke
61 0 2493 2912 2 MP stroke
61 0 2493 2932 2 MP stroke
0 21 2567 2856 2 MP stroke
60 0 2537 2856 2 MP stroke
60 0 2537 2877 2 MP stroke
0 24 2611 2790 2 MP stroke
61 0 2580 2790 2 MP stroke
61 0 2580 2814 2 MP stroke
0 26 2654 2773 2 MP stroke
60 0 2624 2773 2 MP stroke
60 0 2624 2799 2 MP stroke
0 30 2697 2655 2 MP stroke
61 0 2667 2655 2 MP stroke
61 0 2667 2685 2 MP stroke
0 33 2741 2595 2 MP stroke
61 0 2710 2595 2 MP stroke
61 0 2710 2628 2 MP stroke
0 36 2784 2508 2 MP stroke
61 0 2754 2508 2 MP stroke
61 0 2754 2544 2 MP stroke
0 40 2828 2473 2 MP stroke
61 0 2797 2473 2 MP stroke
61 0 2797 2513 2 MP stroke
0 44 2871 2304 2 MP stroke
61 0 2841 2304 2 MP stroke
61 0 2841 2348 2 MP stroke
0 50 2915 2215 2 MP stroke
61 0 2884 2215 2 MP stroke
61 0 2884 2265 2 MP stroke
0 55 2958 2138 2 MP stroke
60 0 2928 2138 2 MP stroke
60 0 2928 2193 2 MP stroke
0 61 3002 1926 2 MP stroke
61 0 2971 1926 2 MP stroke
61 0 2971 1987 2 MP stroke
0 68 3045 1881 2 MP stroke
60 0 3015 1881 2 MP stroke
60 0 3015 1949 2 MP stroke
0 74 3088 1813 2 MP stroke
61 0 3058 1813 2 MP stroke
61 0 3058 1887 2 MP stroke
0 81 3132 1627 2 MP stroke
61 0 3101 1627 2 MP stroke
61 0 3101 1708 2 MP stroke
0 88 3175 1488 2 MP stroke
61 0 3145 1488 2 MP stroke
61 0 3145 1576 2 MP stroke
0 95 3219 1424 2 MP stroke
61 0 3188 1424 2 MP stroke
61 0 3188 1519 2 MP stroke
0 103 3262 1332 2 MP stroke
61 0 3232 1332 2 MP stroke
61 0 3232 1435 2 MP stroke
0 109 3306 1272 2 MP stroke
61 0 3275 1272 2 MP stroke
61 0 3275 1381 2 MP stroke
0 117 3349 1108 2 MP stroke
60 0 3319 1108 2 MP stroke
60 0 3319 1225 2 MP stroke
0 124 3393 1054 2 MP stroke
61 0 3362 1054 2 MP stroke
61 0 3362 1178 2 MP stroke
0 131 3436 1009 2 MP stroke
60 0 3406 1009 2 MP stroke
60 0 3406 1140 2 MP stroke
0 137 3479 953 2 MP stroke
61 0 3449 953 2 MP stroke
61 0 3449 1090 2 MP stroke
0 144 3523 907 2 MP stroke
61 0 3492 907 2 MP stroke
61 0 3492 1051 2 MP stroke
0 150 3566 840 2 MP stroke
61 0 3536 840 2 MP stroke
61 0 3536 990 2 MP stroke
0 156 3610 817 2 MP stroke
61 0 3579 817 2 MP stroke
61 0 3579 973 2 MP stroke
0 161 3653 812 2 MP stroke
61 0 3623 812 2 MP stroke
61 0 3623 973 2 MP stroke
0 166 3697 763 2 MP stroke
61 0 3666 763 2 MP stroke
61 0 3666 929 2 MP stroke
0 171 3740 740 2 MP stroke
60 0 3710 740 2 MP stroke
60 0 3710 911 2 MP stroke
0 176 3784 704 2 MP stroke
61 0 3753 704 2 MP stroke
61 0 3753 880 2 MP stroke
0 180 3827 682 2 MP stroke
60 0 3797 682 2 MP stroke
60 0 3797 862 2 MP stroke
0 184 3870 656 2 MP stroke
61 0 3840 656 2 MP stroke
61 0 3840 840 2 MP stroke
0 187 3914 639 2 MP stroke
61 0 3883 639 2 MP stroke
61 0 3883 826 2 MP stroke
0 191 3957 626 2 MP stroke
61 0 3927 626 2 MP stroke
61 0 3927 817 2 MP stroke
0 194 4001 611 2 MP stroke
61 0 3970 611 2 MP stroke
61 0 3970 805 2 MP stroke
0 197 4044 592 2 MP stroke
61 0 4014 592 2 MP stroke
61 0 4014 789 2 MP stroke
0 199 4088 573 2 MP stroke
61 0 4057 573 2 MP stroke
61 0 4057 772 2 MP stroke
0 202 4131 560 2 MP stroke
60 0 4101 560 2 MP stroke
60 0 4101 762 2 MP stroke
43 -12 44 -18 43 -17 44 -13 43 -11 44 -16 43 -24 43 -20 
44 -33 43 -21 44 -46 43 -3 44 -20 43 -64 44 -42 43 -54 
43 -41 44 -51 43 -159 44 -58 43 -88 44 -60 43 -136 44 -182 
43 -65 43 -42 44 -209 43 -74 44 -86 43 -167 44 -33 43 -85 
44 -59 43 -116 43 -16 44 -64 43 -56 44 -13 43 -46 44 -42 
43 -2 44 -43 43 -15 43 -19 44 -25 43 -6 44 -21 43 -2 
44 -15 43 -22 44 -4 43 -2 43 -1 44 -14 43 -9 44 -3 
43 -5 44 -3 43 -7 44 -2 43 -6 43 0 44 -5 43 -5 
44 -2 43 0 44 -1 43 -6 44 -1 43 -2 1090 3271 71 MP stroke
gr

c10
0 sg
2150 3606 mt 
(Prob. colorazione) s
 373 1840 mt  -90 rotate
(P) s
90 rotate
1950  185 mt 
(P1, P2 e P3 nel dettaglio) s
 612 3388 mt 
( ) s
4523  349 mt 
( ) s
1 sg
0 546 666 0 0 -546 811 933 4 MP
PP
-666 0 0 546 666 0 0 -546 811 933 5 MP stroke
4 w
DO
SO
6 w
0 sg
 811  387 mt 1477  387 L
 811  933 mt 1477  933 L
1477  933 mt 1477  387 L
 811  933 mt  811  387 L
 811  933 mt 1477  933 L
 811  933 mt  811  387 L
 811  387 mt 1477  387 L
 811  933 mt 1477  933 L
1477  933 mt 1477  387 L
 811  933 mt  811  387 L
1280  534 mt 
(P1) s
gs 811 387 667 547 rc
c8
360 0 883 492 2 MP stroke
gr

c8
0 sg
1280  703 mt 
(P2) s
gs 811 387 667 547 rc
c9
360 0 883 660 2 MP stroke
gr

c9
0 sg
1280  871 mt 
(P3) s
gs 811 387 667 547 rc
c10
360 0 883 828 2 MP stroke
gr

c10

end %%Color Dict

eplot
%%EndObject

epage
end

showpage

%%Trailer
%%EOF
