%!PS-Adobe-3.0 EPSF-3.0
%%Creator: MATLAB, The MathWorks, Inc. Version 8.0.0.783 (R2012b). Operating System: Microsoft Windows 7.
%%Title: C:\SILVIA\UniversitÓ\Presenti\Modellazione E Simulazioni Numeriche\Relazione\percolazione\codici\grafici\Zoom\Zoom1.eps
%%CreationDate: 06/14/2015  22:48:24
%%DocumentNeededFonts: Helvetica
%%DocumentProcessColors: Cyan Magenta Yellow Black
%%LanguageLevel: 2
%%Pages: 1
%%BoundingBox:    90   267   504   574
%%EndComments

%%BeginProlog
% MathWorks dictionary
/MathWorks 160 dict begin
% definition operators
/bdef {bind def} bind def
/ldef {load def} bind def
/xdef {exch def} bdef
/xstore {exch store} bdef
% operator abbreviations
/c  /clip ldef
/cc /concat ldef
/cp /closepath ldef
/gr /grestore ldef
/gs /gsave ldef
/mt /moveto ldef
/np /newpath ldef
/cm /currentmatrix ldef
/sm /setmatrix ldef
/rm /rmoveto ldef
/rl /rlineto ldef
/s {show newpath} bdef
/sc {setcmykcolor} bdef
/sr /setrgbcolor ldef
/sg /setgray ldef
/w /setlinewidth ldef
/j /setlinejoin ldef
/cap /setlinecap ldef
/rc {rectclip} bdef
/rf {rectfill} bdef
% page state control
/pgsv () def
/bpage {/pgsv save def} bdef
/epage {pgsv restore} bdef
/bplot /gsave ldef
/eplot {stroke grestore} bdef
% orientation switch
/portraitMode 0 def /landscapeMode 1 def /rotateMode 2 def
% coordinate system mappings
/dpi2point 0 def
% font control
/FontSize 0 def
/FMS {/FontSize xstore findfont [FontSize 0 0 FontSize neg 0 0]
  makefont setfont} bdef
/ISOLatin1Encoding where {pop /WindowsLatin1Encoding 256 array bdef
ISOLatin1Encoding WindowsLatin1Encoding copy pop
/.notdef/.notdef/quotesinglbase/florin/quotedblbase/ellipsis/dagger
/daggerdbl/circumflex/perthousand/Scaron/guilsinglleft/OE/.notdef/.notdef
/.notdef/.notdef/quoteleft/quoteright/quotedblleft/quotedblright/bullet
/endash/emdash/tilde/trademark/scaron/guilsinglright/oe/.notdef/.notdef
/Ydieresis WindowsLatin1Encoding 128 32 getinterval astore pop}
{/WindowsLatin1Encoding StandardEncoding bdef} ifelse
/reencode {exch dup where {pop load} {pop StandardEncoding} ifelse
  exch dup 3 1 roll findfont dup length dict begin
  { 1 index /FID ne {def}{pop pop} ifelse } forall
  /Encoding exch def currentdict end definefont pop} bdef
/isroman {findfont /CharStrings get /Agrave known} bdef
/FMSR {3 1 roll 1 index dup isroman {reencode} {pop pop} ifelse
  exch FMS} bdef
/csm {1 dpi2point div -1 dpi2point div scale neg translate
 dup landscapeMode eq {pop -90 rotate}
  {rotateMode eq {90 rotate} if} ifelse} bdef
% line types: solid, dotted, dashed, dotdash
/SO { [] 0 setdash } bdef
/DO { [.5 dpi2point mul 4 dpi2point mul] 0 setdash } bdef
/DA { [6 dpi2point mul] 0 setdash } bdef
/DD { [.5 dpi2point mul 4 dpi2point mul 6 dpi2point mul 4
  dpi2point mul] 0 setdash } bdef
% macros for lines and objects
/L {lineto stroke} bdef
/MP {3 1 roll moveto 1 sub {rlineto} repeat} bdef
/AP {{rlineto} repeat} bdef
/PDlw -1 def
/W {/PDlw currentlinewidth def setlinewidth} def
/PP {closepath eofill} bdef
/DP {closepath stroke} bdef
/MR {4 -2 roll moveto dup  0 exch rlineto exch 0 rlineto
  neg 0 exch rlineto closepath} bdef
/FR {MR stroke} bdef
/PR {MR fill} bdef
/L1i {{currentfile picstr readhexstring pop} image} bdef
/tMatrix matrix def
/MakeOval {newpath tMatrix currentmatrix pop translate scale
0 0 1 0 360 arc tMatrix setmatrix} bdef
/FO {MakeOval stroke} bdef
/PO {MakeOval fill} bdef
/PD {currentlinewidth 2 div 0 360 arc fill
   PDlw -1 eq not {PDlw w /PDlw -1 def} if} def
/FA {newpath tMatrix currentmatrix pop translate scale
  0 0 1 5 -2 roll arc tMatrix setmatrix stroke} bdef
/PA {newpath tMatrix currentmatrix pop	translate 0 0 moveto scale
  0 0 1 5 -2 roll arc closepath tMatrix setmatrix fill} bdef
/FAn {newpath tMatrix currentmatrix pop translate scale
  0 0 1 5 -2 roll arcn tMatrix setmatrix stroke} bdef
/PAn {newpath tMatrix currentmatrix pop translate 0 0 moveto scale
  0 0 1 5 -2 roll arcn closepath tMatrix setmatrix fill} bdef
/vradius 0 def /hradius 0 def /lry 0 def
/lrx 0 def /uly 0 def /ulx 0 def /rad 0 def
/MRR {/vradius xdef /hradius xdef /lry xdef /lrx xdef /uly xdef
  /ulx xdef newpath tMatrix currentmatrix pop ulx hradius add uly
  vradius add translate hradius vradius scale 0 0 1 180 270 arc 
  tMatrix setmatrix lrx hradius sub uly vradius add translate
  hradius vradius scale 0 0 1 270 360 arc tMatrix setmatrix
  lrx hradius sub lry vradius sub translate hradius vradius scale
  0 0 1 0 90 arc tMatrix setmatrix ulx hradius add lry vradius sub
  translate hradius vradius scale 0 0 1 90 180 arc tMatrix setmatrix
  closepath} bdef
/FRR {MRR stroke } bdef
/PRR {MRR fill } bdef
/MlrRR {/lry xdef /lrx xdef /uly xdef /ulx xdef /rad lry uly sub 2 div def
  newpath tMatrix currentmatrix pop ulx rad add uly rad add translate
  rad rad scale 0 0 1 90 270 arc tMatrix setmatrix lrx rad sub lry rad
  sub translate rad rad scale 0 0 1 270 90 arc tMatrix setmatrix
  closepath} bdef
/FlrRR {MlrRR stroke } bdef
/PlrRR {MlrRR fill } bdef
/MtbRR {/lry xdef /lrx xdef /uly xdef /ulx xdef /rad lrx ulx sub 2 div def
  newpath tMatrix currentmatrix pop ulx rad add uly rad add translate
  rad rad scale 0 0 1 180 360 arc tMatrix setmatrix lrx rad sub lry rad
  sub translate rad rad scale 0 0 1 0 180 arc tMatrix setmatrix
  closepath} bdef
/FtbRR {MtbRR stroke } bdef
/PtbRR {MtbRR fill } bdef
/stri 6 array def /dtri 6 array def
/smat 6 array def /dmat 6 array def
/tmat1 6 array def /tmat2 6 array def /dif 3 array def
/asub {/ind2 exch def /ind1 exch def dup dup
  ind1 get exch ind2 get sub exch } bdef
/tri_to_matrix {
  2 0 asub 3 1 asub 4 0 asub 5 1 asub
  dup 0 get exch 1 get 7 -1 roll astore } bdef
/compute_transform {
  dmat dtri tri_to_matrix tmat1 invertmatrix 
  smat stri tri_to_matrix tmat2 concatmatrix } bdef
/ds {stri astore pop} bdef
/dt {dtri astore pop} bdef
/db {2 copy /cols xdef /rows xdef mul dup 3 mul string
  currentfile 
  3 index 0 eq {/ASCIIHexDecode filter}
  {/ASCII85Decode filter 3 index 2 eq {/RunLengthDecode filter} if }
  ifelse exch readstring pop
  dup 0 3 index getinterval /rbmap xdef
  dup 2 index dup getinterval /gbmap xdef
  1 index dup 2 mul exch getinterval /bbmap xdef pop pop}bdef
/it {gs np dtri aload pop moveto lineto lineto cp c
  cols rows 8 compute_transform 
  rbmap gbmap bbmap true 3 colorimage gr}bdef
/il {newpath moveto lineto stroke}bdef
currentdict end def
%%EndProlog

%%BeginSetup
MathWorks begin

0 cap

end
%%EndSetup

%%Page: 1 1
%%BeginPageSetup
%%PageBoundingBox:    90   267   504   574
MathWorks begin
bpage
%%EndPageSetup

%%BeginObject: obj1
bplot

/dpi2point 12 def
portraitMode 1080 6888 csm

    0     0  4973  3683 rc
85 dict begin %Colortable dictionary
/c0 { 0.000000 0.000000 0.000000 sr} bdef
/c1 { 1.000000 1.000000 1.000000 sr} bdef
/c2 { 0.900000 0.000000 0.000000 sr} bdef
/c3 { 0.000000 0.820000 0.000000 sr} bdef
/c4 { 0.000000 0.000000 0.800000 sr} bdef
/c5 { 0.910000 0.820000 0.320000 sr} bdef
/c6 { 1.000000 0.260000 0.820000 sr} bdef
/c7 { 0.000000 0.820000 0.820000 sr} bdef
c0
1 j
1 sg
   0    0 4974 3684 rf
6 w
0 3002 3855 0 0 -3002 645 3278 4 MP
PP
-3855 0 0 3002 3855 0 0 -3002 645 3278 5 MP stroke
4 w
DO
0 sg
1074 3278 mt 1074  276 L
1074  276 mt 1074  276 L
1502 3278 mt 1502  276 L
1502  276 mt 1502  276 L
1930 3278 mt 1930  276 L
1930  276 mt 1930  276 L
2359 3278 mt 2359  276 L
2359  276 mt 2359  276 L
2787 3278 mt 2787  276 L
2787  276 mt 2787  276 L
3215 3278 mt 3215  276 L
3215  276 mt 3215  276 L
3644 3278 mt 3644  276 L
3644  276 mt 3644  276 L
4072 3278 mt 4072  276 L
4072  276 mt 4072  276 L
4500 3278 mt 4500  276 L
4500  276 mt 4500  276 L
 645 3278 mt 4500 3278 L
4500 3278 mt 4500 3278 L
 645 2977 mt 4500 2977 L
4500 2977 mt 4500 2977 L
 645 2677 mt 4500 2677 L
4500 2677 mt 4500 2677 L
 645 2377 mt 4500 2377 L
4500 2377 mt 4500 2377 L
 645 2077 mt 4500 2077 L
4500 2077 mt 4500 2077 L
 645 1777 mt 4500 1777 L
4500 1777 mt 4500 1777 L
 645 1476 mt 4500 1476 L
4500 1476 mt 4500 1476 L
 645 1176 mt 4500 1176 L
4500 1176 mt 4500 1176 L
 645  876 mt 4500  876 L
4500  876 mt 4500  876 L
 645  576 mt 4500  576 L
4500  576 mt 4500  576 L
 645  276 mt 4500  276 L
4500  276 mt 4500  276 L
SO
6 w
 645  276 mt 4500  276 L
 645 3278 mt 4500 3278 L
4500 3278 mt 4500  276 L
 645 3278 mt  645  276 L
 645 3278 mt 4500 3278 L
 645 3278 mt  645  276 L
1074 3278 mt 1074 3239 L
1074  276 mt 1074  314 L
%%IncludeResource: font Helvetica
/Helvetica /WindowsLatin1Encoding 120 FMSR

 958 3423 mt 
(0.57) s
1502 3278 mt 1502 3239 L
1502  276 mt 1502  314 L
1352 3423 mt 
(0.575) s
1930 3278 mt 1930 3239 L
1930  276 mt 1930  314 L
1814 3423 mt 
(0.58) s
2359 3278 mt 2359 3239 L
2359  276 mt 2359  314 L
2209 3423 mt 
(0.585) s
2787 3278 mt 2787 3239 L
2787  276 mt 2787  314 L
2671 3423 mt 
(0.59) s
3215 3278 mt 3215 3239 L
3215  276 mt 3215  314 L
3065 3423 mt 
(0.595) s
3644 3278 mt 3644 3239 L
3644  276 mt 3644  314 L
3561 3423 mt 
(0.6) s
4072 3278 mt 4072 3239 L
4072  276 mt 4072  314 L
3922 3423 mt 
(0.605) s
4500 3278 mt 4500 3239 L
4500  276 mt 4500  314 L
4384 3423 mt 
(0.61) s
 645 3278 mt  684 3278 L
4500 3278 mt 4462 3278 L
 545 3322 mt 
(0) s
 645 2977 mt  684 2977 L
4500 2977 mt 4462 2977 L
 445 3021 mt 
(0.1) s
 645 2677 mt  684 2677 L
4500 2677 mt 4462 2677 L
 445 2721 mt 
(0.2) s
 645 2377 mt  684 2377 L
4500 2377 mt 4462 2377 L
 445 2421 mt 
(0.3) s
 645 2077 mt  684 2077 L
4500 2077 mt 4462 2077 L
 445 2121 mt 
(0.4) s
 645 1777 mt  684 1777 L
4500 1777 mt 4462 1777 L
 445 1821 mt 
(0.5) s
 645 1476 mt  684 1476 L
4500 1476 mt 4462 1476 L
 445 1520 mt 
(0.6) s
 645 1176 mt  684 1176 L
4500 1176 mt 4462 1176 L
 445 1220 mt 
(0.7) s
 645  876 mt  684  876 L
4500  876 mt 4462  876 L
 445  920 mt 
(0.8) s
 645  576 mt  684  576 L
4500  576 mt 4462  576 L
 445  620 mt 
(0.9) s
 645  276 mt  684  276 L
4500  276 mt 4462  276 L
 545  320 mt 
(1) s
 645  276 mt 4500  276 L
 645 3278 mt 4500 3278 L
4500 3278 mt 4500  276 L
 645 3278 mt  645  276 L
gs 645 276 3856 3003 rc
/c8 { 0.000000 0.000000 1.000000 sr} bdef
c8
1074 3278 PD
52 0 1048 3278 2 MP stroke
52 0 1048 3278 2 MP stroke
1159 3278 PD
51 0 1134 3278 2 MP stroke
51 0 1134 3278 2 MP stroke
1245 3278 PD
52 0 1219 3278 2 MP stroke
52 0 1219 3278 2 MP stroke
1331 3278 PD
52 0 1305 3278 2 MP stroke
52 0 1305 3278 2 MP stroke
1416 3278 PD
51 0 1391 3278 2 MP stroke
51 0 1391 3278 2 MP stroke
1502 3278 PD
52 0 1476 3278 2 MP stroke
52 0 1476 3278 2 MP stroke
1588 3278 PD
52 0 1562 3278 2 MP stroke
52 0 1562 3278 2 MP stroke
0 1 1673 3271 2 MP stroke
51 0 1648 3271 2 MP stroke
51 0 1648 3272 2 MP stroke
0 1 1759 3265 2 MP stroke
52 0 1733 3265 2 MP stroke
52 0 1733 3266 2 MP stroke
0 1 1845 3253 2 MP stroke
52 0 1819 3253 2 MP stroke
52 0 1819 3254 2 MP stroke
0 1 1930 3259 2 MP stroke
51 0 1905 3259 2 MP stroke
51 0 1905 3260 2 MP stroke
0 1 2016 3241 2 MP stroke
52 0 1990 3241 2 MP stroke
52 0 1990 3242 2 MP stroke
0 1 2102 3229 2 MP stroke
52 0 2076 3229 2 MP stroke
52 0 2076 3230 2 MP stroke
0 1 2187 3199 2 MP stroke
51 0 2162 3199 2 MP stroke
51 0 2162 3200 2 MP stroke
0 3 2273 3150 2 MP stroke
52 0 2247 3150 2 MP stroke
52 0 2247 3153 2 MP stroke
0 3 2359 3126 2 MP stroke
52 0 2333 3126 2 MP stroke
52 0 2333 3129 2 MP stroke
0 5 2444 2993 2 MP stroke
51 0 2419 2993 2 MP stroke
51 0 2419 2998 2 MP stroke
0 8 2530 2907 2 MP stroke
52 0 2504 2907 2 MP stroke
52 0 2504 2915 2 MP stroke
0 10 2616 2822 2 MP stroke
52 0 2590 2822 2 MP stroke
52 0 2590 2832 2 MP stroke
0 14 2701 2628 2 MP stroke
51 0 2676 2628 2 MP stroke
51 0 2676 2642 2 MP stroke
0 18 2787 2500 2 MP stroke
52 0 2761 2500 2 MP stroke
52 0 2761 2518 2 MP stroke
0 23 2873 2245 2 MP stroke
52 0 2847 2245 2 MP stroke
52 0 2847 2268 2 MP stroke
0 31 2958 1857 2 MP stroke
51 0 2933 1857 2 MP stroke
51 0 2933 1888 2 MP stroke
0 37 3044 1740 2 MP stroke
52 0 3018 1740 2 MP stroke
52 0 3018 1777 2 MP stroke
0 45 3130 1448 2 MP stroke
52 0 3104 1448 2 MP stroke
52 0 3104 1493 2 MP stroke
0 52 3215 1300 2 MP stroke
51 0 3190 1300 2 MP stroke
51 0 3190 1352 2 MP stroke
0 60 3301 1104 2 MP stroke
52 0 3275 1104 2 MP stroke
52 0 3275 1164 2 MP stroke
0 66 3387 855 2 MP stroke
52 0 3361 855 2 MP stroke
52 0 3361 921 2 MP stroke
0 74 3472 635 2 MP stroke
51 0 3447 635 2 MP stroke
51 0 3447 709 2 MP stroke
0 81 3558 559 2 MP stroke
52 0 3532 559 2 MP stroke
52 0 3532 640 2 MP stroke
0 87 3644 406 2 MP stroke
52 0 3618 406 2 MP stroke
52 0 3618 493 2 MP stroke
86 -150 86 -72 85 -216 86 -246 86 -192 85 -144 86 -288 86 -115 
85 -384 86 -252 86 -126 85 -192 86 -84 86 -84 85 -132 86 -24 
86 -48 85 -30 86 -12 86 -18 85 6 86 -12 86 -6 85 -7 
86 0 86 0 85 0 86 0 86 0 85 0 1074 3278 31 MP stroke
gr

c8
0 sg
2048 3566 mt 
(Prob. di colorazione) s
 363 2332 mt  -90 rotate
(Freq. di percolazione) s
90 rotate
1697  181 mt 
(Individuazione della soglia critica) s

end %%Color Dict

eplot
%%EndObject

epage
end

showpage

%%Trailer
%%EOF
